# Feasible and Non-dominated Objective Vector
-0.999944	16.000446	
0.999924	0.000000	
0.340097	0.435472	
0.000026	1.000053	
-0.654390	13.354568	
-0.591541	12.899167	
0.169846	0.689156	
-0.814342	14.549205	
-0.382968	11.444472	
-0.784529	14.322658	
0.282152	0.515306	
-0.315247	10.990863	
-0.104469	9.637730	
0.944793	0.003048	
-0.234481	10.461866	
-0.524529	12.422308	
0.077495	0.851016	
-0.099499	9.606897	
-0.719401	13.833946	
-0.000186	9.001118	
-0.981773	15.854515	
0.818200	0.033051	
-0.905666	15.254226	
-0.844920	14.783411	
-0.199492	10.236752	
0.633649	0.134213	
0.740885	0.067141	
-0.748900	14.054251	
0.600206	0.159835	
-0.356958	11.269166	
-0.626445	13.151104	
0.076889	0.852134	
0.144137	0.732501	
-0.057164	9.346250	
-0.719401	13.833946	
-0.438071	11.820333	
0.340097	0.435472	
-0.905666	15.254226	
0.477734	0.272762	
-0.553226	12.625417	
0.442918	0.310340	
-0.309213	10.950889	
-0.017541	9.105555	
-0.999944	16.000446	
0.859251	0.019810	
-0.187982	10.163231	
0.553912	0.198994	
0.703765	0.087755	
0.956274	0.001912	
-0.888713	15.122091	
