# Last generation population (Feasible and non-dominated)
# Fitness_vector (first 2)  Constraint_violation (next 0)  Overall_penalty
1.000011	0.000000	
-0.999982	15.999857	
0.255820	0.553804	
0.496611	0.253400	
-0.253770	10.587017	
-0.442173	11.848552	
0.806796	0.037328	
-0.000084	9.000506	
0.681438	0.101482	
-0.144902	9.890411	
0.175691	0.679486	
0.234088	0.586621	
0.000002	0.999995	
-0.896948	15.186201	
0.560344	0.193297	
-0.949450	15.598153	
0.875265	0.015559	
-0.046184	9.279235	
0.160931	0.704037	
-0.084099	9.511665	
0.773975	0.051087	
-0.292595	10.841185	
-0.880506	15.058331	
-0.210443	10.306945	
-0.545893	12.573355	
0.926522	0.005399	
-0.372854	11.376144	
-0.401782	11.572121	
-0.187635	10.161019	
-0.871314	14.987072	
0.371500	0.395013	
-0.106543	9.650607	
-0.926487	15.417304	
-0.550617	12.606881	
-0.775253	14.252538	
-0.156392	9.962811	
0.852809	0.021665	
-0.507177	12.300290	
0.740232	0.067480	
-0.267488	10.676481	
0.037838	0.925755	
0.591489	0.166881	
0.538980	0.212540	
-0.128571	9.787960	
0.481236	0.269116	
-0.431852	11.777611	
-0.564958	12.708928	
0.349380	0.423306	
0.625838	0.139997	
-0.526251	12.434445	
0.463422	0.287916	
-0.387910	11.477934	
-0.949450	15.598153	
-0.310286	10.957994	
-0.472260	12.056593	
-0.292595	10.841185	
0.660259	0.115424	
-0.182573	10.128773	
-0.736628	13.962389	
0.191951	0.652943	
-0.840012	14.745696	
-0.602200	12.975847	
-0.980248	15.842378	
-0.230176	10.434040	
-0.807513	14.497159	
0.084543	0.838062	
-0.210443	10.306945	
0.120643	0.773269	
-0.016341	9.098314	
0.115095	0.783057	
-0.752520	14.081407	
-0.710608	13.768610	
0.283428	0.513476	
-0.684661	13.576728	
-0.513880	12.347351	
0.963274	0.001349	
-0.334687	11.120135	
-0.602853	12.980547	
0.822871	0.031375	
-0.775253	14.252538	
-0.114416	9.699588	
0.303342	0.485332	
-0.922432	15.385472	
-0.622653	13.123615	
0.717477	0.079819	
1.000011	0.000000	
1.000011	0.000000	
-0.999982	15.999857	
-0.667804	13.452785	
0.325428	0.455047	
-0.431852	11.777611	
-0.966260	15.731216	
-0.718809	13.829537	
-0.481889	12.123549	
0.625838	0.139997	
-0.844561	14.780652	
0.591489	0.166881	
-0.051776	9.313336	
0.414161	0.343207	
-0.653498	13.348049	
