--------RANK AT GENERATION 1--------------
Rank old ranks   new ranks     rankratio
 1	  14		 38	 0.730769
 2	  3		 4	 0.571429
 3	  3		 4	 0.571429
 4	  7		 3	 0.300000
 5	  5		 6	 0.545455
 6	  3		 9	 0.750000
 7	  5		 4	 0.444444
 8	  3		 4	 0.571429
 9	  2		 5	 0.714286
 10	  2		 8	 0.800000
 11	  2		 5	 0.714286
 12	  2		 8	 0.800000
 13	  2		 2	 0.500000
 14	  2		 0	 0.000000
 15	  2		 0	 0.000000
 16	  2		 0	 0.000000
 17	  2		 0	 0.000000
 18	  2		 0	 0.000000
 19	  2		 0	 0.000000
 20	  2		 0	 0.000000
 21	  2		 0	 0.000000
 22	  2		 0	 0.000000
 23	  2		 0	 0.000000
 24	  2		 0	 0.000000
 25	  2		 0	 0.000000
 26	  2		 0	 0.000000
 27	  2		 0	 0.000000
 28	  1		 0	 0.000000
 29	  1		 0	 0.000000
 30	  1		 0	 0.000000
 31	  1		 0	 0.000000
 32	  1		 0	 0.000000
 33	  1		 0	 0.000000
 34	  1		 0	 0.000000
 35	  1		 0	 0.000000
 36	  1		 0	 0.000000
 37	  1		 0	 0.000000
 38	  1		 0	 0.000000
 39	  1		 0	 0.000000
 40	  1		 0	 0.000000
 41	  1		 0	 0.000000
 42	  1		 0	 0.000000
 43	  1		 0	 0.000000
 44	  1		 0	 0.000000
 45	  1		 0	 0.000000
 46	  1		 0	 0.000000
-----------------Rank Ratio-------------------
--------RANK AT GENERATION 2--------------
Rank old ranks   new ranks     rankratio
 1	  38		 100	 0.724638
 2	  4		 4	 0.500000
 3	  4		 4	 0.500000
 4	  3		 3	 0.500000
 5	  6		 6	 0.500000
 6	  9		 9	 0.500000
 7	  4		 4	 0.500000
 8	  4		 4	 0.500000
 9	  5		 5	 0.500000
 10	  8		 8	 0.500000
 11	  5		 5	 0.500000
 12	  8		 8	 0.500000
 13	  2		 2	 0.500000
-----------------Rank Ratio-------------------
--------RANK AT GENERATION 3--------------
Rank old ranks   new ranks     rankratio
 1	  100		 100	 0.500000
-----------------Rank Ratio-------------------
--------RANK AT GENERATION 4--------------
Rank old ranks   new ranks     rankratio
 1	  100		 100	 0.500000
-----------------Rank Ratio-------------------
--------RANK AT GENERATION 5--------------
Rank old ranks   new ranks     rankratio
 1	  100		 100	 0.500000
-----------------Rank Ratio-------------------
--------RANK AT GENERATION 6--------------
Rank old ranks   new ranks     rankratio
 1	  100		 100	 0.500000
-----------------Rank Ratio-------------------
--------RANK AT GENERATION 7--------------
Rank old ranks   new ranks     rankratio
 1	  100		 100	 0.500000
-----------------Rank Ratio-------------------
--------RANK AT GENERATION 8--------------
Rank old ranks   new ranks     rankratio
 1	  100		 100	 0.500000
-----------------Rank Ratio-------------------
--------RANK AT GENERATION 9--------------
Rank old ranks   new ranks     rankratio
 1	  100		 100	 0.500000
-----------------Rank Ratio-------------------
--------RANK AT GENERATION 10--------------
Rank old ranks   new ranks     rankratio
 1	  100		 100	 0.500000
-----------------Rank Ratio-------------------
--------RANK AT GENERATION 11--------------
Rank old ranks   new ranks     rankratio
 1	  100		 100	 0.500000
-----------------Rank Ratio-------------------
--------RANK AT GENERATION 12--------------
Rank old ranks   new ranks     rankratio
 1	  100		 100	 0.500000
-----------------Rank Ratio-------------------
--------RANK AT GENERATION 13--------------
Rank old ranks   new ranks     rankratio
 1	  100		 100	 0.500000
-----------------Rank Ratio-------------------
--------RANK AT GENERATION 14--------------
Rank old ranks   new ranks     rankratio
 1	  100		 100	 0.500000
-----------------Rank Ratio-------------------
--------RANK AT GENERATION 15--------------
Rank old ranks   new ranks     rankratio
 1	  100		 100	 0.500000
-----------------Rank Ratio-------------------
--------RANK AT GENERATION 16--------------
Rank old ranks   new ranks     rankratio
 1	  100		 100	 0.500000
-----------------Rank Ratio-------------------
--------RANK AT GENERATION 17--------------
Rank old ranks   new ranks     rankratio
 1	  100		 100	 0.500000
-----------------Rank Ratio-------------------
--------RANK AT GENERATION 18--------------
Rank old ranks   new ranks     rankratio
 1	  100		 100	 0.500000
-----------------Rank Ratio-------------------
--------RANK AT GENERATION 19--------------
Rank old ranks   new ranks     rankratio
 1	  100		 100	 0.500000
-----------------Rank Ratio-------------------
--------RANK AT GENERATION 20--------------
Rank old ranks   new ranks     rankratio
 1	  100		 100	 0.500000
-----------------Rank Ratio-------------------
--------RANK AT GENERATION 21--------------
Rank old ranks   new ranks     rankratio
 1	  100		 100	 0.500000
-----------------Rank Ratio-------------------
--------RANK AT GENERATION 22--------------
Rank old ranks   new ranks     rankratio
 1	  100		 100	 0.500000
-----------------Rank Ratio-------------------
--------RANK AT GENERATION 23--------------
Rank old ranks   new ranks     rankratio
 1	  100		 100	 0.500000
-----------------Rank Ratio-------------------
--------RANK AT GENERATION 24--------------
Rank old ranks   new ranks     rankratio
 1	  100		 100	 0.500000
-----------------Rank Ratio-------------------
--------RANK AT GENERATION 25--------------
Rank old ranks   new ranks     rankratio
 1	  100		 100	 0.500000
-----------------Rank Ratio-------------------
--------RANK AT GENERATION 26--------------
Rank old ranks   new ranks     rankratio
 1	  100		 100	 0.500000
-----------------Rank Ratio-------------------
--------RANK AT GENERATION 27--------------
Rank old ranks   new ranks     rankratio
 1	  100		 100	 0.500000
-----------------Rank Ratio-------------------
--------RANK AT GENERATION 28--------------
Rank old ranks   new ranks     rankratio
 1	  100		 100	 0.500000
-----------------Rank Ratio-------------------
--------RANK AT GENERATION 29--------------
Rank old ranks   new ranks     rankratio
 1	  100		 100	 0.500000
-----------------Rank Ratio-------------------
--------RANK AT GENERATION 30--------------
Rank old ranks   new ranks     rankratio
 1	  100		 100	 0.500000
-----------------Rank Ratio-------------------
--------RANK AT GENERATION 31--------------
Rank old ranks   new ranks     rankratio
 1	  100		 100	 0.500000
-----------------Rank Ratio-------------------
--------RANK AT GENERATION 32--------------
Rank old ranks   new ranks     rankratio
 1	  100		 100	 0.500000
-----------------Rank Ratio-------------------
--------RANK AT GENERATION 33--------------
Rank old ranks   new ranks     rankratio
 1	  100		 100	 0.500000
-----------------Rank Ratio-------------------
--------RANK AT GENERATION 34--------------
Rank old ranks   new ranks     rankratio
 1	  100		 100	 0.500000
-----------------Rank Ratio-------------------
--------RANK AT GENERATION 35--------------
Rank old ranks   new ranks     rankratio
 1	  100		 100	 0.500000
-----------------Rank Ratio-------------------
--------RANK AT GENERATION 36--------------
Rank old ranks   new ranks     rankratio
 1	  100		 100	 0.500000
-----------------Rank Ratio-------------------
--------RANK AT GENERATION 37--------------
Rank old ranks   new ranks     rankratio
 1	  100		 100	 0.500000
-----------------Rank Ratio-------------------
--------RANK AT GENERATION 38--------------
Rank old ranks   new ranks     rankratio
 1	  100		 100	 0.500000
-----------------Rank Ratio-------------------
--------RANK AT GENERATION 39--------------
Rank old ranks   new ranks     rankratio
 1	  100		 100	 0.500000
-----------------Rank Ratio-------------------
--------RANK AT GENERATION 40--------------
Rank old ranks   new ranks     rankratio
 1	  100		 100	 0.500000
-----------------Rank Ratio-------------------
--------RANK AT GENERATION 41--------------
Rank old ranks   new ranks     rankratio
 1	  100		 100	 0.500000
-----------------Rank Ratio-------------------
--------RANK AT GENERATION 42--------------
Rank old ranks   new ranks     rankratio
 1	  100		 100	 0.500000
-----------------Rank Ratio-------------------
--------RANK AT GENERATION 43--------------
Rank old ranks   new ranks     rankratio
 1	  100		 100	 0.500000
-----------------Rank Ratio-------------------
--------RANK AT GENERATION 44--------------
Rank old ranks   new ranks     rankratio
 1	  100		 100	 0.500000
-----------------Rank Ratio-------------------
--------RANK AT GENERATION 45--------------
Rank old ranks   new ranks     rankratio
 1	  100		 100	 0.500000
-----------------Rank Ratio-------------------
--------RANK AT GENERATION 46--------------
Rank old ranks   new ranks     rankratio
 1	  100		 100	 0.500000
-----------------Rank Ratio-------------------
--------RANK AT GENERATION 47--------------
Rank old ranks   new ranks     rankratio
 1	  100		 100	 0.500000
-----------------Rank Ratio-------------------
--------RANK AT GENERATION 48--------------
Rank old ranks   new ranks     rankratio
 1	  100		 100	 0.500000
-----------------Rank Ratio-------------------
--------RANK AT GENERATION 49--------------
Rank old ranks   new ranks     rankratio
 1	  100		 100	 0.500000
-----------------Rank Ratio-------------------
--------RANK AT GENERATION 50--------------
Rank old ranks   new ranks     rankratio
 1	  100		 100	 0.500000
-----------------Rank Ratio-------------------
--------RANK AT GENERATION 51--------------
Rank old ranks   new ranks     rankratio
 1	  100		 100	 0.500000
-----------------Rank Ratio-------------------
--------RANK AT GENERATION 52--------------
Rank old ranks   new ranks     rankratio
 1	  100		 100	 0.500000
-----------------Rank Ratio-------------------
--------RANK AT GENERATION 53--------------
Rank old ranks   new ranks     rankratio
 1	  100		 100	 0.500000
-----------------Rank Ratio-------------------
--------RANK AT GENERATION 54--------------
Rank old ranks   new ranks     rankratio
 1	  100		 100	 0.500000
-----------------Rank Ratio-------------------
--------RANK AT GENERATION 55--------------
Rank old ranks   new ranks     rankratio
 1	  100		 100	 0.500000
-----------------Rank Ratio-------------------
--------RANK AT GENERATION 56--------------
Rank old ranks   new ranks     rankratio
 1	  100		 100	 0.500000
-----------------Rank Ratio-------------------
--------RANK AT GENERATION 57--------------
Rank old ranks   new ranks     rankratio
 1	  100		 100	 0.500000
-----------------Rank Ratio-------------------
--------RANK AT GENERATION 58--------------
Rank old ranks   new ranks     rankratio
 1	  100		 100	 0.500000
-----------------Rank Ratio-------------------
--------RANK AT GENERATION 59--------------
Rank old ranks   new ranks     rankratio
 1	  100		 100	 0.500000
-----------------Rank Ratio-------------------
--------RANK AT GENERATION 60--------------
Rank old ranks   new ranks     rankratio
 1	  100		 100	 0.500000
-----------------Rank Ratio-------------------
--------RANK AT GENERATION 61--------------
Rank old ranks   new ranks     rankratio
 1	  100		 100	 0.500000
-----------------Rank Ratio-------------------
--------RANK AT GENERATION 62--------------
Rank old ranks   new ranks     rankratio
 1	  100		 100	 0.500000
-----------------Rank Ratio-------------------
--------RANK AT GENERATION 63--------------
Rank old ranks   new ranks     rankratio
 1	  100		 100	 0.500000
-----------------Rank Ratio-------------------
--------RANK AT GENERATION 64--------------
Rank old ranks   new ranks     rankratio
 1	  100		 100	 0.500000
-----------------Rank Ratio-------------------
--------RANK AT GENERATION 65--------------
Rank old ranks   new ranks     rankratio
 1	  100		 100	 0.500000
-----------------Rank Ratio-------------------
--------RANK AT GENERATION 66--------------
Rank old ranks   new ranks     rankratio
 1	  100		 100	 0.500000
-----------------Rank Ratio-------------------
--------RANK AT GENERATION 67--------------
Rank old ranks   new ranks     rankratio
 1	  100		 100	 0.500000
-----------------Rank Ratio-------------------
--------RANK AT GENERATION 68--------------
Rank old ranks   new ranks     rankratio
 1	  100		 100	 0.500000
-----------------Rank Ratio-------------------
--------RANK AT GENERATION 69--------------
Rank old ranks   new ranks     rankratio
 1	  100		 100	 0.500000
-----------------Rank Ratio-------------------
--------RANK AT GENERATION 70--------------
Rank old ranks   new ranks     rankratio
 1	  100		 100	 0.500000
-----------------Rank Ratio-------------------
--------RANK AT GENERATION 71--------------
Rank old ranks   new ranks     rankratio
 1	  100		 100	 0.500000
-----------------Rank Ratio-------------------
--------RANK AT GENERATION 72--------------
Rank old ranks   new ranks     rankratio
 1	  100		 100	 0.500000
-----------------Rank Ratio-------------------
--------RANK AT GENERATION 73--------------
Rank old ranks   new ranks     rankratio
 1	  100		 100	 0.500000
-----------------Rank Ratio-------------------
--------RANK AT GENERATION 74--------------
Rank old ranks   new ranks     rankratio
 1	  100		 100	 0.500000
-----------------Rank Ratio-------------------
--------RANK AT GENERATION 75--------------
Rank old ranks   new ranks     rankratio
 1	  100		 100	 0.500000
-----------------Rank Ratio-------------------
--------RANK AT GENERATION 76--------------
Rank old ranks   new ranks     rankratio
 1	  100		 100	 0.500000
-----------------Rank Ratio-------------------
--------RANK AT GENERATION 77--------------
Rank old ranks   new ranks     rankratio
 1	  100		 100	 0.500000
-----------------Rank Ratio-------------------
--------RANK AT GENERATION 78--------------
Rank old ranks   new ranks     rankratio
 1	  100		 100	 0.500000
-----------------Rank Ratio-------------------
--------RANK AT GENERATION 79--------------
Rank old ranks   new ranks     rankratio
 1	  100		 100	 0.500000
-----------------Rank Ratio-------------------
--------RANK AT GENERATION 80--------------
Rank old ranks   new ranks     rankratio
 1	  100		 100	 0.500000
-----------------Rank Ratio-------------------
--------RANK AT GENERATION 81--------------
Rank old ranks   new ranks     rankratio
 1	  100		 100	 0.500000
-----------------Rank Ratio-------------------
--------RANK AT GENERATION 82--------------
Rank old ranks   new ranks     rankratio
 1	  100		 100	 0.500000
-----------------Rank Ratio-------------------
--------RANK AT GENERATION 83--------------
Rank old ranks   new ranks     rankratio
 1	  100		 100	 0.500000
-----------------Rank Ratio-------------------
--------RANK AT GENERATION 84--------------
Rank old ranks   new ranks     rankratio
 1	  100		 100	 0.500000
-----------------Rank Ratio-------------------
--------RANK AT GENERATION 85--------------
Rank old ranks   new ranks     rankratio
 1	  100		 100	 0.500000
-----------------Rank Ratio-------------------
--------RANK AT GENERATION 86--------------
Rank old ranks   new ranks     rankratio
 1	  100		 100	 0.500000
-----------------Rank Ratio-------------------
--------RANK AT GENERATION 87--------------
Rank old ranks   new ranks     rankratio
 1	  100		 100	 0.500000
-----------------Rank Ratio-------------------
--------RANK AT GENERATION 88--------------
Rank old ranks   new ranks     rankratio
 1	  100		 100	 0.500000
-----------------Rank Ratio-------------------
--------RANK AT GENERATION 89--------------
Rank old ranks   new ranks     rankratio
 1	  100		 100	 0.500000
-----------------Rank Ratio-------------------
--------RANK AT GENERATION 90--------------
Rank old ranks   new ranks     rankratio
 1	  100		 100	 0.500000
-----------------Rank Ratio-------------------
--------RANK AT GENERATION 91--------------
Rank old ranks   new ranks     rankratio
 1	  100		 100	 0.500000
-----------------Rank Ratio-------------------
--------RANK AT GENERATION 92--------------
Rank old ranks   new ranks     rankratio
 1	  100		 100	 0.500000
-----------------Rank Ratio-------------------
--------RANK AT GENERATION 93--------------
Rank old ranks   new ranks     rankratio
 1	  100		 100	 0.500000
-----------------Rank Ratio-------------------
--------RANK AT GENERATION 94--------------
Rank old ranks   new ranks     rankratio
 1	  100		 100	 0.500000
-----------------Rank Ratio-------------------
--------RANK AT GENERATION 95--------------
Rank old ranks   new ranks     rankratio
 1	  100		 100	 0.500000
-----------------Rank Ratio-------------------
--------RANK AT GENERATION 96--------------
Rank old ranks   new ranks     rankratio
 1	  100		 100	 0.500000
-----------------Rank Ratio-------------------
--------RANK AT GENERATION 97--------------
Rank old ranks   new ranks     rankratio
 1	  100		 100	 0.500000
-----------------Rank Ratio-------------------
--------RANK AT GENERATION 98--------------
Rank old ranks   new ranks     rankratio
 1	  100		 100	 0.500000
-----------------Rank Ratio-------------------
--------RANK AT GENERATION 99--------------
Rank old ranks   new ranks     rankratio
 1	  100		 100	 0.500000
-----------------Rank Ratio-------------------
--------RANK AT GENERATION 100--------------
Rank old ranks   new ranks     rankratio
 1	  100		 100	 0.500000
-----------------Rank Ratio-------------------
--------RANK AT GENERATION 101--------------
Rank old ranks   new ranks     rankratio
 1	  100		 100	 0.500000
-----------------Rank Ratio-------------------
--------RANK AT GENERATION 102--------------
Rank old ranks   new ranks     rankratio
 1	  100		 100	 0.500000
-----------------Rank Ratio-------------------
--------RANK AT GENERATION 103--------------
Rank old ranks   new ranks     rankratio
 1	  100		 100	 0.500000
-----------------Rank Ratio-------------------
--------RANK AT GENERATION 104--------------
Rank old ranks   new ranks     rankratio
 1	  100		 100	 0.500000
-----------------Rank Ratio-------------------
--------RANK AT GENERATION 105--------------
Rank old ranks   new ranks     rankratio
 1	  100		 100	 0.500000
-----------------Rank Ratio-------------------
--------RANK AT GENERATION 106--------------
Rank old ranks   new ranks     rankratio
 1	  100		 100	 0.500000
-----------------Rank Ratio-------------------
--------RANK AT GENERATION 107--------------
Rank old ranks   new ranks     rankratio
 1	  100		 100	 0.500000
-----------------Rank Ratio-------------------
--------RANK AT GENERATION 108--------------
Rank old ranks   new ranks     rankratio
 1	  100		 100	 0.500000
-----------------Rank Ratio-------------------
--------RANK AT GENERATION 109--------------
Rank old ranks   new ranks     rankratio
 1	  100		 100	 0.500000
-----------------Rank Ratio-------------------
--------RANK AT GENERATION 110--------------
Rank old ranks   new ranks     rankratio
 1	  100		 100	 0.500000
-----------------Rank Ratio-------------------
--------RANK AT GENERATION 111--------------
Rank old ranks   new ranks     rankratio
 1	  100		 100	 0.500000
-----------------Rank Ratio-------------------
--------RANK AT GENERATION 112--------------
Rank old ranks   new ranks     rankratio
 1	  100		 100	 0.500000
-----------------Rank Ratio-------------------
--------RANK AT GENERATION 113--------------
Rank old ranks   new ranks     rankratio
 1	  100		 100	 0.500000
-----------------Rank Ratio-------------------
--------RANK AT GENERATION 114--------------
Rank old ranks   new ranks     rankratio
 1	  100		 100	 0.500000
-----------------Rank Ratio-------------------
--------RANK AT GENERATION 115--------------
Rank old ranks   new ranks     rankratio
 1	  100		 100	 0.500000
-----------------Rank Ratio-------------------
--------RANK AT GENERATION 116--------------
Rank old ranks   new ranks     rankratio
 1	  100		 100	 0.500000
-----------------Rank Ratio-------------------
--------RANK AT GENERATION 117--------------
Rank old ranks   new ranks     rankratio
 1	  100		 100	 0.500000
-----------------Rank Ratio-------------------
--------RANK AT GENERATION 118--------------
Rank old ranks   new ranks     rankratio
 1	  100		 100	 0.500000
-----------------Rank Ratio-------------------
--------RANK AT GENERATION 119--------------
Rank old ranks   new ranks     rankratio
 1	  100		 100	 0.500000
-----------------Rank Ratio-------------------
--------RANK AT GENERATION 120--------------
Rank old ranks   new ranks     rankratio
 1	  100		 100	 0.500000
-----------------Rank Ratio-------------------
--------RANK AT GENERATION 121--------------
Rank old ranks   new ranks     rankratio
 1	  100		 100	 0.500000
-----------------Rank Ratio-------------------
--------RANK AT GENERATION 122--------------
Rank old ranks   new ranks     rankratio
 1	  100		 100	 0.500000
-----------------Rank Ratio-------------------
--------RANK AT GENERATION 123--------------
Rank old ranks   new ranks     rankratio
 1	  100		 100	 0.500000
-----------------Rank Ratio-------------------
--------RANK AT GENERATION 124--------------
Rank old ranks   new ranks     rankratio
 1	  100		 100	 0.500000
-----------------Rank Ratio-------------------
--------RANK AT GENERATION 125--------------
Rank old ranks   new ranks     rankratio
 1	  100		 100	 0.500000
-----------------Rank Ratio-------------------
--------RANK AT GENERATION 126--------------
Rank old ranks   new ranks     rankratio
 1	  100		 100	 0.500000
-----------------Rank Ratio-------------------
--------RANK AT GENERATION 127--------------
Rank old ranks   new ranks     rankratio
 1	  100		 100	 0.500000
-----------------Rank Ratio-------------------
--------RANK AT GENERATION 128--------------
Rank old ranks   new ranks     rankratio
 1	  100		 100	 0.500000
-----------------Rank Ratio-------------------
--------RANK AT GENERATION 129--------------
Rank old ranks   new ranks     rankratio
 1	  100		 100	 0.500000
-----------------Rank Ratio-------------------
--------RANK AT GENERATION 130--------------
Rank old ranks   new ranks     rankratio
 1	  100		 100	 0.500000
-----------------Rank Ratio-------------------
--------RANK AT GENERATION 131--------------
Rank old ranks   new ranks     rankratio
 1	  100		 100	 0.500000
-----------------Rank Ratio-------------------
--------RANK AT GENERATION 132--------------
Rank old ranks   new ranks     rankratio
 1	  100		 100	 0.500000
-----------------Rank Ratio-------------------
--------RANK AT GENERATION 133--------------
Rank old ranks   new ranks     rankratio
 1	  100		 100	 0.500000
-----------------Rank Ratio-------------------
--------RANK AT GENERATION 134--------------
Rank old ranks   new ranks     rankratio
 1	  100		 100	 0.500000
-----------------Rank Ratio-------------------
--------RANK AT GENERATION 135--------------
Rank old ranks   new ranks     rankratio
 1	  100		 100	 0.500000
-----------------Rank Ratio-------------------
--------RANK AT GENERATION 136--------------
Rank old ranks   new ranks     rankratio
 1	  100		 100	 0.500000
-----------------Rank Ratio-------------------
--------RANK AT GENERATION 137--------------
Rank old ranks   new ranks     rankratio
 1	  100		 100	 0.500000
-----------------Rank Ratio-------------------
--------RANK AT GENERATION 138--------------
Rank old ranks   new ranks     rankratio
 1	  100		 100	 0.500000
-----------------Rank Ratio-------------------
--------RANK AT GENERATION 139--------------
Rank old ranks   new ranks     rankratio
 1	  100		 100	 0.500000
-----------------Rank Ratio-------------------
--------RANK AT GENERATION 140--------------
Rank old ranks   new ranks     rankratio
 1	  100		 100	 0.500000
-----------------Rank Ratio-------------------
--------RANK AT GENERATION 141--------------
Rank old ranks   new ranks     rankratio
 1	  100		 100	 0.500000
-----------------Rank Ratio-------------------
--------RANK AT GENERATION 142--------------
Rank old ranks   new ranks     rankratio
 1	  100		 100	 0.500000
-----------------Rank Ratio-------------------
--------RANK AT GENERATION 143--------------
Rank old ranks   new ranks     rankratio
 1	  100		 100	 0.500000
-----------------Rank Ratio-------------------
--------RANK AT GENERATION 144--------------
Rank old ranks   new ranks     rankratio
 1	  100		 100	 0.500000
-----------------Rank Ratio-------------------
--------RANK AT GENERATION 145--------------
Rank old ranks   new ranks     rankratio
 1	  100		 100	 0.500000
-----------------Rank Ratio-------------------
--------RANK AT GENERATION 146--------------
Rank old ranks   new ranks     rankratio
 1	  100		 100	 0.500000
-----------------Rank Ratio-------------------
--------RANK AT GENERATION 147--------------
Rank old ranks   new ranks     rankratio
 1	  100		 100	 0.500000
-----------------Rank Ratio-------------------
--------RANK AT GENERATION 148--------------
Rank old ranks   new ranks     rankratio
 1	  100		 100	 0.500000
-----------------Rank Ratio-------------------
--------RANK AT GENERATION 149--------------
Rank old ranks   new ranks     rankratio
 1	  100		 100	 0.500000
-----------------Rank Ratio-------------------
--------RANK AT GENERATION 150--------------
Rank old ranks   new ranks     rankratio
 1	  100		 100	 0.500000
-----------------Rank Ratio-------------------
--------RANK AT GENERATION 151--------------
Rank old ranks   new ranks     rankratio
 1	  100		 100	 0.500000
-----------------Rank Ratio-------------------
--------RANK AT GENERATION 152--------------
Rank old ranks   new ranks     rankratio
 1	  100		 100	 0.500000
-----------------Rank Ratio-------------------
--------RANK AT GENERATION 153--------------
Rank old ranks   new ranks     rankratio
 1	  100		 100	 0.500000
-----------------Rank Ratio-------------------
--------RANK AT GENERATION 154--------------
Rank old ranks   new ranks     rankratio
 1	  100		 100	 0.500000
-----------------Rank Ratio-------------------
--------RANK AT GENERATION 155--------------
Rank old ranks   new ranks     rankratio
 1	  100		 100	 0.500000
-----------------Rank Ratio-------------------
--------RANK AT GENERATION 156--------------
Rank old ranks   new ranks     rankratio
 1	  100		 100	 0.500000
-----------------Rank Ratio-------------------
--------RANK AT GENERATION 157--------------
Rank old ranks   new ranks     rankratio
 1	  100		 100	 0.500000
-----------------Rank Ratio-------------------
--------RANK AT GENERATION 158--------------
Rank old ranks   new ranks     rankratio
 1	  100		 100	 0.500000
-----------------Rank Ratio-------------------
--------RANK AT GENERATION 159--------------
Rank old ranks   new ranks     rankratio
 1	  100		 100	 0.500000
-----------------Rank Ratio-------------------
--------RANK AT GENERATION 160--------------
Rank old ranks   new ranks     rankratio
 1	  100		 100	 0.500000
-----------------Rank Ratio-------------------
--------RANK AT GENERATION 161--------------
Rank old ranks   new ranks     rankratio
 1	  100		 100	 0.500000
-----------------Rank Ratio-------------------
--------RANK AT GENERATION 162--------------
Rank old ranks   new ranks     rankratio
 1	  100		 100	 0.500000
-----------------Rank Ratio-------------------
--------RANK AT GENERATION 163--------------
Rank old ranks   new ranks     rankratio
 1	  100		 100	 0.500000
-----------------Rank Ratio-------------------
--------RANK AT GENERATION 164--------------
Rank old ranks   new ranks     rankratio
 1	  100		 100	 0.500000
-----------------Rank Ratio-------------------
--------RANK AT GENERATION 165--------------
Rank old ranks   new ranks     rankratio
 1	  100		 100	 0.500000
-----------------Rank Ratio-------------------
--------RANK AT GENERATION 166--------------
Rank old ranks   new ranks     rankratio
 1	  100		 100	 0.500000
-----------------Rank Ratio-------------------
--------RANK AT GENERATION 167--------------
Rank old ranks   new ranks     rankratio
 1	  100		 100	 0.500000
-----------------Rank Ratio-------------------
--------RANK AT GENERATION 168--------------
Rank old ranks   new ranks     rankratio
 1	  100		 100	 0.500000
-----------------Rank Ratio-------------------
--------RANK AT GENERATION 169--------------
Rank old ranks   new ranks     rankratio
 1	  100		 100	 0.500000
-----------------Rank Ratio-------------------
--------RANK AT GENERATION 170--------------
Rank old ranks   new ranks     rankratio
 1	  100		 100	 0.500000
-----------------Rank Ratio-------------------
--------RANK AT GENERATION 171--------------
Rank old ranks   new ranks     rankratio
 1	  100		 100	 0.500000
-----------------Rank Ratio-------------------
--------RANK AT GENERATION 172--------------
Rank old ranks   new ranks     rankratio
 1	  100		 100	 0.500000
-----------------Rank Ratio-------------------
--------RANK AT GENERATION 173--------------
Rank old ranks   new ranks     rankratio
 1	  100		 100	 0.500000
-----------------Rank Ratio-------------------
--------RANK AT GENERATION 174--------------
Rank old ranks   new ranks     rankratio
 1	  100		 100	 0.500000
-----------------Rank Ratio-------------------
--------RANK AT GENERATION 175--------------
Rank old ranks   new ranks     rankratio
 1	  100		 100	 0.500000
-----------------Rank Ratio-------------------
--------RANK AT GENERATION 176--------------
Rank old ranks   new ranks     rankratio
 1	  100		 100	 0.500000
-----------------Rank Ratio-------------------
--------RANK AT GENERATION 177--------------
Rank old ranks   new ranks     rankratio
 1	  100		 100	 0.500000
-----------------Rank Ratio-------------------
--------RANK AT GENERATION 178--------------
Rank old ranks   new ranks     rankratio
 1	  100		 100	 0.500000
-----------------Rank Ratio-------------------
--------RANK AT GENERATION 179--------------
Rank old ranks   new ranks     rankratio
 1	  100		 100	 0.500000
-----------------Rank Ratio-------------------
--------RANK AT GENERATION 180--------------
Rank old ranks   new ranks     rankratio
 1	  100		 100	 0.500000
-----------------Rank Ratio-------------------
--------RANK AT GENERATION 181--------------
Rank old ranks   new ranks     rankratio
 1	  100		 100	 0.500000
-----------------Rank Ratio-------------------
--------RANK AT GENERATION 182--------------
Rank old ranks   new ranks     rankratio
 1	  100		 100	 0.500000
-----------------Rank Ratio-------------------
--------RANK AT GENERATION 183--------------
Rank old ranks   new ranks     rankratio
 1	  100		 100	 0.500000
-----------------Rank Ratio-------------------
--------RANK AT GENERATION 184--------------
Rank old ranks   new ranks     rankratio
 1	  100		 100	 0.500000
-----------------Rank Ratio-------------------
--------RANK AT GENERATION 185--------------
Rank old ranks   new ranks     rankratio
 1	  100		 100	 0.500000
-----------------Rank Ratio-------------------
--------RANK AT GENERATION 186--------------
Rank old ranks   new ranks     rankratio
 1	  100		 100	 0.500000
-----------------Rank Ratio-------------------
--------RANK AT GENERATION 187--------------
Rank old ranks   new ranks     rankratio
 1	  100		 100	 0.500000
-----------------Rank Ratio-------------------
--------RANK AT GENERATION 188--------------
Rank old ranks   new ranks     rankratio
 1	  100		 100	 0.500000
-----------------Rank Ratio-------------------
--------RANK AT GENERATION 189--------------
Rank old ranks   new ranks     rankratio
 1	  100		 100	 0.500000
-----------------Rank Ratio-------------------
--------RANK AT GENERATION 190--------------
Rank old ranks   new ranks     rankratio
 1	  100		 100	 0.500000
-----------------Rank Ratio-------------------
--------RANK AT GENERATION 191--------------
Rank old ranks   new ranks     rankratio
 1	  100		 100	 0.500000
-----------------Rank Ratio-------------------
--------RANK AT GENERATION 192--------------
Rank old ranks   new ranks     rankratio
 1	  100		 100	 0.500000
-----------------Rank Ratio-------------------
--------RANK AT GENERATION 193--------------
Rank old ranks   new ranks     rankratio
 1	  100		 100	 0.500000
-----------------Rank Ratio-------------------
--------RANK AT GENERATION 194--------------
Rank old ranks   new ranks     rankratio
 1	  100		 100	 0.500000
-----------------Rank Ratio-------------------
--------RANK AT GENERATION 195--------------
Rank old ranks   new ranks     rankratio
 1	  100		 100	 0.500000
-----------------Rank Ratio-------------------
--------RANK AT GENERATION 196--------------
Rank old ranks   new ranks     rankratio
 1	  100		 100	 0.500000
-----------------Rank Ratio-------------------
--------RANK AT GENERATION 197--------------
Rank old ranks   new ranks     rankratio
 1	  100		 100	 0.500000
-----------------Rank Ratio-------------------
--------RANK AT GENERATION 198--------------
Rank old ranks   new ranks     rankratio
 1	  100		 100	 0.500000
-----------------Rank Ratio-------------------
--------RANK AT GENERATION 199--------------
Rank old ranks   new ranks     rankratio
 1	  100		 100	 0.500000
-----------------Rank Ratio-------------------
--------RANK AT GENERATION 200--------------
Rank old ranks   new ranks     rankratio
 1	  100		 100	 0.500000
-----------------Rank Ratio-------------------
--------RANK AT GENERATION 201--------------
Rank old ranks   new ranks     rankratio
 1	  100		 100	 0.500000
-----------------Rank Ratio-------------------
--------RANK AT GENERATION 202--------------
Rank old ranks   new ranks     rankratio
 1	  100		 100	 0.500000
-----------------Rank Ratio-------------------
--------RANK AT GENERATION 203--------------
Rank old ranks   new ranks     rankratio
 1	  100		 100	 0.500000
-----------------Rank Ratio-------------------
--------RANK AT GENERATION 204--------------
Rank old ranks   new ranks     rankratio
 1	  100		 100	 0.500000
-----------------Rank Ratio-------------------
--------RANK AT GENERATION 205--------------
Rank old ranks   new ranks     rankratio
 1	  100		 100	 0.500000
-----------------Rank Ratio-------------------
--------RANK AT GENERATION 206--------------
Rank old ranks   new ranks     rankratio
 1	  100		 100	 0.500000
-----------------Rank Ratio-------------------
--------RANK AT GENERATION 207--------------
Rank old ranks   new ranks     rankratio
 1	  100		 100	 0.500000
-----------------Rank Ratio-------------------
--------RANK AT GENERATION 208--------------
Rank old ranks   new ranks     rankratio
 1	  100		 100	 0.500000
-----------------Rank Ratio-------------------
--------RANK AT GENERATION 209--------------
Rank old ranks   new ranks     rankratio
 1	  100		 100	 0.500000
-----------------Rank Ratio-------------------
--------RANK AT GENERATION 210--------------
Rank old ranks   new ranks     rankratio
 1	  100		 100	 0.500000
-----------------Rank Ratio-------------------
--------RANK AT GENERATION 211--------------
Rank old ranks   new ranks     rankratio
 1	  100		 100	 0.500000
-----------------Rank Ratio-------------------
--------RANK AT GENERATION 212--------------
Rank old ranks   new ranks     rankratio
 1	  100		 100	 0.500000
-----------------Rank Ratio-------------------
--------RANK AT GENERATION 213--------------
Rank old ranks   new ranks     rankratio
 1	  100		 100	 0.500000
-----------------Rank Ratio-------------------
--------RANK AT GENERATION 214--------------
Rank old ranks   new ranks     rankratio
 1	  100		 100	 0.500000
-----------------Rank Ratio-------------------
--------RANK AT GENERATION 215--------------
Rank old ranks   new ranks     rankratio
 1	  100		 100	 0.500000
-----------------Rank Ratio-------------------
--------RANK AT GENERATION 216--------------
Rank old ranks   new ranks     rankratio
 1	  100		 100	 0.500000
-----------------Rank Ratio-------------------
--------RANK AT GENERATION 217--------------
Rank old ranks   new ranks     rankratio
 1	  100		 100	 0.500000
-----------------Rank Ratio-------------------
--------RANK AT GENERATION 218--------------
Rank old ranks   new ranks     rankratio
 1	  100		 100	 0.500000
-----------------Rank Ratio-------------------
--------RANK AT GENERATION 219--------------
Rank old ranks   new ranks     rankratio
 1	  100		 100	 0.500000
-----------------Rank Ratio-------------------
--------RANK AT GENERATION 220--------------
Rank old ranks   new ranks     rankratio
 1	  100		 100	 0.500000
-----------------Rank Ratio-------------------
--------RANK AT GENERATION 221--------------
Rank old ranks   new ranks     rankratio
 1	  100		 100	 0.500000
-----------------Rank Ratio-------------------
--------RANK AT GENERATION 222--------------
Rank old ranks   new ranks     rankratio
 1	  100		 100	 0.500000
-----------------Rank Ratio-------------------
--------RANK AT GENERATION 223--------------
Rank old ranks   new ranks     rankratio
 1	  100		 100	 0.500000
-----------------Rank Ratio-------------------
--------RANK AT GENERATION 224--------------
Rank old ranks   new ranks     rankratio
 1	  100		 100	 0.500000
-----------------Rank Ratio-------------------
--------RANK AT GENERATION 225--------------
Rank old ranks   new ranks     rankratio
 1	  100		 100	 0.500000
-----------------Rank Ratio-------------------
--------RANK AT GENERATION 226--------------
Rank old ranks   new ranks     rankratio
 1	  100		 100	 0.500000
-----------------Rank Ratio-------------------
--------RANK AT GENERATION 227--------------
Rank old ranks   new ranks     rankratio
 1	  100		 100	 0.500000
-----------------Rank Ratio-------------------
--------RANK AT GENERATION 228--------------
Rank old ranks   new ranks     rankratio
 1	  100		 100	 0.500000
-----------------Rank Ratio-------------------
--------RANK AT GENERATION 229--------------
Rank old ranks   new ranks     rankratio
 1	  100		 100	 0.500000
-----------------Rank Ratio-------------------
--------RANK AT GENERATION 230--------------
Rank old ranks   new ranks     rankratio
 1	  100		 100	 0.500000
-----------------Rank Ratio-------------------
--------RANK AT GENERATION 231--------------
Rank old ranks   new ranks     rankratio
 1	  100		 100	 0.500000
-----------------Rank Ratio-------------------
--------RANK AT GENERATION 232--------------
Rank old ranks   new ranks     rankratio
 1	  100		 100	 0.500000
-----------------Rank Ratio-------------------
--------RANK AT GENERATION 233--------------
Rank old ranks   new ranks     rankratio
 1	  100		 100	 0.500000
-----------------Rank Ratio-------------------
--------RANK AT GENERATION 234--------------
Rank old ranks   new ranks     rankratio
 1	  100		 100	 0.500000
-----------------Rank Ratio-------------------
--------RANK AT GENERATION 235--------------
Rank old ranks   new ranks     rankratio
 1	  100		 100	 0.500000
-----------------Rank Ratio-------------------
--------RANK AT GENERATION 236--------------
Rank old ranks   new ranks     rankratio
 1	  100		 100	 0.500000
-----------------Rank Ratio-------------------
--------RANK AT GENERATION 237--------------
Rank old ranks   new ranks     rankratio
 1	  100		 100	 0.500000
-----------------Rank Ratio-------------------
--------RANK AT GENERATION 238--------------
Rank old ranks   new ranks     rankratio
 1	  100		 100	 0.500000
-----------------Rank Ratio-------------------
--------RANK AT GENERATION 239--------------
Rank old ranks   new ranks     rankratio
 1	  100		 100	 0.500000
-----------------Rank Ratio-------------------
--------RANK AT GENERATION 240--------------
Rank old ranks   new ranks     rankratio
 1	  100		 100	 0.500000
-----------------Rank Ratio-------------------
--------RANK AT GENERATION 241--------------
Rank old ranks   new ranks     rankratio
 1	  100		 100	 0.500000
-----------------Rank Ratio-------------------
--------RANK AT GENERATION 242--------------
Rank old ranks   new ranks     rankratio
 1	  100		 100	 0.500000
-----------------Rank Ratio-------------------
--------RANK AT GENERATION 243--------------
Rank old ranks   new ranks     rankratio
 1	  100		 100	 0.500000
-----------------Rank Ratio-------------------
--------RANK AT GENERATION 244--------------
Rank old ranks   new ranks     rankratio
 1	  100		 100	 0.500000
-----------------Rank Ratio-------------------
--------RANK AT GENERATION 245--------------
Rank old ranks   new ranks     rankratio
 1	  100		 100	 0.500000
-----------------Rank Ratio-------------------
--------RANK AT GENERATION 246--------------
Rank old ranks   new ranks     rankratio
 1	  100		 100	 0.500000
-----------------Rank Ratio-------------------
--------RANK AT GENERATION 247--------------
Rank old ranks   new ranks     rankratio
 1	  100		 100	 0.500000
-----------------Rank Ratio-------------------
--------RANK AT GENERATION 248--------------
Rank old ranks   new ranks     rankratio
 1	  100		 100	 0.500000
-----------------Rank Ratio-------------------
--------RANK AT GENERATION 249--------------
Rank old ranks   new ranks     rankratio
 1	  100		 100	 0.500000
-----------------Rank Ratio-------------------
--------RANK AT GENERATION 250--------------
Rank old ranks   new ranks     rankratio
 1	  100		 100	 0.500000
-----------------Rank Ratio-------------------
--------RANK AT GENERATION 251--------------
Rank old ranks   new ranks     rankratio
 1	  100		 100	 0.500000
-----------------Rank Ratio-------------------
--------RANK AT GENERATION 252--------------
Rank old ranks   new ranks     rankratio
 1	  100		 100	 0.500000
-----------------Rank Ratio-------------------
--------RANK AT GENERATION 253--------------
Rank old ranks   new ranks     rankratio
 1	  100		 100	 0.500000
-----------------Rank Ratio-------------------
--------RANK AT GENERATION 254--------------
Rank old ranks   new ranks     rankratio
 1	  100		 100	 0.500000
-----------------Rank Ratio-------------------
--------RANK AT GENERATION 255--------------
Rank old ranks   new ranks     rankratio
 1	  100		 100	 0.500000
-----------------Rank Ratio-------------------
--------RANK AT GENERATION 256--------------
Rank old ranks   new ranks     rankratio
 1	  100		 100	 0.500000
-----------------Rank Ratio-------------------
--------RANK AT GENERATION 257--------------
Rank old ranks   new ranks     rankratio
 1	  100		 100	 0.500000
-----------------Rank Ratio-------------------
--------RANK AT GENERATION 258--------------
Rank old ranks   new ranks     rankratio
 1	  100		 100	 0.500000
-----------------Rank Ratio-------------------
--------RANK AT GENERATION 259--------------
Rank old ranks   new ranks     rankratio
 1	  100		 100	 0.500000
-----------------Rank Ratio-------------------
--------RANK AT GENERATION 260--------------
Rank old ranks   new ranks     rankratio
 1	  100		 100	 0.500000
-----------------Rank Ratio-------------------
--------RANK AT GENERATION 261--------------
Rank old ranks   new ranks     rankratio
 1	  100		 100	 0.500000
-----------------Rank Ratio-------------------
--------RANK AT GENERATION 262--------------
Rank old ranks   new ranks     rankratio
 1	  100		 100	 0.500000
-----------------Rank Ratio-------------------
--------RANK AT GENERATION 263--------------
Rank old ranks   new ranks     rankratio
 1	  100		 100	 0.500000
-----------------Rank Ratio-------------------
--------RANK AT GENERATION 264--------------
Rank old ranks   new ranks     rankratio
 1	  100		 100	 0.500000
-----------------Rank Ratio-------------------
--------RANK AT GENERATION 265--------------
Rank old ranks   new ranks     rankratio
 1	  100		 100	 0.500000
-----------------Rank Ratio-------------------
--------RANK AT GENERATION 266--------------
Rank old ranks   new ranks     rankratio
 1	  100		 100	 0.500000
-----------------Rank Ratio-------------------
--------RANK AT GENERATION 267--------------
Rank old ranks   new ranks     rankratio
 1	  100		 100	 0.500000
-----------------Rank Ratio-------------------
--------RANK AT GENERATION 268--------------
Rank old ranks   new ranks     rankratio
 1	  100		 100	 0.500000
-----------------Rank Ratio-------------------
--------RANK AT GENERATION 269--------------
Rank old ranks   new ranks     rankratio
 1	  100		 100	 0.500000
-----------------Rank Ratio-------------------
--------RANK AT GENERATION 270--------------
Rank old ranks   new ranks     rankratio
 1	  100		 100	 0.500000
-----------------Rank Ratio-------------------
--------RANK AT GENERATION 271--------------
Rank old ranks   new ranks     rankratio
 1	  100		 100	 0.500000
-----------------Rank Ratio-------------------
--------RANK AT GENERATION 272--------------
Rank old ranks   new ranks     rankratio
 1	  100		 100	 0.500000
-----------------Rank Ratio-------------------
--------RANK AT GENERATION 273--------------
Rank old ranks   new ranks     rankratio
 1	  100		 100	 0.500000
-----------------Rank Ratio-------------------
--------RANK AT GENERATION 274--------------
Rank old ranks   new ranks     rankratio
 1	  100		 100	 0.500000
-----------------Rank Ratio-------------------
--------RANK AT GENERATION 275--------------
Rank old ranks   new ranks     rankratio
 1	  100		 100	 0.500000
-----------------Rank Ratio-------------------
--------RANK AT GENERATION 276--------------
Rank old ranks   new ranks     rankratio
 1	  100		 100	 0.500000
-----------------Rank Ratio-------------------
--------RANK AT GENERATION 277--------------
Rank old ranks   new ranks     rankratio
 1	  100		 100	 0.500000
-----------------Rank Ratio-------------------
--------RANK AT GENERATION 278--------------
Rank old ranks   new ranks     rankratio
 1	  100		 100	 0.500000
-----------------Rank Ratio-------------------
--------RANK AT GENERATION 279--------------
Rank old ranks   new ranks     rankratio
 1	  100		 100	 0.500000
-----------------Rank Ratio-------------------
--------RANK AT GENERATION 280--------------
Rank old ranks   new ranks     rankratio
 1	  100		 100	 0.500000
-----------------Rank Ratio-------------------
--------RANK AT GENERATION 281--------------
Rank old ranks   new ranks     rankratio
 1	  100		 100	 0.500000
-----------------Rank Ratio-------------------
--------RANK AT GENERATION 282--------------
Rank old ranks   new ranks     rankratio
 1	  100		 100	 0.500000
-----------------Rank Ratio-------------------
--------RANK AT GENERATION 283--------------
Rank old ranks   new ranks     rankratio
 1	  100		 100	 0.500000
-----------------Rank Ratio-------------------
--------RANK AT GENERATION 284--------------
Rank old ranks   new ranks     rankratio
 1	  100		 100	 0.500000
-----------------Rank Ratio-------------------
--------RANK AT GENERATION 285--------------
Rank old ranks   new ranks     rankratio
 1	  100		 100	 0.500000
-----------------Rank Ratio-------------------
--------RANK AT GENERATION 286--------------
Rank old ranks   new ranks     rankratio
 1	  100		 100	 0.500000
-----------------Rank Ratio-------------------
--------RANK AT GENERATION 287--------------
Rank old ranks   new ranks     rankratio
 1	  100		 100	 0.500000
-----------------Rank Ratio-------------------
--------RANK AT GENERATION 288--------------
Rank old ranks   new ranks     rankratio
 1	  100		 100	 0.500000
-----------------Rank Ratio-------------------
--------RANK AT GENERATION 289--------------
Rank old ranks   new ranks     rankratio
 1	  100		 100	 0.500000
-----------------Rank Ratio-------------------
--------RANK AT GENERATION 290--------------
Rank old ranks   new ranks     rankratio
 1	  100		 100	 0.500000
-----------------Rank Ratio-------------------
--------RANK AT GENERATION 291--------------
Rank old ranks   new ranks     rankratio
 1	  100		 100	 0.500000
-----------------Rank Ratio-------------------
--------RANK AT GENERATION 292--------------
Rank old ranks   new ranks     rankratio
 1	  100		 100	 0.500000
-----------------Rank Ratio-------------------
--------RANK AT GENERATION 293--------------
Rank old ranks   new ranks     rankratio
 1	  100		 100	 0.500000
-----------------Rank Ratio-------------------
--------RANK AT GENERATION 294--------------
Rank old ranks   new ranks     rankratio
 1	  100		 100	 0.500000
-----------------Rank Ratio-------------------
--------RANK AT GENERATION 295--------------
Rank old ranks   new ranks     rankratio
 1	  100		 100	 0.500000
-----------------Rank Ratio-------------------
--------RANK AT GENERATION 296--------------
Rank old ranks   new ranks     rankratio
 1	  100		 100	 0.500000
-----------------Rank Ratio-------------------
--------RANK AT GENERATION 297--------------
Rank old ranks   new ranks     rankratio
 1	  100		 100	 0.500000
-----------------Rank Ratio-------------------
--------RANK AT GENERATION 298--------------
Rank old ranks   new ranks     rankratio
 1	  100		 100	 0.500000
-----------------Rank Ratio-------------------
--------RANK AT GENERATION 299--------------
Rank old ranks   new ranks     rankratio
 1	  100		 100	 0.500000
-----------------Rank Ratio-------------------
--------RANK AT GENERATION 300--------------
Rank old ranks   new ranks     rankratio
 1	  100		 100	 0.500000
-----------------Rank Ratio-------------------
--------RANK AT GENERATION 301--------------
Rank old ranks   new ranks     rankratio
 1	  100		 100	 0.500000
-----------------Rank Ratio-------------------
--------RANK AT GENERATION 302--------------
Rank old ranks   new ranks     rankratio
 1	  100		 100	 0.500000
-----------------Rank Ratio-------------------
--------RANK AT GENERATION 303--------------
Rank old ranks   new ranks     rankratio
 1	  100		 100	 0.500000
-----------------Rank Ratio-------------------
--------RANK AT GENERATION 304--------------
Rank old ranks   new ranks     rankratio
 1	  100		 100	 0.500000
-----------------Rank Ratio-------------------
--------RANK AT GENERATION 305--------------
Rank old ranks   new ranks     rankratio
 1	  100		 100	 0.500000
-----------------Rank Ratio-------------------
--------RANK AT GENERATION 306--------------
Rank old ranks   new ranks     rankratio
 1	  100		 100	 0.500000
-----------------Rank Ratio-------------------
--------RANK AT GENERATION 307--------------
Rank old ranks   new ranks     rankratio
 1	  100		 100	 0.500000
-----------------Rank Ratio-------------------
--------RANK AT GENERATION 308--------------
Rank old ranks   new ranks     rankratio
 1	  100		 100	 0.500000
-----------------Rank Ratio-------------------
--------RANK AT GENERATION 309--------------
Rank old ranks   new ranks     rankratio
 1	  100		 100	 0.500000
-----------------Rank Ratio-------------------
--------RANK AT GENERATION 310--------------
Rank old ranks   new ranks     rankratio
 1	  100		 100	 0.500000
-----------------Rank Ratio-------------------
--------RANK AT GENERATION 311--------------
Rank old ranks   new ranks     rankratio
 1	  100		 100	 0.500000
-----------------Rank Ratio-------------------
--------RANK AT GENERATION 312--------------
Rank old ranks   new ranks     rankratio
 1	  100		 100	 0.500000
-----------------Rank Ratio-------------------
--------RANK AT GENERATION 313--------------
Rank old ranks   new ranks     rankratio
 1	  100		 100	 0.500000
-----------------Rank Ratio-------------------
--------RANK AT GENERATION 314--------------
Rank old ranks   new ranks     rankratio
 1	  100		 100	 0.500000
-----------------Rank Ratio-------------------
--------RANK AT GENERATION 315--------------
Rank old ranks   new ranks     rankratio
 1	  100		 100	 0.500000
-----------------Rank Ratio-------------------
--------RANK AT GENERATION 316--------------
Rank old ranks   new ranks     rankratio
 1	  100		 100	 0.500000
-----------------Rank Ratio-------------------
--------RANK AT GENERATION 317--------------
Rank old ranks   new ranks     rankratio
 1	  100		 100	 0.500000
-----------------Rank Ratio-------------------
--------RANK AT GENERATION 318--------------
Rank old ranks   new ranks     rankratio
 1	  100		 100	 0.500000
-----------------Rank Ratio-------------------
--------RANK AT GENERATION 319--------------
Rank old ranks   new ranks     rankratio
 1	  100		 100	 0.500000
-----------------Rank Ratio-------------------
--------RANK AT GENERATION 320--------------
Rank old ranks   new ranks     rankratio
 1	  100		 100	 0.500000
-----------------Rank Ratio-------------------
--------RANK AT GENERATION 321--------------
Rank old ranks   new ranks     rankratio
 1	  100		 100	 0.500000
-----------------Rank Ratio-------------------
--------RANK AT GENERATION 322--------------
Rank old ranks   new ranks     rankratio
 1	  100		 100	 0.500000
-----------------Rank Ratio-------------------
--------RANK AT GENERATION 323--------------
Rank old ranks   new ranks     rankratio
 1	  100		 100	 0.500000
-----------------Rank Ratio-------------------
--------RANK AT GENERATION 324--------------
Rank old ranks   new ranks     rankratio
 1	  100		 100	 0.500000
-----------------Rank Ratio-------------------
--------RANK AT GENERATION 325--------------
Rank old ranks   new ranks     rankratio
 1	  100		 100	 0.500000
-----------------Rank Ratio-------------------
--------RANK AT GENERATION 326--------------
Rank old ranks   new ranks     rankratio
 1	  100		 100	 0.500000
-----------------Rank Ratio-------------------
--------RANK AT GENERATION 327--------------
Rank old ranks   new ranks     rankratio
 1	  100		 100	 0.500000
-----------------Rank Ratio-------------------
--------RANK AT GENERATION 328--------------
Rank old ranks   new ranks     rankratio
 1	  100		 100	 0.500000
-----------------Rank Ratio-------------------
--------RANK AT GENERATION 329--------------
Rank old ranks   new ranks     rankratio
 1	  100		 100	 0.500000
-----------------Rank Ratio-------------------
--------RANK AT GENERATION 330--------------
Rank old ranks   new ranks     rankratio
 1	  100		 100	 0.500000
-----------------Rank Ratio-------------------
--------RANK AT GENERATION 331--------------
Rank old ranks   new ranks     rankratio
 1	  100		 100	 0.500000
-----------------Rank Ratio-------------------
--------RANK AT GENERATION 332--------------
Rank old ranks   new ranks     rankratio
 1	  100		 100	 0.500000
-----------------Rank Ratio-------------------
--------RANK AT GENERATION 333--------------
Rank old ranks   new ranks     rankratio
 1	  100		 100	 0.500000
-----------------Rank Ratio-------------------
--------RANK AT GENERATION 334--------------
Rank old ranks   new ranks     rankratio
 1	  100		 100	 0.500000
-----------------Rank Ratio-------------------
--------RANK AT GENERATION 335--------------
Rank old ranks   new ranks     rankratio
 1	  100		 100	 0.500000
-----------------Rank Ratio-------------------
--------RANK AT GENERATION 336--------------
Rank old ranks   new ranks     rankratio
 1	  100		 100	 0.500000
-----------------Rank Ratio-------------------
--------RANK AT GENERATION 337--------------
Rank old ranks   new ranks     rankratio
 1	  100		 100	 0.500000
-----------------Rank Ratio-------------------
--------RANK AT GENERATION 338--------------
Rank old ranks   new ranks     rankratio
 1	  100		 100	 0.500000
-----------------Rank Ratio-------------------
--------RANK AT GENERATION 339--------------
Rank old ranks   new ranks     rankratio
 1	  100		 100	 0.500000
-----------------Rank Ratio-------------------
--------RANK AT GENERATION 340--------------
Rank old ranks   new ranks     rankratio
 1	  100		 100	 0.500000
-----------------Rank Ratio-------------------
--------RANK AT GENERATION 341--------------
Rank old ranks   new ranks     rankratio
 1	  100		 100	 0.500000
-----------------Rank Ratio-------------------
--------RANK AT GENERATION 342--------------
Rank old ranks   new ranks     rankratio
 1	  100		 100	 0.500000
-----------------Rank Ratio-------------------
--------RANK AT GENERATION 343--------------
Rank old ranks   new ranks     rankratio
 1	  100		 100	 0.500000
-----------------Rank Ratio-------------------
--------RANK AT GENERATION 344--------------
Rank old ranks   new ranks     rankratio
 1	  100		 100	 0.500000
-----------------Rank Ratio-------------------
--------RANK AT GENERATION 345--------------
Rank old ranks   new ranks     rankratio
 1	  100		 100	 0.500000
-----------------Rank Ratio-------------------
--------RANK AT GENERATION 346--------------
Rank old ranks   new ranks     rankratio
 1	  100		 100	 0.500000
-----------------Rank Ratio-------------------
--------RANK AT GENERATION 347--------------
Rank old ranks   new ranks     rankratio
 1	  100		 100	 0.500000
-----------------Rank Ratio-------------------
--------RANK AT GENERATION 348--------------
Rank old ranks   new ranks     rankratio
 1	  100		 100	 0.500000
-----------------Rank Ratio-------------------
--------RANK AT GENERATION 349--------------
Rank old ranks   new ranks     rankratio
 1	  100		 100	 0.500000
-----------------Rank Ratio-------------------
--------RANK AT GENERATION 350--------------
Rank old ranks   new ranks     rankratio
 1	  100		 100	 0.500000
-----------------Rank Ratio-------------------
--------RANK AT GENERATION 351--------------
Rank old ranks   new ranks     rankratio
 1	  100		 100	 0.500000
-----------------Rank Ratio-------------------
--------RANK AT GENERATION 352--------------
Rank old ranks   new ranks     rankratio
 1	  100		 100	 0.500000
-----------------Rank Ratio-------------------
--------RANK AT GENERATION 353--------------
Rank old ranks   new ranks     rankratio
 1	  100		 100	 0.500000
-----------------Rank Ratio-------------------
--------RANK AT GENERATION 354--------------
Rank old ranks   new ranks     rankratio
 1	  100		 100	 0.500000
-----------------Rank Ratio-------------------
--------RANK AT GENERATION 355--------------
Rank old ranks   new ranks     rankratio
 1	  100		 100	 0.500000
-----------------Rank Ratio-------------------
--------RANK AT GENERATION 356--------------
Rank old ranks   new ranks     rankratio
 1	  100		 100	 0.500000
-----------------Rank Ratio-------------------
--------RANK AT GENERATION 357--------------
Rank old ranks   new ranks     rankratio
 1	  100		 100	 0.500000
-----------------Rank Ratio-------------------
--------RANK AT GENERATION 358--------------
Rank old ranks   new ranks     rankratio
 1	  100		 100	 0.500000
-----------------Rank Ratio-------------------
--------RANK AT GENERATION 359--------------
Rank old ranks   new ranks     rankratio
 1	  100		 100	 0.500000
-----------------Rank Ratio-------------------
--------RANK AT GENERATION 360--------------
Rank old ranks   new ranks     rankratio
 1	  100		 100	 0.500000
-----------------Rank Ratio-------------------
--------RANK AT GENERATION 361--------------
Rank old ranks   new ranks     rankratio
 1	  100		 100	 0.500000
-----------------Rank Ratio-------------------
--------RANK AT GENERATION 362--------------
Rank old ranks   new ranks     rankratio
 1	  100		 100	 0.500000
-----------------Rank Ratio-------------------
--------RANK AT GENERATION 363--------------
Rank old ranks   new ranks     rankratio
 1	  100		 100	 0.500000
-----------------Rank Ratio-------------------
--------RANK AT GENERATION 364--------------
Rank old ranks   new ranks     rankratio
 1	  100		 100	 0.500000
-----------------Rank Ratio-------------------
--------RANK AT GENERATION 365--------------
Rank old ranks   new ranks     rankratio
 1	  100		 100	 0.500000
-----------------Rank Ratio-------------------
--------RANK AT GENERATION 366--------------
Rank old ranks   new ranks     rankratio
 1	  100		 100	 0.500000
-----------------Rank Ratio-------------------
--------RANK AT GENERATION 367--------------
Rank old ranks   new ranks     rankratio
 1	  100		 100	 0.500000
-----------------Rank Ratio-------------------
--------RANK AT GENERATION 368--------------
Rank old ranks   new ranks     rankratio
 1	  100		 100	 0.500000
-----------------Rank Ratio-------------------
--------RANK AT GENERATION 369--------------
Rank old ranks   new ranks     rankratio
 1	  100		 100	 0.500000
-----------------Rank Ratio-------------------
--------RANK AT GENERATION 370--------------
Rank old ranks   new ranks     rankratio
 1	  100		 100	 0.500000
-----------------Rank Ratio-------------------
--------RANK AT GENERATION 371--------------
Rank old ranks   new ranks     rankratio
 1	  100		 100	 0.500000
-----------------Rank Ratio-------------------
--------RANK AT GENERATION 372--------------
Rank old ranks   new ranks     rankratio
 1	  100		 100	 0.500000
-----------------Rank Ratio-------------------
--------RANK AT GENERATION 373--------------
Rank old ranks   new ranks     rankratio
 1	  100		 100	 0.500000
-----------------Rank Ratio-------------------
--------RANK AT GENERATION 374--------------
Rank old ranks   new ranks     rankratio
 1	  100		 100	 0.500000
-----------------Rank Ratio-------------------
--------RANK AT GENERATION 375--------------
Rank old ranks   new ranks     rankratio
 1	  100		 100	 0.500000
-----------------Rank Ratio-------------------
--------RANK AT GENERATION 376--------------
Rank old ranks   new ranks     rankratio
 1	  100		 100	 0.500000
-----------------Rank Ratio-------------------
--------RANK AT GENERATION 377--------------
Rank old ranks   new ranks     rankratio
 1	  100		 100	 0.500000
-----------------Rank Ratio-------------------
--------RANK AT GENERATION 378--------------
Rank old ranks   new ranks     rankratio
 1	  100		 100	 0.500000
-----------------Rank Ratio-------------------
--------RANK AT GENERATION 379--------------
Rank old ranks   new ranks     rankratio
 1	  100		 100	 0.500000
-----------------Rank Ratio-------------------
--------RANK AT GENERATION 380--------------
Rank old ranks   new ranks     rankratio
 1	  100		 100	 0.500000
-----------------Rank Ratio-------------------
--------RANK AT GENERATION 381--------------
Rank old ranks   new ranks     rankratio
 1	  100		 100	 0.500000
-----------------Rank Ratio-------------------
--------RANK AT GENERATION 382--------------
Rank old ranks   new ranks     rankratio
 1	  100		 100	 0.500000
-----------------Rank Ratio-------------------
--------RANK AT GENERATION 383--------------
Rank old ranks   new ranks     rankratio
 1	  100		 100	 0.500000
-----------------Rank Ratio-------------------
--------RANK AT GENERATION 384--------------
Rank old ranks   new ranks     rankratio
 1	  100		 100	 0.500000
-----------------Rank Ratio-------------------
--------RANK AT GENERATION 385--------------
Rank old ranks   new ranks     rankratio
 1	  100		 100	 0.500000
-----------------Rank Ratio-------------------
--------RANK AT GENERATION 386--------------
Rank old ranks   new ranks     rankratio
 1	  100		 100	 0.500000
-----------------Rank Ratio-------------------
--------RANK AT GENERATION 387--------------
Rank old ranks   new ranks     rankratio
 1	  100		 100	 0.500000
-----------------Rank Ratio-------------------
--------RANK AT GENERATION 388--------------
Rank old ranks   new ranks     rankratio
 1	  100		 100	 0.500000
-----------------Rank Ratio-------------------
--------RANK AT GENERATION 389--------------
Rank old ranks   new ranks     rankratio
 1	  100		 100	 0.500000
-----------------Rank Ratio-------------------
--------RANK AT GENERATION 390--------------
Rank old ranks   new ranks     rankratio
 1	  100		 100	 0.500000
-----------------Rank Ratio-------------------
--------RANK AT GENERATION 391--------------
Rank old ranks   new ranks     rankratio
 1	  100		 100	 0.500000
-----------------Rank Ratio-------------------
--------RANK AT GENERATION 392--------------
Rank old ranks   new ranks     rankratio
 1	  100		 100	 0.500000
-----------------Rank Ratio-------------------
--------RANK AT GENERATION 393--------------
Rank old ranks   new ranks     rankratio
 1	  100		 100	 0.500000
-----------------Rank Ratio-------------------
--------RANK AT GENERATION 394--------------
Rank old ranks   new ranks     rankratio
 1	  100		 100	 0.500000
-----------------Rank Ratio-------------------
--------RANK AT GENERATION 395--------------
Rank old ranks   new ranks     rankratio
 1	  100		 100	 0.500000
-----------------Rank Ratio-------------------
--------RANK AT GENERATION 396--------------
Rank old ranks   new ranks     rankratio
 1	  100		 100	 0.500000
-----------------Rank Ratio-------------------
--------RANK AT GENERATION 397--------------
Rank old ranks   new ranks     rankratio
 1	  100		 100	 0.500000
-----------------Rank Ratio-------------------
--------RANK AT GENERATION 398--------------
Rank old ranks   new ranks     rankratio
 1	  100		 100	 0.500000
-----------------Rank Ratio-------------------
--------RANK AT GENERATION 399--------------
Rank old ranks   new ranks     rankratio
 1	  100		 100	 0.500000
-----------------Rank Ratio-------------------
--------RANK AT GENERATION 400--------------
Rank old ranks   new ranks     rankratio
 1	  100		 100	 0.500000
-----------------Rank Ratio-------------------
--------RANK AT GENERATION 401--------------
Rank old ranks   new ranks     rankratio
 1	  100		 100	 0.500000
-----------------Rank Ratio-------------------
--------RANK AT GENERATION 402--------------
Rank old ranks   new ranks     rankratio
 1	  100		 100	 0.500000
-----------------Rank Ratio-------------------
--------RANK AT GENERATION 403--------------
Rank old ranks   new ranks     rankratio
 1	  100		 100	 0.500000
-----------------Rank Ratio-------------------
--------RANK AT GENERATION 404--------------
Rank old ranks   new ranks     rankratio
 1	  100		 100	 0.500000
-----------------Rank Ratio-------------------
--------RANK AT GENERATION 405--------------
Rank old ranks   new ranks     rankratio
 1	  100		 100	 0.500000
-----------------Rank Ratio-------------------
--------RANK AT GENERATION 406--------------
Rank old ranks   new ranks     rankratio
 1	  100		 100	 0.500000
-----------------Rank Ratio-------------------
--------RANK AT GENERATION 407--------------
Rank old ranks   new ranks     rankratio
 1	  100		 100	 0.500000
-----------------Rank Ratio-------------------
--------RANK AT GENERATION 408--------------
Rank old ranks   new ranks     rankratio
 1	  100		 100	 0.500000
-----------------Rank Ratio-------------------
--------RANK AT GENERATION 409--------------
Rank old ranks   new ranks     rankratio
 1	  100		 100	 0.500000
-----------------Rank Ratio-------------------
--------RANK AT GENERATION 410--------------
Rank old ranks   new ranks     rankratio
 1	  100		 100	 0.500000
-----------------Rank Ratio-------------------
--------RANK AT GENERATION 411--------------
Rank old ranks   new ranks     rankratio
 1	  100		 100	 0.500000
-----------------Rank Ratio-------------------
--------RANK AT GENERATION 412--------------
Rank old ranks   new ranks     rankratio
 1	  100		 100	 0.500000
-----------------Rank Ratio-------------------
--------RANK AT GENERATION 413--------------
Rank old ranks   new ranks     rankratio
 1	  100		 100	 0.500000
-----------------Rank Ratio-------------------
--------RANK AT GENERATION 414--------------
Rank old ranks   new ranks     rankratio
 1	  100		 100	 0.500000
-----------------Rank Ratio-------------------
--------RANK AT GENERATION 415--------------
Rank old ranks   new ranks     rankratio
 1	  100		 100	 0.500000
-----------------Rank Ratio-------------------
--------RANK AT GENERATION 416--------------
Rank old ranks   new ranks     rankratio
 1	  100		 100	 0.500000
-----------------Rank Ratio-------------------
--------RANK AT GENERATION 417--------------
Rank old ranks   new ranks     rankratio
 1	  100		 100	 0.500000
-----------------Rank Ratio-------------------
--------RANK AT GENERATION 418--------------
Rank old ranks   new ranks     rankratio
 1	  100		 100	 0.500000
-----------------Rank Ratio-------------------
--------RANK AT GENERATION 419--------------
Rank old ranks   new ranks     rankratio
 1	  100		 100	 0.500000
-----------------Rank Ratio-------------------
--------RANK AT GENERATION 420--------------
Rank old ranks   new ranks     rankratio
 1	  100		 100	 0.500000
-----------------Rank Ratio-------------------
--------RANK AT GENERATION 421--------------
Rank old ranks   new ranks     rankratio
 1	  100		 100	 0.500000
-----------------Rank Ratio-------------------
--------RANK AT GENERATION 422--------------
Rank old ranks   new ranks     rankratio
 1	  100		 100	 0.500000
-----------------Rank Ratio-------------------
--------RANK AT GENERATION 423--------------
Rank old ranks   new ranks     rankratio
 1	  100		 100	 0.500000
-----------------Rank Ratio-------------------
--------RANK AT GENERATION 424--------------
Rank old ranks   new ranks     rankratio
 1	  100		 100	 0.500000
-----------------Rank Ratio-------------------
--------RANK AT GENERATION 425--------------
Rank old ranks   new ranks     rankratio
 1	  100		 100	 0.500000
-----------------Rank Ratio-------------------
--------RANK AT GENERATION 426--------------
Rank old ranks   new ranks     rankratio
 1	  100		 100	 0.500000
-----------------Rank Ratio-------------------
--------RANK AT GENERATION 427--------------
Rank old ranks   new ranks     rankratio
 1	  100		 100	 0.500000
-----------------Rank Ratio-------------------
--------RANK AT GENERATION 428--------------
Rank old ranks   new ranks     rankratio
 1	  100		 100	 0.500000
-----------------Rank Ratio-------------------
--------RANK AT GENERATION 429--------------
Rank old ranks   new ranks     rankratio
 1	  100		 100	 0.500000
-----------------Rank Ratio-------------------
--------RANK AT GENERATION 430--------------
Rank old ranks   new ranks     rankratio
 1	  100		 100	 0.500000
-----------------Rank Ratio-------------------
--------RANK AT GENERATION 431--------------
Rank old ranks   new ranks     rankratio
 1	  100		 100	 0.500000
-----------------Rank Ratio-------------------
--------RANK AT GENERATION 432--------------
Rank old ranks   new ranks     rankratio
 1	  100		 100	 0.500000
-----------------Rank Ratio-------------------
--------RANK AT GENERATION 433--------------
Rank old ranks   new ranks     rankratio
 1	  100		 100	 0.500000
-----------------Rank Ratio-------------------
--------RANK AT GENERATION 434--------------
Rank old ranks   new ranks     rankratio
 1	  100		 100	 0.500000
-----------------Rank Ratio-------------------
--------RANK AT GENERATION 435--------------
Rank old ranks   new ranks     rankratio
 1	  100		 100	 0.500000
-----------------Rank Ratio-------------------
--------RANK AT GENERATION 436--------------
Rank old ranks   new ranks     rankratio
 1	  100		 100	 0.500000
-----------------Rank Ratio-------------------
--------RANK AT GENERATION 437--------------
Rank old ranks   new ranks     rankratio
 1	  100		 100	 0.500000
-----------------Rank Ratio-------------------
--------RANK AT GENERATION 438--------------
Rank old ranks   new ranks     rankratio
 1	  100		 100	 0.500000
-----------------Rank Ratio-------------------
--------RANK AT GENERATION 439--------------
Rank old ranks   new ranks     rankratio
 1	  100		 100	 0.500000
-----------------Rank Ratio-------------------
--------RANK AT GENERATION 440--------------
Rank old ranks   new ranks     rankratio
 1	  100		 100	 0.500000
-----------------Rank Ratio-------------------
--------RANK AT GENERATION 441--------------
Rank old ranks   new ranks     rankratio
 1	  100		 100	 0.500000
-----------------Rank Ratio-------------------
--------RANK AT GENERATION 442--------------
Rank old ranks   new ranks     rankratio
 1	  100		 100	 0.500000
-----------------Rank Ratio-------------------
--------RANK AT GENERATION 443--------------
Rank old ranks   new ranks     rankratio
 1	  100		 100	 0.500000
-----------------Rank Ratio-------------------
--------RANK AT GENERATION 444--------------
Rank old ranks   new ranks     rankratio
 1	  100		 100	 0.500000
-----------------Rank Ratio-------------------
--------RANK AT GENERATION 445--------------
Rank old ranks   new ranks     rankratio
 1	  100		 100	 0.500000
-----------------Rank Ratio-------------------
--------RANK AT GENERATION 446--------------
Rank old ranks   new ranks     rankratio
 1	  100		 100	 0.500000
-----------------Rank Ratio-------------------
--------RANK AT GENERATION 447--------------
Rank old ranks   new ranks     rankratio
 1	  100		 100	 0.500000
-----------------Rank Ratio-------------------
--------RANK AT GENERATION 448--------------
Rank old ranks   new ranks     rankratio
 1	  100		 100	 0.500000
-----------------Rank Ratio-------------------
--------RANK AT GENERATION 449--------------
Rank old ranks   new ranks     rankratio
 1	  100		 100	 0.500000
-----------------Rank Ratio-------------------
--------RANK AT GENERATION 450--------------
Rank old ranks   new ranks     rankratio
 1	  100		 100	 0.500000
-----------------Rank Ratio-------------------
--------RANK AT GENERATION 451--------------
Rank old ranks   new ranks     rankratio
 1	  100		 100	 0.500000
-----------------Rank Ratio-------------------
--------RANK AT GENERATION 452--------------
Rank old ranks   new ranks     rankratio
 1	  100		 100	 0.500000
-----------------Rank Ratio-------------------
--------RANK AT GENERATION 453--------------
Rank old ranks   new ranks     rankratio
 1	  100		 100	 0.500000
-----------------Rank Ratio-------------------
--------RANK AT GENERATION 454--------------
Rank old ranks   new ranks     rankratio
 1	  100		 100	 0.500000
-----------------Rank Ratio-------------------
--------RANK AT GENERATION 455--------------
Rank old ranks   new ranks     rankratio
 1	  100		 100	 0.500000
-----------------Rank Ratio-------------------
--------RANK AT GENERATION 456--------------
Rank old ranks   new ranks     rankratio
 1	  100		 100	 0.500000
-----------------Rank Ratio-------------------
--------RANK AT GENERATION 457--------------
Rank old ranks   new ranks     rankratio
 1	  100		 100	 0.500000
-----------------Rank Ratio-------------------
--------RANK AT GENERATION 458--------------
Rank old ranks   new ranks     rankratio
 1	  100		 100	 0.500000
-----------------Rank Ratio-------------------
--------RANK AT GENERATION 459--------------
Rank old ranks   new ranks     rankratio
 1	  100		 100	 0.500000
-----------------Rank Ratio-------------------
--------RANK AT GENERATION 460--------------
Rank old ranks   new ranks     rankratio
 1	  100		 100	 0.500000
-----------------Rank Ratio-------------------
--------RANK AT GENERATION 461--------------
Rank old ranks   new ranks     rankratio
 1	  100		 100	 0.500000
-----------------Rank Ratio-------------------
--------RANK AT GENERATION 462--------------
Rank old ranks   new ranks     rankratio
 1	  100		 100	 0.500000
-----------------Rank Ratio-------------------
--------RANK AT GENERATION 463--------------
Rank old ranks   new ranks     rankratio
 1	  100		 100	 0.500000
-----------------Rank Ratio-------------------
--------RANK AT GENERATION 464--------------
Rank old ranks   new ranks     rankratio
 1	  100		 100	 0.500000
-----------------Rank Ratio-------------------
--------RANK AT GENERATION 465--------------
Rank old ranks   new ranks     rankratio
 1	  100		 100	 0.500000
-----------------Rank Ratio-------------------
--------RANK AT GENERATION 466--------------
Rank old ranks   new ranks     rankratio
 1	  100		 100	 0.500000
-----------------Rank Ratio-------------------
--------RANK AT GENERATION 467--------------
Rank old ranks   new ranks     rankratio
 1	  100		 100	 0.500000
-----------------Rank Ratio-------------------
--------RANK AT GENERATION 468--------------
Rank old ranks   new ranks     rankratio
 1	  100		 100	 0.500000
-----------------Rank Ratio-------------------
--------RANK AT GENERATION 469--------------
Rank old ranks   new ranks     rankratio
 1	  100		 100	 0.500000
-----------------Rank Ratio-------------------
--------RANK AT GENERATION 470--------------
Rank old ranks   new ranks     rankratio
 1	  100		 100	 0.500000
-----------------Rank Ratio-------------------
--------RANK AT GENERATION 471--------------
Rank old ranks   new ranks     rankratio
 1	  100		 100	 0.500000
-----------------Rank Ratio-------------------
--------RANK AT GENERATION 472--------------
Rank old ranks   new ranks     rankratio
 1	  100		 100	 0.500000
-----------------Rank Ratio-------------------
--------RANK AT GENERATION 473--------------
Rank old ranks   new ranks     rankratio
 1	  100		 100	 0.500000
-----------------Rank Ratio-------------------
--------RANK AT GENERATION 474--------------
Rank old ranks   new ranks     rankratio
 1	  100		 100	 0.500000
-----------------Rank Ratio-------------------
--------RANK AT GENERATION 475--------------
Rank old ranks   new ranks     rankratio
 1	  100		 100	 0.500000
-----------------Rank Ratio-------------------
--------RANK AT GENERATION 476--------------
Rank old ranks   new ranks     rankratio
 1	  100		 100	 0.500000
-----------------Rank Ratio-------------------
--------RANK AT GENERATION 477--------------
Rank old ranks   new ranks     rankratio
 1	  100		 100	 0.500000
-----------------Rank Ratio-------------------
--------RANK AT GENERATION 478--------------
Rank old ranks   new ranks     rankratio
 1	  100		 100	 0.500000
-----------------Rank Ratio-------------------
--------RANK AT GENERATION 479--------------
Rank old ranks   new ranks     rankratio
 1	  100		 100	 0.500000
-----------------Rank Ratio-------------------
--------RANK AT GENERATION 480--------------
Rank old ranks   new ranks     rankratio
 1	  100		 100	 0.500000
-----------------Rank Ratio-------------------
--------RANK AT GENERATION 481--------------
Rank old ranks   new ranks     rankratio
 1	  100		 100	 0.500000
-----------------Rank Ratio-------------------
--------RANK AT GENERATION 482--------------
Rank old ranks   new ranks     rankratio
 1	  100		 100	 0.500000
-----------------Rank Ratio-------------------
--------RANK AT GENERATION 483--------------
Rank old ranks   new ranks     rankratio
 1	  100		 100	 0.500000
-----------------Rank Ratio-------------------
--------RANK AT GENERATION 484--------------
Rank old ranks   new ranks     rankratio
 1	  100		 100	 0.500000
-----------------Rank Ratio-------------------
--------RANK AT GENERATION 485--------------
Rank old ranks   new ranks     rankratio
 1	  100		 100	 0.500000
-----------------Rank Ratio-------------------
--------RANK AT GENERATION 486--------------
Rank old ranks   new ranks     rankratio
 1	  100		 100	 0.500000
-----------------Rank Ratio-------------------
--------RANK AT GENERATION 487--------------
Rank old ranks   new ranks     rankratio
 1	  100		 100	 0.500000
-----------------Rank Ratio-------------------
--------RANK AT GENERATION 488--------------
Rank old ranks   new ranks     rankratio
 1	  100		 100	 0.500000
-----------------Rank Ratio-------------------
--------RANK AT GENERATION 489--------------
Rank old ranks   new ranks     rankratio
 1	  100		 100	 0.500000
-----------------Rank Ratio-------------------
--------RANK AT GENERATION 490--------------
Rank old ranks   new ranks     rankratio
 1	  100		 100	 0.500000
-----------------Rank Ratio-------------------
--------RANK AT GENERATION 491--------------
Rank old ranks   new ranks     rankratio
 1	  100		 100	 0.500000
-----------------Rank Ratio-------------------
--------RANK AT GENERATION 492--------------
Rank old ranks   new ranks     rankratio
 1	  100		 100	 0.500000
-----------------Rank Ratio-------------------
--------RANK AT GENERATION 493--------------
Rank old ranks   new ranks     rankratio
 1	  100		 100	 0.500000
-----------------Rank Ratio-------------------
--------RANK AT GENERATION 494--------------
Rank old ranks   new ranks     rankratio
 1	  100		 100	 0.500000
-----------------Rank Ratio-------------------
--------RANK AT GENERATION 495--------------
Rank old ranks   new ranks     rankratio
 1	  100		 100	 0.500000
-----------------Rank Ratio-------------------
--------RANK AT GENERATION 496--------------
Rank old ranks   new ranks     rankratio
 1	  100		 100	 0.500000
-----------------Rank Ratio-------------------
--------RANK AT GENERATION 497--------------
Rank old ranks   new ranks     rankratio
 1	  100		 100	 0.500000
-----------------Rank Ratio-------------------
--------RANK AT GENERATION 498--------------
Rank old ranks   new ranks     rankratio
 1	  100		 100	 0.500000
-----------------Rank Ratio-------------------
--------RANK AT GENERATION 499--------------
Rank old ranks   new ranks     rankratio
 1	  100		 100	 0.500000
-----------------Rank Ratio-------------------
--------RANK AT GENERATION 500--------------
Rank old ranks   new ranks     rankratio
 1	  100		 100	 0.500000
-----------------Rank Ratio-------------------
