# Feasible and Non-dominated Objective Vector
1.000038	0.000000	
-0.999998	15.999987	
0.413282	0.344238	
-0.167381	10.032301	
0.089893	0.828294	
0.511547	0.238587	
-0.498623	12.240360	
-0.568348	12.733107	
-0.796642	14.414493	
0.183416	0.666809	
0.861768	0.019108	
-0.070876	9.430279	
0.000010	8.999940	
0.292498	0.500560	
0.933547	0.004416	
-0.663324	13.419944	
0.459994	0.291607	
-0.828863	14.660193	
0.915656	0.007114	
-0.507203	12.300472	
0.322268	0.459321	
-0.584009	12.845119	
-0.434608	11.796529	
0.092138	0.824214	
-0.257498	10.611295	
0.734957	0.070248	
-0.946858	15.577691	
-0.524246	12.420308	
0.657150	0.117546	
-0.398686	11.551066	
-0.017315	9.104189	
-0.452170	11.917477	
0.050437	0.901670	
-0.784583	14.323070	
-0.390446	11.495126	
0.881040	0.014151	
-0.103592	9.632281	
0.631825	0.135552	
-0.316507	10.999214	
-0.102324	9.624417	
-0.476357	12.085058	
0.592519	0.166041	
-0.813895	14.545794	
-0.978133	15.825540	
-0.130253	9.798486	
0.727012	0.074523	
-0.302883	10.909034	
-0.434608	11.796529	
-0.758223	14.124241	
-0.185162	10.145254	
0.562742	0.191195	
0.000013	0.999974	
-0.044057	9.266282	
0.023618	0.953322	
-0.610598	13.036419	
-0.993302	15.946456	
-0.696930	13.667295	
-0.933728	15.474217	
-0.029096	9.175421	
-0.900190	15.211479	
-0.132732	9.814010	
-0.287185	10.805583	
-0.150146	9.923423	
0.330444	0.448305	
-0.343432	11.178537	
-0.227921	10.419474	
0.786915	0.045405	
0.511547	0.238587	
0.120167	0.774106	
-0.682491	13.560740	
0.624956	0.140658	
-0.378745	11.415915	
0.208122	0.627070	
-0.651966	13.336853	
-0.477488	12.092919	
0.432493	0.322064	
-0.460517	11.975178	
0.814338	0.034470	
-0.919263	15.360625	
-0.594168	12.918047	
-0.731247	13.922204	
-0.202446	10.255659	
0.275392	0.525057	
-0.398686	11.551066	
0.050437	0.901670	
0.159039	0.707215	
0.970069	0.000896	
-0.978133	15.825540	
-0.728357	13.900648	
-0.636718	13.225715	
0.696633	0.092032	
0.462378	0.289038	
1.000038	0.000000	
-0.150146	9.923423	
-0.185162	10.145254	
0.239857	0.577818	
0.562742	0.191195	
-0.854570	14.857709	
0.376667	0.388543	
-0.167661	10.034075	
