Genration no. = 1
   RANK     No Of Individuals
	1	371
	2	2
	3	2
	4	4
	5	3
	6	2
	7	2
	8	3
	9	4
	10	2
	11	3
	12	2
	13	3
	14	2
	15	2
	16	3
	17	2
	18	2
	19	3
	20	2
	21	4
	22	2
	23	3
	24	3
	25	2
	26	3
	27	3
	28	3
	29	5
	30	4
	31	2
	32	2
	33	3
	34	2
	35	4
	36	2
	37	3
	38	2
	39	5
	40	2
	41	4
	42	2
	43	2
	44	2
	45	6
	46	2
	47	2
	48	3
	49	2
	50	2
	51	4
	52	3
	53	3
	54	4
	55	3
	56	2
	57	2
	58	2
	59	5
	60	3
	61	2
	62	2
	63	2
	64	3
	65	2
	66	3
	67	2
	68	3
	69	2
	70	2
	71	3
	72	2
	73	2
	74	3
	75	3
	76	2
	77	2
	78	3
	79	3
	80	3
	81	2
	82	2
	83	2
	84	4
	85	3
	86	2
	87	4
	88	2
	89	2
	90	3
	91	5
	92	2
	93	2
	94	3
	95	2
	96	3
	97	2
	98	2
	99	4
	100	2
	101	3
	102	3
	103	2
	104	3
	105	2
	106	2
	107	3
	108	3
	109	2
	110	2
	111	3
	112	2
	113	2
	114	3
	115	2
	116	3
	117	2
	118	2
	119	2
	120	2
	121	2
	122	3
	123	2
	124	2
	125	3
	126	4
	127	2
	128	2
	129	2
	130	2
	131	3
	132	2
	133	2
	134	3
	135	2
	136	2
	137	2
	138	2
	139	2
	140	2
	141	2
	142	2
	143	2
	144	2
	145	4
	146	2
	147	2
	148	2
	149	2
	150	2
	151	4
	152	2
	153	2
	154	3
	155	4
	156	3
	157	2
	158	2
	159	4
	160	2
	161	2
	162	2
	163	2
	164	2
	165	3
	166	2
	167	2
	168	2
	169	3
	170	4
	171	3
	172	2
	173	2
	174	3
	175	2
	176	5
	177	2
	178	2
	179	3
	180	4
	181	3
	182	2
	183	2
	184	2
	185	2
	186	2
	187	5
	188	2
	189	3
	190	2
	191	3
	192	2
	193	2
	194	3
	195	3
	196	2
	197	2
	198	2
	199	3
	200	3
	201	2
	202	2
	203	3
	204	2
	205	2
	206	2
	207	2
	208	2
	209	2
	210	3
	211	2
	212	2
	213	2
	214	2
	215	3
	216	4
	217	2
	218	2
	219	2
	220	2
	221	2
	222	2
	223	4
	224	2
	225	2
	226	2
	227	2
	228	2
	229	2
	230	2
	231	2
	232	2
	233	2
	234	2
	235	2
	236	2
	237	2
	238	2
	239	2
	240	3
	241	2
	242	2
	243	2
	244	2
	245	2
	246	2
	247	1
	248	1
	249	1
	250	1
	251	1
	252	1
	253	1
	254	1
	255	1
	256	1
	257	1
	258	1
	259	1
	260	1
	261	1
	262	1
Genration no. = 2
   RANK     No Of Individuals
	1	829
	2	2
	3	2
	4	2
	5	2
	6	2
	7	2
	8	6
	9	3
	10	2
	11	2
	12	3
	13	2
	14	5
	15	2
	16	4
	17	2
	18	3
	19	2
	20	3
	21	3
	22	2
	23	2
	24	3
	25	2
	26	2
	27	3
	28	2
	29	3
	30	2
	31	3
	32	3
	33	4
	34	2
	35	2
	36	3
	37	4
	38	5
	39	2
	40	2
	41	3
	42	3
	43	4
	44	6
	45	2
	46	4
	47	2
	48	5
	49	3
	50	2
	51	3
	52	2
	53	3
	54	5
	55	3
	56	2
	57	4
	58	2
	59	2
	60	1
	61	2
	62	1
	63	1
	64	1
Genration no. = 3
   RANK     No Of Individuals
	1	995
	2	2
	3	2
	4	1
Genration no. = 4
   RANK     No Of Individuals
	1	986
	2	7
	3	2
	4	2
	5	2
	6	1
Genration no. = 5
   RANK     No Of Individuals
	1	990
	2	2
	3	1
	4	1
	5	1
	6	1
	7	1
	8	1
	9	1
	10	1
Genration no. = 6
   RANK     No Of Individuals
	1	988
	2	7
	3	2
	4	1
	5	1
	6	1
Genration no. = 7
   RANK     No Of Individuals
	1	996
	2	1
	3	1
	4	1
	5	1
Genration no. = 8
   RANK     No Of Individuals
	1	997
	2	2
	3	1
Genration no. = 9
   RANK     No Of Individuals
	1	985
	2	3
	3	2
	4	2
	5	2
	6	1
	7	1
	8	1
	9	1
	10	1
	11	1
Genration no. = 10
   RANK     No Of Individuals
	1	997
	2	1
	3	1
	4	1
Genration no. = 11
   RANK     No Of Individuals
	1	993
	2	2
	3	2
	4	2
	5	1
Genration no. = 12
   RANK     No Of Individuals
	1	992
	2	2
	3	2
	4	2
	5	2
Genration no. = 13
   RANK     No Of Individuals
	1	988
	2	2
	3	2
	4	2
	5	2
	6	2
	7	1
	8	1
Genration no. = 14
   RANK     No Of Individuals
	1	992
	2	2
	3	2
	4	2
	5	1
	6	1
Genration no. = 15
   RANK     No Of Individuals
	1	994
	2	2
	3	2
	4	2
Genration no. = 16
   RANK     No Of Individuals
	1	993
	2	2
	3	2
	4	2
	5	1
Genration no. = 17
   RANK     No Of Individuals
	1	994
	2	2
	3	2
	4	1
	5	1
Genration no. = 18
   RANK     No Of Individuals
	1	988
	2	2
	3	2
	4	2
	5	2
	6	1
	7	1
	8	1
	9	1
Genration no. = 19
   RANK     No Of Individuals
	1	991
	2	2
	3	1
	4	1
	5	1
	6	1
	7	1
	8	1
	9	1
Genration no. = 20
   RANK     No Of Individuals
	1	992
	2	2
	3	2
	4	1
	5	1
	6	1
	7	1
Genration no. = 21
   RANK     No Of Individuals
	1	991
	2	2
	3	2
	4	2
	5	2
	6	1
Genration no. = 22
   RANK     No Of Individuals
	1	995
	2	2
	3	1
	4	1
	5	1
Genration no. = 23
   RANK     No Of Individuals
	1	990
	2	2
	3	2
	4	2
	5	2
	6	1
	7	1
Genration no. = 24
   RANK     No Of Individuals
	1	993
	2	2
	3	2
	4	2
	5	1
Genration no. = 25
   RANK     No Of Individuals
	1	992
	2	2
	3	1
	4	1
	5	1
	6	1
	7	1
	8	1
Genration no. = 26
   RANK     No Of Individuals
	1	993
	2	2
	3	2
	4	1
	5	1
	6	1
Genration no. = 27
   RANK     No Of Individuals
	1	991
	2	2
	3	1
	4	1
	5	1
	6	1
	7	1
	8	1
	9	1
Genration no. = 28
   RANK     No Of Individuals
	1	989
	2	2
	3	2
	4	2
	5	1
	6	1
	7	1
	8	1
	9	1
Genration no. = 29
   RANK     No Of Individuals
	1	996
	2	2
	3	1
	4	1
Genration no. = 30
   RANK     No Of Individuals
	1	996
	2	2
	3	1
	4	1
Genration no. = 31
   RANK     No Of Individuals
	1	994
	2	2
	3	1
	4	1
	5	1
	6	1
Genration no. = 32
   RANK     No Of Individuals
	1	992
	2	2
	3	1
	4	1
	5	1
	6	1
	7	1
	8	1
Genration no. = 33
   RANK     No Of Individuals
	1	993
	2	2
	3	2
	4	2
	5	1
Genration no. = 34
   RANK     No Of Individuals
	1	996
	2	1
	3	1
	4	1
	5	1
Genration no. = 35
   RANK     No Of Individuals
	1	995
	2	2
	3	2
	4	1
Genration no. = 36
   RANK     No Of Individuals
	1	988
	2	5
	3	2
	4	2
	5	2
	6	1
Genration no. = 37
   RANK     No Of Individuals
	1	992
	2	2
	3	2
	4	1
	5	1
	6	1
	7	1
Genration no. = 38
   RANK     No Of Individuals
	1	992
	2	2
	3	2
	4	2
	5	1
	6	1
Genration no. = 39
   RANK     No Of Individuals
	1	993
	2	2
	3	2
	4	1
	5	1
	6	1
Genration no. = 40
   RANK     No Of Individuals
	1	993
	2	2
	3	2
	4	1
	5	1
	6	1
Genration no. = 41
   RANK     No Of Individuals
	1	994
	2	2
	3	2
	4	1
	5	1
Genration no. = 42
   RANK     No Of Individuals
	1	994
	2	2
	3	2
	4	1
	5	1
Genration no. = 43
   RANK     No Of Individuals
	1	993
	2	1
	3	1
	4	1
	5	1
	6	1
	7	1
	8	1
Genration no. = 44
   RANK     No Of Individuals
	1	993
	2	2
	3	2
	4	2
	5	1
Genration no. = 45
   RANK     No Of Individuals
	1	993
	2	2
	3	2
	4	1
	5	1
	6	1
Genration no. = 46
   RANK     No Of Individuals
	1	984
	2	7
	3	2
	4	2
	5	2
	6	1
	7	1
	8	1
Genration no. = 47
   RANK     No Of Individuals
	1	993
	2	2
	3	2
	4	2
	5	1
Genration no. = 48
   RANK     No Of Individuals
	1	993
	2	2
	3	2
	4	2
	5	1
Genration no. = 49
   RANK     No Of Individuals
	1	996
	2	2
	3	2
Genration no. = 50
   RANK     No Of Individuals
	1	991
	2	2
	3	1
	4	1
	5	1
	6	1
	7	1
	8	1
	9	1
Genration no. = 51
   RANK     No Of Individuals
	1	992
	2	2
	3	2
	4	2
	5	1
	6	1
Genration no. = 52
   RANK     No Of Individuals
	1	991
	2	2
	3	2
	4	2
	5	1
	6	1
	7	1
Genration no. = 53
   RANK     No Of Individuals
	1	996
	2	2
	3	2
Genration no. = 54
   RANK     No Of Individuals
	1	994
	2	2
	3	2
	4	2
Genration no. = 55
   RANK     No Of Individuals
	1	994
	2	2
	3	1
	4	1
	5	1
	6	1
Genration no. = 56
   RANK     No Of Individuals
	1	992
	2	2
	3	2
	4	1
	5	1
	6	1
	7	1
Genration no. = 57
   RANK     No Of Individuals
	1	990
	2	2
	3	2
	4	2
	5	2
	6	1
	7	1
Genration no. = 58
   RANK     No Of Individuals
	1	991
	2	2
	3	2
	4	1
	5	1
	6	1
	7	1
	8	1
Genration no. = 59
   RANK     No Of Individuals
	1	994
	2	2
	3	2
	4	1
	5	1
Genration no. = 60
   RANK     No Of Individuals
	1	993
	2	2
	3	1
	4	1
	5	1
	6	1
	7	1
Genration no. = 61
   RANK     No Of Individuals
	1	997
	2	2
	3	1
Genration no. = 62
   RANK     No Of Individuals
	1	992
	2	2
	3	2
	4	1
	5	1
	6	1
	7	1
Genration no. = 63
   RANK     No Of Individuals
	1	991
	2	2
	3	2
	4	2
	5	1
	6	1
	7	1
Genration no. = 64
   RANK     No Of Individuals
	1	993
	2	2
	3	2
	4	1
	5	1
	6	1
Genration no. = 65
   RANK     No Of Individuals
	1	996
	2	2
	3	1
	4	1
Genration no. = 66
   RANK     No Of Individuals
	1	990
	2	2
	3	2
	4	2
	5	2
	6	2
Genration no. = 67
   RANK     No Of Individuals
	1	995
	2	2
	3	1
	4	1
	5	1
Genration no. = 68
   RANK     No Of Individuals
	1	993
	2	2
	3	1
	4	1
	5	1
	6	1
	7	1
Genration no. = 69
   RANK     No Of Individuals
	1	995
	2	2
	3	2
	4	1
Genration no. = 70
   RANK     No Of Individuals
	1	987
	2	2
	3	2
	4	2
	5	2
	6	2
	7	2
	8	1
Genration no. = 71
   RANK     No Of Individuals
	1	997
	2	1
	3	1
	4	1
Genration no. = 72
   RANK     No Of Individuals
	1	992
	2	2
	3	2
	4	2
	5	1
	6	1
Genration no. = 73
   RANK     No Of Individuals
	1	988
	2	2
	3	2
	4	2
	5	2
	6	1
	7	1
	8	1
	9	1
Genration no. = 74
   RANK     No Of Individuals
	1	994
	2	2
	3	2
	4	2
Genration no. = 75
   RANK     No Of Individuals
	1	987
	2	2
	3	2
	4	2
	5	2
	6	2
	7	2
	8	1
Genration no. = 76
   RANK     No Of Individuals
	1	986
	2	2
	3	2
	4	2
	5	2
	6	1
	7	1
	8	1
	9	1
	10	1
	11	1
Genration no. = 77
   RANK     No Of Individuals
	1	994
	2	2
	3	2
	4	2
Genration no. = 78
   RANK     No Of Individuals
	1	987
	2	2
	3	2
	4	1
	5	1
	6	1
	7	1
	8	1
	9	1
	10	1
	11	1
	12	1
Genration no. = 79
   RANK     No Of Individuals
	1	992
	2	2
	3	1
	4	1
	5	1
	6	1
	7	1
	8	1
Genration no. = 80
   RANK     No Of Individuals
	1	990
	2	2
	3	2
	4	1
	5	1
	6	1
	7	1
	8	1
	9	1
Genration no. = 81
   RANK     No Of Individuals
	1	991
	2	2
	3	2
	4	2
	5	2
	6	1
Genration no. = 82
   RANK     No Of Individuals
	1	994
	2	2
	3	2
	4	1
	5	1
Genration no. = 83
   RANK     No Of Individuals
	1	991
	2	2
	3	2
	4	1
	5	1
	6	1
	7	1
	8	1
Genration no. = 84
   RANK     No Of Individuals
	1	995
	2	2
	3	2
	4	1
Genration no. = 85
   RANK     No Of Individuals
	1	989
	2	2
	3	1
	4	1
	5	1
	6	1
	7	1
	8	1
	9	1
	10	1
	11	1
Genration no. = 86
   RANK     No Of Individuals
	1	996
	2	2
	3	1
	4	1
Genration no. = 87
   RANK     No Of Individuals
	1	996
	2	1
	3	1
	4	1
	5	1
Genration no. = 88
   RANK     No Of Individuals
	1	996
	2	2
	3	2
Genration no. = 89
   RANK     No Of Individuals
	1	986
	2	2
	3	2
	4	2
	5	2
	6	2
	7	1
	8	1
	9	1
	10	1
Genration no. = 90
   RANK     No Of Individuals
	1	996
	2	2
	3	1
	4	1
Genration no. = 91
   RANK     No Of Individuals
	1	997
	2	2
	3	1
Genration no. = 92
   RANK     No Of Individuals
	1	987
	2	2
	3	2
	4	2
	5	2
	6	1
	7	1
	8	1
	9	1
	10	1
Genration no. = 93
   RANK     No Of Individuals
	1	996
	2	1
	3	1
	4	1
	5	1
Genration no. = 94
   RANK     No Of Individuals
	1	994
	2	2
	3	1
	4	1
	5	1
	6	1
Genration no. = 95
   RANK     No Of Individuals
	1	990
	2	2
	3	2
	4	2
	5	2
	6	2
Genration no. = 96
   RANK     No Of Individuals
	1	995
	2	1
	3	1
	4	1
	5	1
	6	1
Genration no. = 97
   RANK     No Of Individuals
	1	993
	2	2
	3	2
	4	1
	5	1
	6	1
Genration no. = 98
   RANK     No Of Individuals
	1	991
	2	1
	3	1
	4	1
	5	1
	6	1
	7	1
	8	1
	9	1
	10	1
Genration no. = 99
   RANK     No Of Individuals
	1	993
	2	2
	3	2
	4	1
	5	1
	6	1
Genration no. = 100
   RANK     No Of Individuals
	1	996
	2	2
	3	1
	4	1
Genration no. = 101
   RANK     No Of Individuals
	1	990
	2	2
	3	2
	4	2
	5	2
	6	1
	7	1
Genration no. = 102
   RANK     No Of Individuals
	1	993
	2	2
	3	2
	4	2
	5	1
Genration no. = 103
   RANK     No Of Individuals
	1	997
	2	2
	3	1
Genration no. = 104
   RANK     No Of Individuals
	1	991
	2	2
	3	2
	4	1
	5	1
	6	1
	7	1
	8	1
Genration no. = 105
   RANK     No Of Individuals
	1	994
	2	2
	3	2
	4	1
	5	1
Genration no. = 106
   RANK     No Of Individuals
	1	993
	2	2
	3	2
	4	2
	5	1
Genration no. = 107
   RANK     No Of Individuals
	1	994
	2	2
	3	2
	4	1
	5	1
Genration no. = 108
   RANK     No Of Individuals
	1	994
	2	2
	3	2
	4	1
	5	1
Genration no. = 109
   RANK     No Of Individuals
	1	996
	2	2
	3	2
Genration no. = 110
   RANK     No Of Individuals
	1	994
	2	2
	3	1
	4	1
	5	1
	6	1
Genration no. = 111
   RANK     No Of Individuals
	1	989
	2	2
	3	2
	4	2
	5	1
	6	1
	7	1
	8	1
	9	1
Genration no. = 112
   RANK     No Of Individuals
	1	992
	2	2
	3	2
	4	2
	5	1
	6	1
Genration no. = 113
   RANK     No Of Individuals
	1	995
	2	2
	3	1
	4	1
	5	1
Genration no. = 114
   RANK     No Of Individuals
	1	996
	2	2
	3	1
	4	1
Genration no. = 115
   RANK     No Of Individuals
	1	997
	2	2
	3	1
Genration no. = 116
   RANK     No Of Individuals
	1	994
	2	1
	3	1
	4	1
	5	1
	6	1
	7	1
Genration no. = 117
   RANK     No Of Individuals
	1	996
	2	2
	3	2
Genration no. = 118
   RANK     No Of Individuals
	1	994
	2	2
	3	2
	4	2
Genration no. = 119
   RANK     No Of Individuals
	1	992
	2	2
	3	2
	4	1
	5	1
	6	1
	7	1
Genration no. = 120
   RANK     No Of Individuals
	1	996
	2	1
	3	1
	4	1
	5	1
Genration no. = 121
   RANK     No Of Individuals
	1	993
	2	2
	3	2
	4	2
	5	1
Genration no. = 122
   RANK     No Of Individuals
	1	989
	2	2
	3	2
	4	2
	5	2
	6	2
	7	1
Genration no. = 123
   RANK     No Of Individuals
	1	992
	2	2
	3	2
	4	2
	5	2
Genration no. = 124
   RANK     No Of Individuals
	1	991
	2	2
	3	2
	4	2
	5	2
	6	1
Genration no. = 125
   RANK     No Of Individuals
	1	988
	2	2
	3	2
	4	2
	5	2
	6	2
	7	1
	8	1
Genration no. = 126
   RANK     No Of Individuals
	1	995
	2	2
	3	2
	4	1
Genration no. = 127
   RANK     No Of Individuals
	1	992
	2	2
	3	2
	4	1
	5	1
	6	1
	7	1
Genration no. = 128
   RANK     No Of Individuals
	1	989
	2	2
	3	2
	4	2
	5	2
	6	1
	7	1
	8	1
Genration no. = 129
   RANK     No Of Individuals
	1	991
	2	2
	3	2
	4	2
	5	2
	6	1
Genration no. = 130
   RANK     No Of Individuals
	1	997
	2	2
	3	1
Genration no. = 131
   RANK     No Of Individuals
	1	993
	2	2
	3	2
	4	1
	5	1
	6	1
Genration no. = 132
   RANK     No Of Individuals
	1	991
	2	2
	3	1
	4	1
	5	1
	6	1
	7	1
	8	1
	9	1
Genration no. = 133
   RANK     No Of Individuals
	1	992
	2	2
	3	2
	4	1
	5	1
	6	1
	7	1
Genration no. = 134
   RANK     No Of Individuals
	1	994
	2	2
	3	2
	4	1
	5	1
Genration no. = 135
   RANK     No Of Individuals
	1	991
	2	2
	3	2
	4	2
	5	1
	6	1
	7	1
Genration no. = 136
   RANK     No Of Individuals
	1	995
	2	2
	3	1
	4	1
	5	1
Genration no. = 137
   RANK     No Of Individuals
	1	993
	2	2
	3	2
	4	2
	5	1
Genration no. = 138
   RANK     No Of Individuals
	1	995
	2	2
	3	2
	4	1
Genration no. = 139
   RANK     No Of Individuals
	1	998
	2	1
	3	1
Genration no. = 140
   RANK     No Of Individuals
	1	991
	2	2
	3	2
	4	2
	5	1
	6	1
	7	1
Genration no. = 141
   RANK     No Of Individuals
	1	995
	2	2
	3	1
	4	1
	5	1
Genration no. = 142
   RANK     No Of Individuals
	1	987
	2	2
	3	2
	4	2
	5	2
	6	2
	7	1
	8	1
	9	1
Genration no. = 143
   RANK     No Of Individuals
	1	987
	2	2
	3	2
	4	2
	5	2
	6	2
	7	2
	8	1
Genration no. = 144
   RANK     No Of Individuals
	1	990
	2	2
	3	2
	4	2
	5	1
	6	1
	7	1
	8	1
Genration no. = 145
   RANK     No Of Individuals
	1	995
	2	2
	3	2
	4	1
Genration no. = 146
   RANK     No Of Individuals
	1	991
	2	2
	3	1
	4	1
	5	1
	6	1
	7	1
	8	1
	9	1
Genration no. = 147
   RANK     No Of Individuals
	1	988
	2	2
	3	2
	4	2
	5	2
	6	2
	7	2
Genration no. = 148
   RANK     No Of Individuals
	1	992
	2	2
	3	2
	4	2
	5	1
	6	1
Genration no. = 149
   RANK     No Of Individuals
	1	992
	2	2
	3	1
	4	1
	5	1
	6	1
	7	1
	8	1
Genration no. = 150
   RANK     No Of Individuals
	1	994
	2	2
	3	2
	4	1
	5	1
Genration no. = 151
   RANK     No Of Individuals
	1	993
	2	2
	3	2
	4	1
	5	1
	6	1
Genration no. = 152
   RANK     No Of Individuals
	1	993
	2	2
	3	2
	4	2
	5	1
Genration no. = 153
   RANK     No Of Individuals
	1	991
	2	2
	3	1
	4	1
	5	1
	6	1
	7	1
	8	1
	9	1
Genration no. = 154
   RANK     No Of Individuals
	1	990
	2	2
	3	2
	4	2
	5	1
	6	1
	7	1
	8	1
Genration no. = 155
   RANK     No Of Individuals
	1	991
	2	2
	3	2
	4	2
	5	1
	6	1
	7	1
Genration no. = 156
   RANK     No Of Individuals
	1	988
	2	2
	3	2
	4	2
	5	2
	6	2
	7	1
	8	1
Genration no. = 157
   RANK     No Of Individuals
	1	997
	2	2
	3	1
Genration no. = 158
   RANK     No Of Individuals
	1	993
	2	2
	3	2
	4	1
	5	1
	6	1
Genration no. = 159
   RANK     No Of Individuals
	1	995
	2	2
	3	1
	4	1
	5	1
Genration no. = 160
   RANK     No Of Individuals
	1	996
	2	2
	3	2
Genration no. = 161
   RANK     No Of Individuals
	1	991
	2	2
	3	1
	4	1
	5	1
	6	1
	7	1
	8	1
	9	1
Genration no. = 162
   RANK     No Of Individuals
	1	997
	2	1
	3	1
	4	1
Genration no. = 163
   RANK     No Of Individuals
	1	994
	2	2
	3	1
	4	1
	5	1
	6	1
Genration no. = 164
   RANK     No Of Individuals
	1	995
	2	1
	3	1
	4	1
	5	1
	6	1
Genration no. = 165
   RANK     No Of Individuals
	1	996
	2	2
	3	1
	4	1
Genration no. = 166
   RANK     No Of Individuals
	1	992
	2	2
	3	2
	4	1
	5	1
	6	1
	7	1
Genration no. = 167
   RANK     No Of Individuals
	1	996
	2	1
	3	1
	4	1
	5	1
Genration no. = 168
   RANK     No Of Individuals
	1	994
	2	2
	3	2
	4	1
	5	1
Genration no. = 169
   RANK     No Of Individuals
	1	994
	2	2
	3	2
	4	1
	5	1
Genration no. = 170
   RANK     No Of Individuals
	1	996
	2	2
	3	2
Genration no. = 171
   RANK     No Of Individuals
	1	986
	2	2
	3	2
	4	2
	5	2
	6	2
	7	1
	8	1
	9	1
	10	1
Genration no. = 172
   RANK     No Of Individuals
	1	996
	2	2
	3	2
Genration no. = 173
   RANK     No Of Individuals
	1	992
	2	2
	3	2
	4	2
	5	1
	6	1
Genration no. = 174
   RANK     No Of Individuals
	1	993
	2	2
	3	2
	4	2
	5	1
Genration no. = 175
   RANK     No Of Individuals
	1	990
	2	2
	3	2
	4	2
	5	1
	6	1
	7	1
	8	1
Genration no. = 176
   RANK     No Of Individuals
	1	996
	2	2
	3	2
Genration no. = 177
   RANK     No Of Individuals
	1	995
	2	2
	3	2
	4	1
Genration no. = 178
   RANK     No Of Individuals
	1	988
	2	2
	3	2
	4	2
	5	2
	6	1
	7	1
	8	1
	9	1
Genration no. = 179
   RANK     No Of Individuals
	1	990
	2	2
	3	2
	4	1
	5	1
	6	1
	7	1
	8	1
	9	1
Genration no. = 180
   RANK     No Of Individuals
	1	991
	2	2
	3	1
	4	1
	5	1
	6	1
	7	1
	8	1
	9	1
Genration no. = 181
   RANK     No Of Individuals
	1	994
	2	2
	3	2
	4	1
	5	1
Genration no. = 1
   RANK     No Of Individuals
	1	66
	2	3
	3	2
	4	2
	5	2
	6	2
	7	3
	8	3
	9	2
	10	3
	11	4
	12	3
	13	3
	14	2
	15	2
	16	3
	17	2
	18	2
	19	2
	20	4
	21	3
	22	2
	23	2
	24	2
	25	2
	26	3
	27	2
	28	2
	29	2
	30	2
	31	2
	32	2
	33	2
	34	2
	35	3
	36	4
	37	3
	38	3
	39	2
	40	3
	41	3
	42	2
	43	2
	44	2
	45	2
	46	2
	47	2
	48	4
	49	2
	50	2
	51	2
	52	2
	53	2
	54	1
	55	1
	56	1
	57	1
	58	1
	59	1
	60	1
	61	1
Genration no. = 2
   RANK     No Of Individuals
	1	156
	2	2
	3	3
	4	2
	5	3
	6	2
	7	3
	8	4
	9	4
	10	2
	11	2
	12	3
	13	2
	14	4
	15	4
	16	2
	17	1
	18	1
Genration no. = 3
   RANK     No Of Individuals
	1	200
Genration no. = 4
   RANK     No Of Individuals
	1	199
	2	1
Genration no. = 5
   RANK     No Of Individuals
	1	197
	2	1
	3	1
	4	1
Genration no. = 6
   RANK     No Of Individuals
	1	196
	2	2
	3	1
	4	1
Genration no. = 7
   RANK     No Of Individuals
	1	198
	2	2
Genration no. = 8
   RANK     No Of Individuals
	1	199
	2	1
Genration no. = 9
   RANK     No Of Individuals
	1	197
	2	2
	3	1
Genration no. = 10
   RANK     No Of Individuals
	1	198
	2	1
	3	1
Genration no. = 11
   RANK     No Of Individuals
	1	197
	2	2
	3	1
Genration no. = 12
   RANK     No Of Individuals
	1	198
	2	1
	3	1
Genration no. = 13
   RANK     No Of Individuals
	1	199
	2	1
Genration no. = 14
   RANK     No Of Individuals
	1	197
	2	2
	3	1
Genration no. = 15
   RANK     No Of Individuals
	1	197
	2	2
	3	1
Genration no. = 16
   RANK     No Of Individuals
	1	199
	2	1
Genration no. = 17
   RANK     No Of Individuals
	1	197
	2	2
	3	1
Genration no. = 18
   RANK     No Of Individuals
	1	198
	2	1
	3	1
Genration no. = 19
   RANK     No Of Individuals
	1	197
	2	2
	3	1
Genration no. = 20
   RANK     No Of Individuals
	1	196
	2	2
	3	2
Genration no. = 21
   RANK     No Of Individuals
	1	198
	2	1
	3	1
Genration no. = 22
   RANK     No Of Individuals
	1	199
	2	1
Genration no. = 23
   RANK     No Of Individuals
	1	200
Genration no. = 24
   RANK     No Of Individuals
	1	199
	2	1
Genration no. = 25
   RANK     No Of Individuals
	1	198
	2	2
Genration no. = 26
   RANK     No Of Individuals
	1	200
Genration no. = 27
   RANK     No Of Individuals
	1	195
	2	2
	3	2
	4	1
Genration no. = 28
   RANK     No Of Individuals
	1	198
	2	2
Genration no. = 29
   RANK     No Of Individuals
	1	199
	2	1
Genration no. = 30
   RANK     No Of Individuals
	1	195
	2	2
	3	2
	4	1
Genration no. = 31
   RANK     No Of Individuals
	1	198
	2	1
	3	1
Genration no. = 32
   RANK     No Of Individuals
	1	199
	2	1
Genration no. = 33
   RANK     No Of Individuals
	1	197
	2	2
	3	1
Genration no. = 34
   RANK     No Of Individuals
	1	196
	2	2
	3	1
	4	1
Genration no. = 35
   RANK     No Of Individuals
	1	198
	2	2
Genration no. = 36
   RANK     No Of Individuals
	1	200
Genration no. = 37
   RANK     No Of Individuals
	1	195
	2	2
	3	1
	4	1
	5	1
Genration no. = 38
   RANK     No Of Individuals
	1	197
	2	2
	3	1
Genration no. = 39
   RANK     No Of Individuals
	1	198
	2	1
	3	1
Genration no. = 40
   RANK     No Of Individuals
	1	199
	2	1
Genration no. = 41
   RANK     No Of Individuals
	1	197
	2	1
	3	1
	4	1
Genration no. = 42
   RANK     No Of Individuals
	1	197
	2	2
	3	1
Genration no. = 43
   RANK     No Of Individuals
	1	198
	2	1
	3	1
Genration no. = 44
   RANK     No Of Individuals
	1	195
	2	2
	3	2
	4	1
Genration no. = 45
   RANK     No Of Individuals
	1	196
	2	2
	3	1
	4	1
Genration no. = 46
   RANK     No Of Individuals
	1	196
	2	2
	3	2
Genration no. = 47
   RANK     No Of Individuals
	1	195
	2	2
	3	1
	4	1
	5	1
Genration no. = 48
   RANK     No Of Individuals
	1	193
	2	2
	3	2
	4	2
	5	1
Genration no. = 49
   RANK     No Of Individuals
	1	198
	2	1
	3	1
Genration no. = 50
   RANK     No Of Individuals
	1	199
	2	1
Genration no. = 51
   RANK     No Of Individuals
	1	197
	2	1
	3	1
	4	1
Genration no. = 52
   RANK     No Of Individuals
	1	197
	2	2
	3	1
Genration no. = 53
   RANK     No Of Individuals
	1	195
	2	2
	3	1
	4	1
	5	1
Genration no. = 54
   RANK     No Of Individuals
	1	199
	2	1
Genration no. = 55
   RANK     No Of Individuals
	1	199
	2	1
Genration no. = 56
   RANK     No Of Individuals
	1	195
	2	2
	3	2
	4	1
Genration no. = 57
   RANK     No Of Individuals
	1	199
	2	1
Genration no. = 58
   RANK     No Of Individuals
	1	199
	2	1
Genration no. = 59
   RANK     No Of Individuals
	1	198
	2	2
Genration no. = 60
   RANK     No Of Individuals
	1	198
	2	2
Genration no. = 61
   RANK     No Of Individuals
	1	193
	2	2
	3	2
	4	2
	5	1
Genration no. = 62
   RANK     No Of Individuals
	1	200
Genration no. = 63
   RANK     No Of Individuals
	1	199
	2	1
Genration no. = 64
   RANK     No Of Individuals
	1	197
	2	2
	3	1
Genration no. = 65
   RANK     No Of Individuals
	1	199
	2	1
Genration no. = 66
   RANK     No Of Individuals
	1	198
	2	1
	3	1
Genration no. = 67
   RANK     No Of Individuals
	1	200
Genration no. = 68
   RANK     No Of Individuals
	1	197
	2	2
	3	1
Genration no. = 69
   RANK     No Of Individuals
	1	199
	2	1
Genration no. = 70
   RANK     No Of Individuals
	1	197
	2	2
	3	1
Genration no. = 71
   RANK     No Of Individuals
	1	195
	2	1
	3	1
	4	1
	5	1
	6	1
Genration no. = 72
   RANK     No Of Individuals
	1	200
Genration no. = 73
   RANK     No Of Individuals
	1	198
	2	2
Genration no. = 74
   RANK     No Of Individuals
	1	196
	2	2
	3	2
Genration no. = 75
   RANK     No Of Individuals
	1	199
	2	1
Genration no. = 76
   RANK     No Of Individuals
	1	197
	2	2
	3	1
Genration no. = 77
   RANK     No Of Individuals
	1	199
	2	1
Genration no. = 78
   RANK     No Of Individuals
	1	199
	2	1
Genration no. = 79
   RANK     No Of Individuals
	1	196
	2	2
	3	1
	4	1
Genration no. = 80
   RANK     No Of Individuals
	1	197
	2	2
	3	1
Genration no. = 81
   RANK     No Of Individuals
	1	197
	2	2
	3	1
Genration no. = 82
   RANK     No Of Individuals
	1	197
	2	2
	3	1
Genration no. = 83
   RANK     No Of Individuals
	1	199
	2	1
Genration no. = 84
   RANK     No Of Individuals
	1	194
	2	2
	3	2
	4	2
Genration no. = 85
   RANK     No Of Individuals
	1	197
	2	1
	3	1
	4	1
Genration no. = 86
   RANK     No Of Individuals
	1	198
	2	1
	3	1
Genration no. = 87
   RANK     No Of Individuals
	1	199
	2	1
Genration no. = 88
   RANK     No Of Individuals
	1	197
	2	2
	3	1
Genration no. = 89
   RANK     No Of Individuals
	1	198
	2	2
Genration no. = 90
   RANK     No Of Individuals
	1	199
	2	1
Genration no. = 91
   RANK     No Of Individuals
	1	195
	2	2
	3	1
	4	1
	5	1
Genration no. = 92
   RANK     No Of Individuals
	1	198
	2	1
	3	1
Genration no. = 93
   RANK     No Of Individuals
	1	200
Genration no. = 94
   RANK     No Of Individuals
	1	199
	2	1
Genration no. = 95
   RANK     No Of Individuals
	1	198
	2	1
	3	1
Genration no. = 96
   RANK     No Of Individuals
	1	197
	2	2
	3	1
Genration no. = 97
   RANK     No Of Individuals
	1	197
	2	2
	3	1
Genration no. = 98
   RANK     No Of Individuals
	1	198
	2	1
	3	1
Genration no. = 99
   RANK     No Of Individuals
	1	199
	2	1
Genration no. = 100
   RANK     No Of Individuals
	1	196
	2	2
	3	2
Genration no. = 101
   RANK     No Of Individuals
	1	197
	2	1
	3	1
	4	1
Genration no. = 102
   RANK     No Of Individuals
	1	198
	2	1
	3	1
Genration no. = 103
   RANK     No Of Individuals
	1	198
	2	2
Genration no. = 104
   RANK     No Of Individuals
	1	198
	2	1
	3	1
Genration no. = 105
   RANK     No Of Individuals
	1	199
	2	1
Genration no. = 106
   RANK     No Of Individuals
	1	196
	2	2
	3	1
	4	1
Genration no. = 107
   RANK     No Of Individuals
	1	196
	2	1
	3	1
	4	1
	5	1
Genration no. = 108
   RANK     No Of Individuals
	1	197
	2	1
	3	1
	4	1
Genration no. = 109
   RANK     No Of Individuals
	1	198
	2	2
Genration no. = 110
   RANK     No Of Individuals
	1	198
	2	2
Genration no. = 111
   RANK     No Of Individuals
	1	198
	2	1
	3	1
Genration no. = 112
   RANK     No Of Individuals
	1	195
	2	2
	3	1
	4	1
	5	1
Genration no. = 113
   RANK     No Of Individuals
	1	198
	2	1
	3	1
Genration no. = 114
   RANK     No Of Individuals
	1	198
	2	1
	3	1
Genration no. = 115
   RANK     No Of Individuals
	1	197
	2	2
	3	1
Genration no. = 116
   RANK     No Of Individuals
	1	196
	2	2
	3	2
Genration no. = 117
   RANK     No Of Individuals
	1	200
Genration no. = 118
   RANK     No Of Individuals
	1	196
	2	2
	3	1
	4	1
Genration no. = 119
   RANK     No Of Individuals
	1	198
	2	1
	3	1
Genration no. = 120
   RANK     No Of Individuals
	1	198
	2	1
	3	1
Genration no. = 121
   RANK     No Of Individuals
	1	198
	2	2
Genration no. = 122
   RANK     No Of Individuals
	1	198
	2	1
	3	1
Genration no. = 123
   RANK     No Of Individuals
	1	198
	2	1
	3	1
Genration no. = 124
   RANK     No Of Individuals
	1	198
	2	2
Genration no. = 125
   RANK     No Of Individuals
	1	200
Genration no. = 126
   RANK     No Of Individuals
	1	194
	2	2
	3	2
	4	1
	5	1
Genration no. = 127
   RANK     No Of Individuals
	1	197
	2	2
	3	1
Genration no. = 128
   RANK     No Of Individuals
	1	199
	2	1
Genration no. = 129
   RANK     No Of Individuals
	1	199
	2	1
Genration no. = 130
   RANK     No Of Individuals
	1	197
	2	2
	3	1
Genration no. = 131
   RANK     No Of Individuals
	1	197
	2	2
	3	1
Genration no. = 132
   RANK     No Of Individuals
	1	195
	2	1
	3	1
	4	1
	5	1
	6	1
Genration no. = 133
   RANK     No Of Individuals
	1	198
	2	1
	3	1
Genration no. = 134
   RANK     No Of Individuals
	1	196
	2	2
	3	1
	4	1
Genration no. = 135
   RANK     No Of Individuals
	1	200
Genration no. = 136
   RANK     No Of Individuals
	1	199
	2	1
Genration no. = 137
   RANK     No Of Individuals
	1	198
	2	1
	3	1
Genration no. = 138
   RANK     No Of Individuals
	1	199
	2	1
Genration no. = 139
   RANK     No Of Individuals
	1	196
	2	2
	3	2
Genration no. = 140
   RANK     No Of Individuals
	1	200
Genration no. = 141
   RANK     No Of Individuals
	1	198
	2	1
	3	1
Genration no. = 142
   RANK     No Of Individuals
	1	195
	2	2
	3	2
	4	1
Genration no. = 143
   RANK     No Of Individuals
	1	198
	2	1
	3	1
Genration no. = 144
   RANK     No Of Individuals
	1	200
Genration no. = 145
   RANK     No Of Individuals
	1	198
	2	1
	3	1
Genration no. = 146
   RANK     No Of Individuals
	1	199
	2	1
Genration no. = 147
   RANK     No Of Individuals
	1	198
	2	1
	3	1
Genration no. = 148
   RANK     No Of Individuals
	1	195
	2	2
	3	1
	4	1
	5	1
Genration no. = 149
   RANK     No Of Individuals
	1	194
	2	2
	3	2
	4	2
Genration no. = 150
   RANK     No Of Individuals
	1	199
	2	1
Genration no. = 151
   RANK     No Of Individuals
	1	197
	2	1
	3	1
	4	1
Genration no. = 152
   RANK     No Of Individuals
	1	200
Genration no. = 153
   RANK     No Of Individuals
	1	198
	2	1
	3	1
Genration no. = 154
   RANK     No Of Individuals
	1	196
	2	1
	3	1
	4	1
	5	1
Genration no. = 155
   RANK     No Of Individuals
	1	198
	2	2
Genration no. = 156
   RANK     No Of Individuals
	1	199
	2	1
Genration no. = 157
   RANK     No Of Individuals
	1	199
	2	1
Genration no. = 158
   RANK     No Of Individuals
	1	193
	2	6
	3	1
Genration no. = 159
   RANK     No Of Individuals
	1	199
	2	1
Genration no. = 160
   RANK     No Of Individuals
	1	199
	2	1
Genration no. = 161
   RANK     No Of Individuals
	1	199
	2	1
Genration no. = 162
   RANK     No Of Individuals
	1	198
	2	1
	3	1
Genration no. = 163
   RANK     No Of Individuals
	1	197
	2	2
	3	1
Genration no. = 164
   RANK     No Of Individuals
	1	195
	2	2
	3	2
	4	1
Genration no. = 165
   RANK     No Of Individuals
	1	197
	2	2
	3	1
Genration no. = 166
   RANK     No Of Individuals
	1	199
	2	1
Genration no. = 167
   RANK     No Of Individuals
	1	198
	2	2
Genration no. = 168
   RANK     No Of Individuals
	1	197
	2	1
	3	1
	4	1
Genration no. = 169
   RANK     No Of Individuals
	1	198
	2	2
Genration no. = 170
   RANK     No Of Individuals
	1	196
	2	1
	3	1
	4	1
	5	1
Genration no. = 171
   RANK     No Of Individuals
	1	196
	2	2
	3	1
	4	1
Genration no. = 172
   RANK     No Of Individuals
	1	196
	2	2
	3	2
Genration no. = 173
   RANK     No Of Individuals
	1	199
	2	1
Genration no. = 174
   RANK     No Of Individuals
	1	197
	2	2
	3	1
Genration no. = 175
   RANK     No Of Individuals
	1	196
	2	1
	3	1
	4	1
	5	1
Genration no. = 176
   RANK     No Of Individuals
	1	196
	2	2
	3	1
	4	1
Genration no. = 177
   RANK     No Of Individuals
	1	199
	2	1
Genration no. = 178
   RANK     No Of Individuals
	1	195
	2	2
	3	2
	4	1
Genration no. = 179
   RANK     No Of Individuals
	1	196
	2	2
	3	1
	4	1
Genration no. = 180
   RANK     No Of Individuals
	1	198
	2	2
Genration no. = 181
   RANK     No Of Individuals
	1	196
	2	2
	3	2
Genration no. = 182
   RANK     No Of Individuals
	1	198
	2	1
	3	1
Genration no. = 183
   RANK     No Of Individuals
	1	199
	2	1
Genration no. = 184
   RANK     No Of Individuals
	1	198
	2	1
	3	1
Genration no. = 185
   RANK     No Of Individuals
	1	197
	2	2
	3	1
Genration no. = 186
   RANK     No Of Individuals
	1	194
	2	2
	3	2
	4	2
Genration no. = 187
   RANK     No Of Individuals
	1	196
	2	2
	3	1
	4	1
Genration no. = 188
   RANK     No Of Individuals
	1	196
	2	2
	3	1
	4	1
Genration no. = 189
   RANK     No Of Individuals
	1	197
	2	2
	3	1
Genration no. = 190
   RANK     No Of Individuals
	1	197
	2	1
	3	1
	4	1
Genration no. = 191
   RANK     No Of Individuals
	1	199
	2	1
Genration no. = 192
   RANK     No Of Individuals
	1	194
	2	2
	3	2
	4	2
Genration no. = 193
   RANK     No Of Individuals
	1	199
	2	1
Genration no. = 194
   RANK     No Of Individuals
	1	198
	2	2
Genration no. = 195
   RANK     No Of Individuals
	1	199
	2	1
Genration no. = 196
   RANK     No Of Individuals
	1	199
	2	1
Genration no. = 197
   RANK     No Of Individuals
	1	197
	2	2
	3	1
Genration no. = 198
   RANK     No Of Individuals
	1	197
	2	2
	3	1
Genration no. = 199
   RANK     No Of Individuals
	1	198
	2	1
	3	1
Genration no. = 200
   RANK     No Of Individuals
	1	199
	2	1
Genration no. = 201
   RANK     No Of Individuals
	1	197
	2	1
	3	1
	4	1
Genration no. = 202
   RANK     No Of Individuals
	1	200
Genration no. = 203
   RANK     No Of Individuals
	1	196
	2	2
	3	2
Genration no. = 204
   RANK     No Of Individuals
	1	199
	2	1
Genration no. = 205
   RANK     No Of Individuals
	1	197
	2	2
	3	1
Genration no. = 206
   RANK     No Of Individuals
	1	196
	2	2
	3	2
Genration no. = 207
   RANK     No Of Individuals
	1	198
	2	1
	3	1
Genration no. = 208
   RANK     No Of Individuals
	1	198
	2	1
	3	1
Genration no. = 209
   RANK     No Of Individuals
	1	197
	2	2
	3	1
Genration no. = 210
   RANK     No Of Individuals
	1	199
	2	1
Genration no. = 211
   RANK     No Of Individuals
	1	197
	2	2
	3	1
Genration no. = 212
   RANK     No Of Individuals
	1	198
	2	2
Genration no. = 213
   RANK     No Of Individuals
	1	195
	2	2
	3	1
	4	1
	5	1
Genration no. = 214
   RANK     No Of Individuals
	1	199
	2	1
Genration no. = 215
   RANK     No Of Individuals
	1	196
	2	2
	3	1
	4	1
Genration no. = 216
   RANK     No Of Individuals
	1	199
	2	1
Genration no. = 217
   RANK     No Of Individuals
	1	194
	2	2
	3	2
	4	1
	5	1
Genration no. = 218
   RANK     No Of Individuals
	1	197
	2	2
	3	1
Genration no. = 219
   RANK     No Of Individuals
	1	194
	2	2
	3	1
	4	1
	5	1
	6	1
Genration no. = 220
   RANK     No Of Individuals
	1	196
	2	2
	3	2
Genration no. = 221
   RANK     No Of Individuals
	1	199
	2	1
Genration no. = 222
   RANK     No Of Individuals
	1	199
	2	1
Genration no. = 223
   RANK     No Of Individuals
	1	200
Genration no. = 224
   RANK     No Of Individuals
	1	199
	2	1
Genration no. = 225
   RANK     No Of Individuals
	1	198
	2	1
	3	1
Genration no. = 226
   RANK     No Of Individuals
	1	197
	2	2
	3	1
Genration no. = 227
   RANK     No Of Individuals
	1	200
Genration no. = 228
   RANK     No Of Individuals
	1	200
Genration no. = 229
   RANK     No Of Individuals
	1	197
	2	1
	3	1
	4	1
Genration no. = 230
   RANK     No Of Individuals
	1	200
Genration no. = 231
   RANK     No Of Individuals
	1	198
	2	2
Genration no. = 232
   RANK     No Of Individuals
	1	197
	2	2
	3	1
Genration no. = 233
   RANK     No Of Individuals
	1	199
	2	1
Genration no. = 234
   RANK     No Of Individuals
	1	195
	2	2
	3	2
	4	1
Genration no. = 235
   RANK     No Of Individuals
	1	199
	2	1
Genration no. = 236
   RANK     No Of Individuals
	1	195
	2	2
	3	2
	4	1
Genration no. = 237
   RANK     No Of Individuals
	1	200
Genration no. = 238
   RANK     No Of Individuals
	1	193
	2	2
	3	2
	4	2
	5	1
Genration no. = 239
   RANK     No Of Individuals
	1	198
	2	2
Genration no. = 240
   RANK     No Of Individuals
	1	198
	2	1
	3	1
Genration no. = 241
   RANK     No Of Individuals
	1	196
	2	2
	3	1
	4	1
Genration no. = 242
   RANK     No Of Individuals
	1	199
	2	1
Genration no. = 243
   RANK     No Of Individuals
	1	200
Genration no. = 244
   RANK     No Of Individuals
	1	198
	2	2
Genration no. = 245
   RANK     No Of Individuals
	1	198
	2	1
	3	1
Genration no. = 246
   RANK     No Of Individuals
	1	196
	2	2
	3	1
	4	1
Genration no. = 247
   RANK     No Of Individuals
	1	200
Genration no. = 248
   RANK     No Of Individuals
	1	198
	2	1
	3	1
Genration no. = 249
   RANK     No Of Individuals
	1	197
	2	1
	3	1
	4	1
Genration no. = 250
   RANK     No Of Individuals
	1	198
	2	1
	3	1
Genration no. = 251
   RANK     No Of Individuals
	1	198
	2	2
Genration no. = 252
   RANK     No Of Individuals
	1	200
Genration no. = 253
   RANK     No Of Individuals
	1	193
	2	2
	3	1
	4	1
	5	1
	6	1
	7	1
Genration no. = 254
   RANK     No Of Individuals
	1	198
	2	2
Genration no. = 255
   RANK     No Of Individuals
	1	199
	2	1
Genration no. = 256
   RANK     No Of Individuals
	1	194
	2	2
	3	2
	4	1
	5	1
Genration no. = 257
   RANK     No Of Individuals
	1	198
	2	1
	3	1
Genration no. = 258
   RANK     No Of Individuals
	1	196
	2	1
	3	1
	4	1
	5	1
Genration no. = 259
   RANK     No Of Individuals
	1	197
	2	1
	3	1
	4	1
Genration no. = 260
   RANK     No Of Individuals
	1	197
	2	1
	3	1
	4	1
Genration no. = 261
   RANK     No Of Individuals
	1	195
	2	2
	3	2
	4	1
Genration no. = 262
   RANK     No Of Individuals
	1	200
Genration no. = 263
   RANK     No Of Individuals
	1	199
	2	1
Genration no. = 264
   RANK     No Of Individuals
	1	200
Genration no. = 265
   RANK     No Of Individuals
	1	199
	2	1
Genration no. = 266
   RANK     No Of Individuals
	1	196
	2	2
	3	2
Genration no. = 267
   RANK     No Of Individuals
	1	198
	2	2
Genration no. = 268
   RANK     No Of Individuals
	1	195
	2	2
	3	2
	4	1
Genration no. = 269
   RANK     No Of Individuals
	1	199
	2	1
Genration no. = 270
   RANK     No Of Individuals
	1	194
	2	2
	3	2
	4	1
	5	1
Genration no. = 271
   RANK     No Of Individuals
	1	198
	2	1
	3	1
Genration no. = 272
   RANK     No Of Individuals
	1	193
	2	2
	3	2
	4	1
	5	1
	6	1
Genration no. = 273
   RANK     No Of Individuals
	1	195
	2	2
	3	2
	4	1
Genration no. = 274
   RANK     No Of Individuals
	1	196
	2	2
	3	1
	4	1
Genration no. = 275
   RANK     No Of Individuals
	1	197
	2	2
	3	1
Genration no. = 276
   RANK     No Of Individuals
	1	196
	2	2
	3	1
	4	1
Genration no. = 277
   RANK     No Of Individuals
	1	198
	2	2
Genration no. = 278
   RANK     No Of Individuals
	1	197
	2	2
	3	1
Genration no. = 279
   RANK     No Of Individuals
	1	192
	2	2
	3	2
	4	2
	5	1
	6	1
Genration no. = 280
   RANK     No Of Individuals
	1	196
	2	2
	3	1
	4	1
Genration no. = 281
   RANK     No Of Individuals
	1	196
	2	2
	3	1
	4	1
Genration no. = 282
   RANK     No Of Individuals
	1	199
	2	1
Genration no. = 283
   RANK     No Of Individuals
	1	195
	2	1
	3	1
	4	1
	5	1
	6	1
Genration no. = 284
   RANK     No Of Individuals
	1	198
	2	1
	3	1
Genration no. = 285
   RANK     No Of Individuals
	1	196
	2	2
	3	1
	4	1
Genration no. = 286
   RANK     No Of Individuals
	1	199
	2	1
Genration no. = 287
   RANK     No Of Individuals
	1	199
	2	1
Genration no. = 288
   RANK     No Of Individuals
	1	196
	2	1
	3	1
	4	1
	5	1
Genration no. = 289
   RANK     No Of Individuals
	1	199
	2	1
Genration no. = 290
   RANK     No Of Individuals
	1	198
	2	2
Genration no. = 291
   RANK     No Of Individuals
	1	197
	2	2
	3	1
Genration no. = 292
   RANK     No Of Individuals
	1	198
	2	1
	3	1
Genration no. = 293
   RANK     No Of Individuals
	1	197
	2	2
	3	1
Genration no. = 294
   RANK     No Of Individuals
	1	199
	2	1
Genration no. = 295
   RANK     No Of Individuals
	1	197
	2	2
	3	1
Genration no. = 296
   RANK     No Of Individuals
	1	198
	2	1
	3	1
Genration no. = 297
   RANK     No Of Individuals
	1	198
	2	1
	3	1
Genration no. = 298
   RANK     No Of Individuals
	1	199
	2	1
Genration no. = 299
   RANK     No Of Individuals
	1	198
	2	1
	3	1
Genration no. = 300
   RANK     No Of Individuals
	1	198
	2	1
	3	1
Genration no. = 301
   RANK     No Of Individuals
	1	198
	2	1
	3	1
Genration no. = 302
   RANK     No Of Individuals
	1	198
	2	1
	3	1
Genration no. = 303
   RANK     No Of Individuals
	1	200
Genration no. = 304
   RANK     No Of Individuals
	1	198
	2	1
	3	1
Genration no. = 305
   RANK     No Of Individuals
	1	199
	2	1
Genration no. = 306
   RANK     No Of Individuals
	1	197
	2	1
	3	1
	4	1
Genration no. = 307
   RANK     No Of Individuals
	1	196
	2	2
	3	1
	4	1
Genration no. = 308
   RANK     No Of Individuals
	1	199
	2	1
Genration no. = 309
   RANK     No Of Individuals
	1	197
	2	2
	3	1
Genration no. = 310
   RANK     No Of Individuals
	1	199
	2	1
Genration no. = 311
   RANK     No Of Individuals
	1	197
	2	2
	3	1
Genration no. = 312
   RANK     No Of Individuals
	1	197
	2	2
	3	1
Genration no. = 313
   RANK     No Of Individuals
	1	198
	2	2
Genration no. = 314
   RANK     No Of Individuals
	1	199
	2	1
Genration no. = 315
   RANK     No Of Individuals
	1	197
	2	2
	3	1
Genration no. = 316
   RANK     No Of Individuals
	1	198
	2	1
	3	1
Genration no. = 317
   RANK     No Of Individuals
	1	200
Genration no. = 318
   RANK     No Of Individuals
	1	196
	2	2
	3	2
Genration no. = 319
   RANK     No Of Individuals
	1	198
	2	2
Genration no. = 320
   RANK     No Of Individuals
	1	199
	2	1
Genration no. = 321
   RANK     No Of Individuals
	1	198
	2	2
Genration no. = 322
   RANK     No Of Individuals
	1	198
	2	1
	3	1
Genration no. = 323
   RANK     No Of Individuals
	1	194
	2	2
	3	2
	4	2
Genration no. = 324
   RANK     No Of Individuals
	1	199
	2	1
Genration no. = 325
   RANK     No Of Individuals
	1	198
	2	2
Genration no. = 326
   RANK     No Of Individuals
	1	198
	2	2
Genration no. = 327
   RANK     No Of Individuals
	1	197
	2	1
	3	1
	4	1
Genration no. = 328
   RANK     No Of Individuals
	1	194
	2	2
	3	2
	4	1
	5	1
Genration no. = 329
   RANK     No Of Individuals
	1	198
	2	2
Genration no. = 330
   RANK     No Of Individuals
	1	196
	2	1
	3	1
	4	1
	5	1
Genration no. = 331
   RANK     No Of Individuals
	1	199
	2	1
Genration no. = 332
   RANK     No Of Individuals
	1	198
	2	1
	3	1
Genration no. = 333
   RANK     No Of Individuals
	1	198
	2	1
	3	1
Genration no. = 334
   RANK     No Of Individuals
	1	196
	2	2
	3	1
	4	1
Genration no. = 335
   RANK     No Of Individuals
	1	199
	2	1
Genration no. = 336
   RANK     No Of Individuals
	1	200
Genration no. = 337
   RANK     No Of Individuals
	1	197
	2	1
	3	1
	4	1
Genration no. = 338
   RANK     No Of Individuals
	1	197
	2	2
	3	1
Genration no. = 339
   RANK     No Of Individuals
	1	195
	2	1
	3	1
	4	1
	5	1
	6	1
Genration no. = 340
   RANK     No Of Individuals
	1	200
Genration no. = 341
   RANK     No Of Individuals
	1	193
	2	2
	3	2
	4	2
	5	1
Genration no. = 342
   RANK     No Of Individuals
	1	200
Genration no. = 343
   RANK     No Of Individuals
	1	198
	2	1
	3	1
Genration no. = 344
   RANK     No Of Individuals
	1	196
	2	2
	3	2
Genration no. = 345
   RANK     No Of Individuals
	1	198
	2	1
	3	1
Genration no. = 346
   RANK     No Of Individuals
	1	195
	2	2
	3	2
	4	1
Genration no. = 347
   RANK     No Of Individuals
	1	196
	2	2
	3	2
Genration no. = 348
   RANK     No Of Individuals
	1	193
	2	2
	3	2
	4	1
	5	1
	6	1
Genration no. = 349
   RANK     No Of Individuals
	1	195
	2	2
	3	2
	4	1
Genration no. = 350
   RANK     No Of Individuals
	1	195
	2	2
	3	2
	4	1
Genration no. = 351
   RANK     No Of Individuals
	1	199
	2	1
Genration no. = 352
   RANK     No Of Individuals
	1	195
	2	2
	3	1
	4	1
	5	1
Genration no. = 353
   RANK     No Of Individuals
	1	196
	2	2
	3	1
	4	1
Genration no. = 354
   RANK     No Of Individuals
	1	198
	2	1
	3	1
Genration no. = 355
   RANK     No Of Individuals
	1	195
	2	2
	3	1
	4	1
	5	1
Genration no. = 356
   RANK     No Of Individuals
	1	198
	2	1
	3	1
Genration no. = 357
   RANK     No Of Individuals
	1	199
	2	1
Genration no. = 358
   RANK     No Of Individuals
	1	197
	2	2
	3	1
Genration no. = 359
   RANK     No Of Individuals
	1	198
	2	1
	3	1
Genration no. = 360
   RANK     No Of Individuals
	1	200
Genration no. = 361
   RANK     No Of Individuals
	1	195
	2	2
	3	1
	4	1
	5	1
Genration no. = 362
   RANK     No Of Individuals
	1	197
	2	2
	3	1
Genration no. = 363
   RANK     No Of Individuals
	1	198
	2	1
	3	1
Genration no. = 364
   RANK     No Of Individuals
	1	196
	2	2
	3	1
	4	1
Genration no. = 365
   RANK     No Of Individuals
	1	197
	2	2
	3	1
Genration no. = 366
   RANK     No Of Individuals
	1	196
	2	2
	3	2
Genration no. = 367
   RANK     No Of Individuals
	1	197
	2	2
	3	1
Genration no. = 368
   RANK     No Of Individuals
	1	197
	2	2
	3	1
Genration no. = 369
   RANK     No Of Individuals
	1	199
	2	1
Genration no. = 370
   RANK     No Of Individuals
	1	197
	2	2
	3	1
Genration no. = 371
   RANK     No Of Individuals
	1	199
	2	1
Genration no. = 372
   RANK     No Of Individuals
	1	199
	2	1
Genration no. = 373
   RANK     No Of Individuals
	1	195
	2	1
	3	1
	4	1
	5	1
	6	1
Genration no. = 374
   RANK     No Of Individuals
	1	198
	2	1
	3	1
Genration no. = 375
   RANK     No Of Individuals
	1	197
	2	2
	3	1
Genration no. = 376
   RANK     No Of Individuals
	1	197
	2	1
	3	1
	4	1
Genration no. = 377
   RANK     No Of Individuals
	1	196
	2	2
	3	1
	4	1
Genration no. = 378
   RANK     No Of Individuals
	1	198
	2	1
	3	1
Genration no. = 379
   RANK     No Of Individuals
	1	195
	2	2
	3	2
	4	1
Genration no. = 380
   RANK     No Of Individuals
	1	198
	2	2
Genration no. = 381
   RANK     No Of Individuals
	1	199
	2	1
Genration no. = 382
   RANK     No Of Individuals
	1	198
	2	2
Genration no. = 383
   RANK     No Of Individuals
	1	199
	2	1
Genration no. = 384
   RANK     No Of Individuals
	1	196
	2	2
	3	1
	4	1
Genration no. = 385
   RANK     No Of Individuals
	1	199
	2	1
Genration no. = 386
   RANK     No Of Individuals
	1	197
	2	2
	3	1
Genration no. = 387
   RANK     No Of Individuals
	1	192
	2	2
	3	2
	4	1
	5	1
	6	1
	7	1
Genration no. = 388
   RANK     No Of Individuals
	1	198
	2	2
Genration no. = 389
   RANK     No Of Individuals
	1	195
	2	2
	3	2
	4	1
Genration no. = 390
   RANK     No Of Individuals
	1	199
	2	1
Genration no. = 391
   RANK     No Of Individuals
	1	196
	2	2
	3	1
	4	1
Genration no. = 392
   RANK     No Of Individuals
	1	200
Genration no. = 393
   RANK     No Of Individuals
	1	196
	2	2
	3	1
	4	1
Genration no. = 394
   RANK     No Of Individuals
	1	198
	2	2
Genration no. = 395
   RANK     No Of Individuals
	1	198
	2	1
	3	1
Genration no. = 396
   RANK     No Of Individuals
	1	198
	2	1
	3	1
Genration no. = 397
   RANK     No Of Individuals
	1	199
	2	1
Genration no. = 398
   RANK     No Of Individuals
	1	199
	2	1
Genration no. = 399
   RANK     No Of Individuals
	1	196
	2	2
	3	1
	4	1
Genration no. = 400
   RANK     No Of Individuals
	1	197
	2	2
	3	1
Genration no. = 401
   RANK     No Of Individuals
	1	196
	2	1
	3	1
	4	1
	5	1
Genration no. = 402
   RANK     No Of Individuals
	1	199
	2	1
Genration no. = 403
   RANK     No Of Individuals
	1	193
	2	2
	3	2
	4	2
	5	1
Genration no. = 404
   RANK     No Of Individuals
	1	195
	2	2
	3	2
	4	1
Genration no. = 405
   RANK     No Of Individuals
	1	196
	2	2
	3	1
	4	1
Genration no. = 406
   RANK     No Of Individuals
	1	198
	2	1
	3	1
Genration no. = 407
   RANK     No Of Individuals
	1	197
	2	2
	3	1
Genration no. = 408
   RANK     No Of Individuals
	1	199
	2	1
Genration no. = 409
   RANK     No Of Individuals
	1	198
	2	1
	3	1
Genration no. = 410
   RANK     No Of Individuals
	1	198
	2	1
	3	1
Genration no. = 411
   RANK     No Of Individuals
	1	198
	2	1
	3	1
Genration no. = 412
   RANK     No Of Individuals
	1	196
	2	1
	3	1
	4	1
	5	1
Genration no. = 413
   RANK     No Of Individuals
	1	199
	2	1
Genration no. = 414
   RANK     No Of Individuals
	1	195
	2	2
	3	2
	4	1
Genration no. = 415
   RANK     No Of Individuals
	1	199
	2	1
Genration no. = 416
   RANK     No Of Individuals
	1	199
	2	1
Genration no. = 417
   RANK     No Of Individuals
	1	198
	2	2
Genration no. = 418
   RANK     No Of Individuals
	1	197
	2	1
	3	1
	4	1
Genration no. = 419
   RANK     No Of Individuals
	1	195
	2	2
	3	2
	4	1
Genration no. = 420
   RANK     No Of Individuals
	1	195
	2	2
	3	1
	4	1
	5	1
Genration no. = 421
   RANK     No Of Individuals
	1	197
	2	2
	3	1
Genration no. = 422
   RANK     No Of Individuals
	1	199
	2	1
Genration no. = 423
   RANK     No Of Individuals
	1	198
	2	1
	3	1
Genration no. = 424
   RANK     No Of Individuals
	1	200
Genration no. = 425
   RANK     No Of Individuals
	1	196
	2	2
	3	1
	4	1
Genration no. = 426
   RANK     No Of Individuals
	1	198
	2	2
Genration no. = 427
   RANK     No Of Individuals
	1	198
	2	1
	3	1
Genration no. = 428
   RANK     No Of Individuals
	1	198
	2	2
Genration no. = 429
   RANK     No Of Individuals
	1	198
	2	2
Genration no. = 430
   RANK     No Of Individuals
	1	199
	2	1
Genration no. = 431
   RANK     No Of Individuals
	1	198
	2	2
Genration no. = 432
   RANK     No Of Individuals
	1	199
	2	1
Genration no. = 433
   RANK     No Of Individuals
	1	198
	2	1
	3	1
Genration no. = 434
   RANK     No Of Individuals
	1	198
	2	1
	3	1
Genration no. = 435
   RANK     No Of Individuals
	1	196
	2	2
	3	1
	4	1
Genration no. = 436
   RANK     No Of Individuals
	1	198
	2	2
Genration no. = 437
   RANK     No Of Individuals
	1	200
Genration no. = 438
   RANK     No Of Individuals
	1	199
	2	1
Genration no. = 439
   RANK     No Of Individuals
	1	199
	2	1
Genration no. = 440
   RANK     No Of Individuals
	1	198
	2	1
	3	1
Genration no. = 441
   RANK     No Of Individuals
	1	198
	2	2
Genration no. = 442
   RANK     No Of Individuals
	1	195
	2	2
	3	1
	4	1
	5	1
Genration no. = 443
   RANK     No Of Individuals
	1	200
Genration no. = 444
   RANK     No Of Individuals
	1	196
	2	2
	3	2
Genration no. = 445
   RANK     No Of Individuals
	1	198
	2	2
Genration no. = 446
   RANK     No Of Individuals
	1	196
	2	2
	3	2
Genration no. = 447
   RANK     No Of Individuals
	1	195
	2	1
	3	1
	4	1
	5	1
	6	1
Genration no. = 448
   RANK     No Of Individuals
	1	196
	2	2
	3	1
	4	1
Genration no. = 449
   RANK     No Of Individuals
	1	198
	2	2
Genration no. = 450
   RANK     No Of Individuals
	1	200
Genration no. = 451
   RANK     No Of Individuals
	1	196
	2	2
	3	1
	4	1
Genration no. = 452
   RANK     No Of Individuals
	1	200
Genration no. = 453
   RANK     No Of Individuals
	1	196
	2	2
	3	1
	4	1
Genration no. = 454
   RANK     No Of Individuals
	1	196
	2	2
	3	1
	4	1
Genration no. = 455
   RANK     No Of Individuals
	1	196
	2	2
	3	1
	4	1
Genration no. = 456
   RANK     No Of Individuals
	1	200
Genration no. = 457
   RANK     No Of Individuals
	1	195
	2	2
	3	1
	4	1
	5	1
Genration no. = 458
   RANK     No Of Individuals
	1	195
	2	2
	3	1
	4	1
	5	1
Genration no. = 459
   RANK     No Of Individuals
	1	195
	2	2
	3	2
	4	1
Genration no. = 460
   RANK     No Of Individuals
	1	200
Genration no. = 461
   RANK     No Of Individuals
	1	200
Genration no. = 462
   RANK     No Of Individuals
	1	199
	2	1
Genration no. = 463
   RANK     No Of Individuals
	1	196
	2	1
	3	1
	4	1
	5	1
Genration no. = 464
   RANK     No Of Individuals
	1	195
	2	2
	3	2
	4	1
Genration no. = 465
   RANK     No Of Individuals
	1	198
	2	2
Genration no. = 466
   RANK     No Of Individuals
	1	198
	2	2
Genration no. = 467
   RANK     No Of Individuals
	1	196
	2	1
	3	1
	4	1
	5	1
Genration no. = 468
   RANK     No Of Individuals
	1	200
Genration no. = 469
   RANK     No Of Individuals
	1	195
	2	2
	3	1
	4	1
	5	1
Genration no. = 470
   RANK     No Of Individuals
	1	196
	2	2
	3	2
Genration no. = 471
   RANK     No Of Individuals
	1	196
	2	2
	3	1
	4	1
Genration no. = 472
   RANK     No Of Individuals
	1	199
	2	1
Genration no. = 473
   RANK     No Of Individuals
	1	198
	2	1
	3	1
Genration no. = 474
   RANK     No Of Individuals
	1	196
	2	2
	3	1
	4	1
Genration no. = 475
   RANK     No Of Individuals
	1	196
	2	2
	3	1
	4	1
Genration no. = 476
   RANK     No Of Individuals
	1	199
	2	1
Genration no. = 477
   RANK     No Of Individuals
	1	197
	2	2
	3	1
Genration no. = 478
   RANK     No Of Individuals
	1	198
	2	2
Genration no. = 479
   RANK     No Of Individuals
	1	198
	2	2
Genration no. = 480
   RANK     No Of Individuals
	1	198
	2	2
Genration no. = 481
   RANK     No Of Individuals
	1	197
	2	1
	3	1
	4	1
Genration no. = 482
   RANK     No Of Individuals
	1	199
	2	1
Genration no. = 483
   RANK     No Of Individuals
	1	198
	2	2
Genration no. = 484
   RANK     No Of Individuals
	1	196
	2	2
	3	2
Genration no. = 485
   RANK     No Of Individuals
	1	198
	2	2
Genration no. = 486
   RANK     No Of Individuals
	1	199
	2	1
Genration no. = 487
   RANK     No Of Individuals
	1	199
	2	1
Genration no. = 488
   RANK     No Of Individuals
	1	199
	2	1
Genration no. = 489
   RANK     No Of Individuals
	1	199
	2	1
Genration no. = 490
   RANK     No Of Individuals
	1	199
	2	1
Genration no. = 491
   RANK     No Of Individuals
	1	193
	2	2
	3	2
	4	2
	5	1
Genration no. = 492
   RANK     No Of Individuals
	1	200
Genration no. = 493
   RANK     No Of Individuals
	1	199
	2	1
Genration no. = 494
   RANK     No Of Individuals
	1	199
	2	1
Genration no. = 495
   RANK     No Of Individuals
	1	200
Genration no. = 496
   RANK     No Of Individuals
	1	196
	2	2
	3	1
	4	1
Genration no. = 497
   RANK     No Of Individuals
	1	199
	2	1
Genration no. = 498
   RANK     No Of Individuals
	1	198
	2	2
Genration no. = 499
   RANK     No Of Individuals
	1	197
	2	2
	3	1
Genration no. = 500
   RANK     No Of Individuals
	1	195
	2	2
	3	1
	4	1
	5	1
Genration no. = 1
   RANK     No Of Individuals
	1	40
	2	6
	3	3
	4	6
	5	3
	6	4
	7	3
	8	3
	9	4
	10	5
	11	4
	12	9
	13	5
	14	4
	15	6
	16	3
	17	5
	18	3
	19	3
	20	6
	21	5
	22	2
	23	2
	24	3
	25	3
	26	2
	27	2
	28	4
	29	2
	30	2
	31	2
	32	3
	33	2
	34	2
	35	4
	36	2
	37	2
	38	2
	39	3
	40	2
	41	2
	42	2
	43	2
	44	3
	45	2
	46	2
	47	3
	48	3
	49	1
	50	1
	51	1
	52	1
	53	1
Genration no. = 2
   RANK     No Of Individuals
	1	95
	2	13
	3	4
	4	6
	5	3
	6	5
	7	8
	8	3
	9	3
	10	6
	11	3
	12	6
	13	4
	14	5
	15	6
	16	4
	17	13
	18	6
	19	2
	20	1
	21	2
	22	1
	23	1
Genration no. = 3
   RANK     No Of Individuals
	1	189
	2	4
	3	4
	4	2
	5	1
Genration no. = 4
   RANK     No Of Individuals
	1	197
	2	1
	3	1
	4	1
Genration no. = 5
   RANK     No Of Individuals
	1	187
	2	3
	3	5
	4	2
	5	2
	6	1
Genration no. = 6
   RANK     No Of Individuals
	1	190
	2	4
	3	2
	4	1
	5	1
	6	1
	7	1
Genration no. = 7
   RANK     No Of Individuals
	1	190
	2	5
	3	4
	4	1
Genration no. = 8
   RANK     No Of Individuals
	1	196
	2	4
Genration no. = 9
   RANK     No Of Individuals
	1	197
	2	2
	3	1
Genration no. = 10
   RANK     No Of Individuals
	1	193
	2	3
	3	3
	4	1
Genration no. = 11
   RANK     No Of Individuals
	1	187
	2	6
	3	2
	4	2
	5	1
	6	1
	7	1
Genration no. = 12
   RANK     No Of Individuals
	1	191
	2	4
	3	2
	4	2
	5	1
Genration no. = 13
   RANK     No Of Individuals
	1	191
	2	3
	3	4
	4	2
Genration no. = 14
   RANK     No Of Individuals
	1	192
	2	5
	3	1
	4	1
	5	1
Genration no. = 15
   RANK     No Of Individuals
	1	192
	2	3
	3	4
	4	1
Genration no. = 16
   RANK     No Of Individuals
	1	196
	2	3
	3	1
Genration no. = 17
   RANK     No Of Individuals
	1	195
	2	3
	3	1
	4	1
Genration no. = 18
   RANK     No Of Individuals
	1	198
	2	2
Genration no. = 19
   RANK     No Of Individuals
	1	196
	2	3
	3	1
Genration no. = 20
   RANK     No Of Individuals
	1	195
	2	2
	3	3
Genration no. = 21
   RANK     No Of Individuals
	1	197
	2	2
	3	1
Genration no. = 22
   RANK     No Of Individuals
	1	197
	2	3
Genration no. = 23
   RANK     No Of Individuals
	1	195
	2	3
	3	2
Genration no. = 24
   RANK     No Of Individuals
	1	187
	2	7
	3	4
	4	2
Genration no. = 25
   RANK     No Of Individuals
	1	198
	2	2
Genration no. = 26
   RANK     No Of Individuals
	1	193
	2	3
	3	3
	4	1
Genration no. = 27
   RANK     No Of Individuals
	1	198
	2	2
Genration no. = 28
   RANK     No Of Individuals
	1	192
	2	5
	3	2
	4	1
Genration no. = 29
   RANK     No Of Individuals
	1	191
	2	5
	3	2
	4	1
	5	1
Genration no. = 30
   RANK     No Of Individuals
	1	189
	2	7
	3	2
	4	1
	5	1
Genration no. = 31
   RANK     No Of Individuals
	1	193
	2	4
	3	3
Genration no. = 32
   RANK     No Of Individuals
	1	188
	2	3
	3	2
	4	4
	5	3
Genration no. = 33
   RANK     No Of Individuals
	1	192
	2	3
	3	3
	4	1
	5	1
Genration no. = 34
   RANK     No Of Individuals
	1	196
	2	3
	3	1
Genration no. = 35
   RANK     No Of Individuals
	1	194
	2	3
	3	3
Genration no. = 36
   RANK     No Of Individuals
	1	195
	2	4
	3	1
Genration no. = 37
   RANK     No Of Individuals
	1	191
	2	3
	3	2
	4	2
	5	1
	6	1
Genration no. = 38
   RANK     No Of Individuals
	1	193
	2	3
	3	2
	4	2
Genration no. = 39
   RANK     No Of Individuals
	1	196
	2	4
Genration no. = 40
   RANK     No Of Individuals
	1	197
	2	1
	3	1
	4	1
Genration no. = 41
   RANK     No Of Individuals
	1	196
	2	1
	3	1
	4	1
	5	1
Genration no. = 42
   RANK     No Of Individuals
	1	194
	2	4
	3	2
Genration no. = 43
   RANK     No Of Individuals
	1	194
	2	3
	3	3
Genration no. = 44
   RANK     No Of Individuals
	1	195
	2	3
	3	2
Genration no. = 45
   RANK     No Of Individuals
	1	194
	2	4
	3	1
	4	1
Genration no. = 46
   RANK     No Of Individuals
	1	189
	2	3
	3	3
	4	4
	5	1
Genration no. = 47
   RANK     No Of Individuals
	1	193
	2	3
	3	3
	4	1
Genration no. = 48
   RANK     No Of Individuals
	1	197
	2	2
	3	1
Genration no. = 49
   RANK     No Of Individuals
	1	190
	2	4
	3	3
	4	1
	5	1
	6	1
Genration no. = 50
   RANK     No Of Individuals
	1	190
	2	2
	3	4
	4	3
	5	1
Genration no. = 51
   RANK     No Of Individuals
	1	193
	2	3
	3	3
	4	1
Genration no. = 52
   RANK     No Of Individuals
	1	196
	2	4
Genration no. = 53
   RANK     No Of Individuals
	1	194
	2	3
	3	2
	4	1
Genration no. = 54
   RANK     No Of Individuals
	1	196
	2	2
	3	1
	4	1
Genration no. = 55
   RANK     No Of Individuals
	1	189
	2	3
	3	5
	4	1
	5	1
	6	1
Genration no. = 56
   RANK     No Of Individuals
	1	197
	2	3
Genration no. = 57
   RANK     No Of Individuals
	1	191
	2	3
	3	2
	4	1
	5	2
	6	1
Genration no. = 58
   RANK     No Of Individuals
	1	192
	2	4
	3	4
Genration no. = 59
   RANK     No Of Individuals
	1	191
	2	4
	3	2
	4	2
	5	1
Genration no. = 60
   RANK     No Of Individuals
	1	195
	2	3
	3	1
	4	1
Genration no. = 61
   RANK     No Of Individuals
	1	196
	2	2
	3	2
Genration no. = 62
   RANK     No Of Individuals
	1	195
	2	5
Genration no. = 63
   RANK     No Of Individuals
	1	194
	2	3
	3	2
	4	1
Genration no. = 64
   RANK     No Of Individuals
	1	196
	2	1
	3	1
	4	1
	5	1
Genration no. = 65
   RANK     No Of Individuals
	1	191
	2	4
	3	3
	4	1
	5	1
Genration no. = 66
   RANK     No Of Individuals
	1	195
	2	4
	3	1
Genration no. = 67
   RANK     No Of Individuals
	1	193
	2	5
	3	2
Genration no. = 68
   RANK     No Of Individuals
	1	193
	2	4
	3	2
	4	1
Genration no. = 69
   RANK     No Of Individuals
	1	190
	2	4
	3	2
	4	1
	5	2
	6	1
Genration no. = 70
   RANK     No Of Individuals
	1	196
	2	2
	3	1
	4	1
Genration no. = 71
   RANK     No Of Individuals
	1	194
	2	3
	3	2
	4	1
Genration no. = 72
   RANK     No Of Individuals
	1	190
	2	4
	3	2
	4	2
	5	1
	6	1
Genration no. = 73
   RANK     No Of Individuals
	1	197
	2	2
	3	1
Genration no. = 74
   RANK     No Of Individuals
	1	195
	2	3
	3	2
Genration no. = 75
   RANK     No Of Individuals
	1	190
	2	3
	3	4
	4	1
	5	1
	6	1
Genration no. = 76
   RANK     No Of Individuals
	1	193
	2	5
	3	1
	4	1
Genration no. = 77
   RANK     No Of Individuals
	1	189
	2	3
	3	4
	4	2
	5	1
	6	1
Genration no. = 78
   RANK     No Of Individuals
	1	197
	2	2
	3	1
Genration no. = 79
   RANK     No Of Individuals
	1	192
	2	3
	3	2
	4	1
	5	1
	6	1
Genration no. = 80
   RANK     No Of Individuals
	1	193
	2	3
	3	2
	4	2
Genration no. = 81
   RANK     No Of Individuals
	1	192
	2	4
	3	3
	4	1
Genration no. = 82
   RANK     No Of Individuals
	1	191
	2	4
	3	2
	4	2
	5	1
Genration no. = 83
   RANK     No Of Individuals
	1	195
	2	4
	3	1
Genration no. = 84
   RANK     No Of Individuals
	1	190
	2	3
	3	2
	4	2
	5	1
	6	1
	7	1
Genration no. = 85
   RANK     No Of Individuals
	1	192
	2	4
	3	2
	4	2
Genration no. = 86
   RANK     No Of Individuals
	1	191
	2	7
	3	2
Genration no. = 87
   RANK     No Of Individuals
	1	194
	2	4
	3	1
	4	1
Genration no. = 88
   RANK     No Of Individuals
	1	194
	2	2
	3	2
	4	1
	5	1
Genration no. = 89
   RANK     No Of Individuals
	1	196
	2	3
	3	1
Genration no. = 90
   RANK     No Of Individuals
	1	197
	2	3
Genration no. = 91
   RANK     No Of Individuals
	1	191
	2	5
	3	2
	4	1
	5	1
Genration no. = 92
   RANK     No Of Individuals
	1	193
	2	2
	3	3
	4	1
	5	1
Genration no. = 93
   RANK     No Of Individuals
	1	189
	2	3
	3	6
	4	2
Genration no. = 94
   RANK     No Of Individuals
	1	199
	2	1
Genration no. = 95
   RANK     No Of Individuals
	1	190
	2	3
	3	6
	4	1
Genration no. = 96
   RANK     No Of Individuals
	1	192
	2	5
	3	3
Genration no. = 97
   RANK     No Of Individuals
	1	196
	2	3
	3	1
Genration no. = 98
   RANK     No Of Individuals
	1	196
	2	3
	3	1
Genration no. = 99
   RANK     No Of Individuals
	1	195
	2	3
	3	1
	4	1
Genration no. = 100
   RANK     No Of Individuals
	1	191
	2	4
	3	2
	4	2
	5	1
Genration no. = 101
   RANK     No Of Individuals
	1	196
	2	2
	3	1
	4	1
Genration no. = 102
   RANK     No Of Individuals
	1	194
	2	4
	3	2
Genration no. = 103
   RANK     No Of Individuals
	1	194
	2	3
	3	1
	4	1
	5	1
Genration no. = 104
   RANK     No Of Individuals
	1	192
	2	3
	3	2
	4	1
	5	1
	6	1
Genration no. = 105
   RANK     No Of Individuals
	1	195
	2	2
	3	1
	4	1
	5	1
Genration no. = 106
   RANK     No Of Individuals
	1	193
	2	3
	3	4
Genration no. = 107
   RANK     No Of Individuals
	1	192
	2	3
	3	2
	4	2
	5	1
Genration no. = 108
   RANK     No Of Individuals
	1	194
	2	3
	3	2
	4	1
Genration no. = 109
   RANK     No Of Individuals
	1	195
	2	2
	3	2
	4	1
Genration no. = 110
   RANK     No Of Individuals
	1	191
	2	2
	3	3
	4	3
	5	1
Genration no. = 111
   RANK     No Of Individuals
	1	191
	2	3
	3	4
	4	1
	5	1
Genration no. = 112
   RANK     No Of Individuals
	1	196
	2	2
	3	1
	4	1
Genration no. = 113
   RANK     No Of Individuals
	1	197
	2	2
	3	1
Genration no. = 114
   RANK     No Of Individuals
	1	190
	2	3
	3	4
	4	2
	5	1
Genration no. = 115
   RANK     No Of Individuals
	1	193
	2	4
	3	2
	4	1
Genration no. = 116
   RANK     No Of Individuals
	1	193
	2	4
	3	3
Genration no. = 117
   RANK     No Of Individuals
	1	194
	2	3
	3	3
Genration no. = 118
   RANK     No Of Individuals
	1	190
	2	3
	3	4
	4	3
Genration no. = 119
   RANK     No Of Individuals
	1	195
	2	4
	3	1
Genration no. = 120
   RANK     No Of Individuals
	1	195
	2	5
Genration no. = 121
   RANK     No Of Individuals
	1	194
	2	2
	3	2
	4	2
Genration no. = 122
   RANK     No Of Individuals
	1	196
	2	3
	3	1
Genration no. = 123
   RANK     No Of Individuals
	1	197
	2	2
	3	1
Genration no. = 124
   RANK     No Of Individuals
	1	188
	2	9
	3	2
	4	1
Genration no. = 125
   RANK     No Of Individuals
	1	195
	2	2
	3	1
	4	1
	5	1
Genration no. = 126
   RANK     No Of Individuals
	1	195
	2	3
	3	2
Genration no. = 127
   RANK     No Of Individuals
	1	195
	2	3
	3	2
Genration no. = 128
   RANK     No Of Individuals
	1	195
	2	3
	3	2
Genration no. = 129
   RANK     No Of Individuals
	1	196
	2	3
	3	1
Genration no. = 130
   RANK     No Of Individuals
	1	194
	2	2
	3	2
	4	1
	5	1
Genration no. = 131
   RANK     No Of Individuals
	1	196
	2	4
Genration no. = 132
   RANK     No Of Individuals
	1	194
	2	4
	3	1
	4	1
Genration no. = 133
   RANK     No Of Individuals
	1	193
	2	3
	3	2
	4	1
	5	1
Genration no. = 134
   RANK     No Of Individuals
	1	192
	2	2
	3	3
	4	3
Genration no. = 135
   RANK     No Of Individuals
	1	190
	2	4
	3	5
	4	1
Genration no. = 136
   RANK     No Of Individuals
	1	196
	2	2
	3	2
Genration no. = 137
   RANK     No Of Individuals
	1	188
	2	3
	3	2
	4	1
	5	1
	6	1
	7	1
	8	1
	9	1
	10	1
Genration no. = 138
   RANK     No Of Individuals
	1	197
	2	2
	3	1
Genration no. = 139
   RANK     No Of Individuals
	1	193
	2	5
	3	1
	4	1
Genration no. = 140
   RANK     No Of Individuals
	1	193
	2	3
	3	4
Genration no. = 141
   RANK     No Of Individuals
	1	190
	2	4
	3	2
	4	1
	5	1
	6	1
	7	1
Genration no. = 142
   RANK     No Of Individuals
	1	194
	2	2
	3	2
	4	1
	5	1
Genration no. = 143
   RANK     No Of Individuals
	1	194
	2	3
	3	3
Genration no. = 144
   RANK     No Of Individuals
	1	194
	2	5
	3	1
Genration no. = 145
   RANK     No Of Individuals
	1	192
	2	3
	3	4
	4	1
Genration no. = 146
   RANK     No Of Individuals
	1	197
	2	2
	3	1
Genration no. = 147
   RANK     No Of Individuals
	1	192
	2	3
	3	3
	4	2
Genration no. = 148
   RANK     No Of Individuals
	1	193
	2	3
	3	3
	4	1
Genration no. = 149
   RANK     No Of Individuals
	1	192
	2	2
	3	2
	4	2
	5	2
Genration no. = 150
   RANK     No Of Individuals
	1	198
	2	1
	3	1
Genration no. = 151
   RANK     No Of Individuals
	1	190
	2	4
	3	3
	4	1
	5	1
	6	1
Genration no. = 152
   RANK     No Of Individuals
	1	194
	2	5
	3	1
Genration no. = 153
   RANK     No Of Individuals
	1	195
	2	3
	3	1
	4	1
Genration no. = 154
   RANK     No Of Individuals
	1	196
	2	2
	3	1
	4	1
Genration no. = 155
   RANK     No Of Individuals
	1	196
	2	3
	3	1
Genration no. = 156
   RANK     No Of Individuals
	1	195
	2	2
	3	2
	4	1
Genration no. = 157
   RANK     No Of Individuals
	1	193
	2	2
	3	1
	4	1
	5	1
	6	1
	7	1
Genration no. = 158
   RANK     No Of Individuals
	1	196
	2	4
Genration no. = 159
   RANK     No Of Individuals
	1	195
	2	3
	3	1
	4	1
Genration no. = 160
   RANK     No Of Individuals
	1	197
	2	3
Genration no. = 161
   RANK     No Of Individuals
	1	194
	2	3
	3	3
Genration no. = 162
   RANK     No Of Individuals
	1	192
	2	3
	3	3
	4	2
Genration no. = 163
   RANK     No Of Individuals
	1	195
	2	5
Genration no. = 164
   RANK     No Of Individuals
	1	195
	2	3
	3	2
Genration no. = 165
   RANK     No Of Individuals
	1	189
	2	3
	3	3
	4	3
	5	2
Genration no. = 166
   RANK     No Of Individuals
	1	192
	2	3
	3	2
	4	1
	5	1
	6	1
Genration no. = 167
   RANK     No Of Individuals
	1	194
	2	3
	3	2
	4	1
Genration no. = 168
   RANK     No Of Individuals
	1	193
	2	4
	3	3
Genration no. = 169
   RANK     No Of Individuals
	1	197
	2	2
	3	1
Genration no. = 170
   RANK     No Of Individuals
	1	194
	2	3
	3	2
	4	1
Genration no. = 171
   RANK     No Of Individuals
	1	191
	2	4
	3	4
	4	1
Genration no. = 172
   RANK     No Of Individuals
	1	192
	2	5
	3	3
Genration no. = 173
   RANK     No Of Individuals
	1	192
	2	6
	3	2
Genration no. = 174
   RANK     No Of Individuals
	1	189
	2	3
	3	6
	4	2
Genration no. = 175
   RANK     No Of Individuals
	1	190
	2	4
	3	2
	4	1
	5	1
	6	1
	7	1
Genration no. = 176
   RANK     No Of Individuals
	1	194
	2	2
	3	4
Genration no. = 177
   RANK     No Of Individuals
	1	190
	2	6
	3	2
	4	2
Genration no. = 178
   RANK     No Of Individuals
	1	196
	2	3
	3	1
Genration no. = 179
   RANK     No Of Individuals
	1	192
	2	3
	3	3
	4	2
Genration no. = 180
   RANK     No Of Individuals
	1	191
	2	5
	3	2
	4	2
Genration no. = 181
   RANK     No Of Individuals
	1	190
	2	3
	3	2
	4	2
	5	1
	6	1
	7	1
Genration no. = 182
   RANK     No Of Individuals
	1	192
	2	3
	3	3
	4	2
Genration no. = 183
   RANK     No Of Individuals
	1	191
	2	3
	3	2
	4	1
	5	1
	6	1
	7	1
Genration no. = 184
   RANK     No Of Individuals
	1	193
	2	2
	3	2
	4	1
	5	1
	6	1
Genration no. = 185
   RANK     No Of Individuals
	1	195
	2	2
	3	2
	4	1
Genration no. = 186
   RANK     No Of Individuals
	1	191
	2	7
	3	1
	4	1
Genration no. = 187
   RANK     No Of Individuals
	1	195
	2	3
	3	2
Genration no. = 188
   RANK     No Of Individuals
	1	190
	2	4
	3	3
	4	2
	5	1
Genration no. = 189
   RANK     No Of Individuals
	1	193
	2	3
	3	2
	4	1
	5	1
Genration no. = 190
   RANK     No Of Individuals
	1	195
	2	1
	3	3
	4	1
Genration no. = 191
   RANK     No Of Individuals
	1	194
	2	4
	3	1
	4	1
Genration no. = 192
   RANK     No Of Individuals
	1	193
	2	4
	3	2
	4	1
Genration no. = 193
   RANK     No Of Individuals
	1	193
	2	3
	3	4
Genration no. = 194
   RANK     No Of Individuals
	1	196
	2	4
Genration no. = 195
   RANK     No Of Individuals
	1	193
	2	7
Genration no. = 196
   RANK     No Of Individuals
	1	191
	2	3
	3	2
	4	2
	5	1
	6	1
Genration no. = 197
   RANK     No Of Individuals
	1	196
	2	4
Genration no. = 198
   RANK     No Of Individuals
	1	192
	2	6
	3	1
	4	1
Genration no. = 199
   RANK     No Of Individuals
	1	192
	2	3
	3	3
	4	1
	5	1
Genration no. = 200
   RANK     No Of Individuals
	1	196
	2	2
	3	2
Genration no. = 201
   RANK     No Of Individuals
	1	193
	2	4
	3	1
	4	1
	5	1
Genration no. = 202
   RANK     No Of Individuals
	1	192
	2	4
	3	4
Genration no. = 203
   RANK     No Of Individuals
	1	191
	2	5
	3	3
	4	1
Genration no. = 204
   RANK     No Of Individuals
	1	194
	2	3
	3	2
	4	1
Genration no. = 205
   RANK     No Of Individuals
	1	194
	2	3
	3	2
	4	1
Genration no. = 206
   RANK     No Of Individuals
	1	186
	2	6
	3	5
	4	2
	5	1
Genration no. = 207
   RANK     No Of Individuals
	1	196
	2	3
	3	1
Genration no. = 208
   RANK     No Of Individuals
	1	194
	2	3
	3	3
Genration no. = 209
   RANK     No Of Individuals
	1	195
	2	4
	3	1
Genration no. = 210
   RANK     No Of Individuals
	1	194
	2	3
	3	2
	4	1
Genration no. = 211
   RANK     No Of Individuals
	1	195
	2	5
Genration no. = 212
   RANK     No Of Individuals
	1	195
	2	3
	3	2
Genration no. = 213
   RANK     No Of Individuals
	1	189
	2	4
	3	3
	4	2
	5	1
	6	1
Genration no. = 214
   RANK     No Of Individuals
	1	198
	2	2
Genration no. = 215
   RANK     No Of Individuals
	1	199
	2	1
Genration no. = 216
   RANK     No Of Individuals
	1	190
	2	3
	3	3
	4	3
	5	1
Genration no. = 217
   RANK     No Of Individuals
	1	190
	2	4
	3	3
	4	3
Genration no. = 218
   RANK     No Of Individuals
	1	194
	2	2
	3	2
	4	1
	5	1
Genration no. = 219
   RANK     No Of Individuals
	1	195
	2	2
	3	2
	4	1
Genration no. = 220
   RANK     No Of Individuals
	1	194
	2	2
	3	3
	4	1
Genration no. = 221
   RANK     No Of Individuals
	1	191
	2	7
	3	1
	4	1
Genration no. = 222
   RANK     No Of Individuals
	1	192
	2	4
	3	2
	4	1
	5	1
Genration no. = 223
   RANK     No Of Individuals
	1	192
	2	2
	3	2
	4	1
	5	1
	6	1
	7	1
Genration no. = 224
   RANK     No Of Individuals
	1	189
	2	4
	3	2
	4	2
	5	2
	6	1
Genration no. = 225
   RANK     No Of Individuals
	1	194
	2	3
	3	2
	4	1
Genration no. = 226
   RANK     No Of Individuals
	1	193
	2	2
	3	2
	4	1
	5	1
	6	1
Genration no. = 227
   RANK     No Of Individuals
	1	196
	2	2
	3	1
	4	1
Genration no. = 228
   RANK     No Of Individuals
	1	196
	2	3
	3	1
Genration no. = 229
   RANK     No Of Individuals
	1	193
	2	4
	3	2
	4	1
Genration no. = 230
   RANK     No Of Individuals
	1	195
	2	2
	3	3
Genration no. = 231
   RANK     No Of Individuals
	1	196
	2	3
	3	1
Genration no. = 232
   RANK     No Of Individuals
	1	194
	2	3
	3	2
	4	1
Genration no. = 233
   RANK     No Of Individuals
	1	195
	2	4
	3	1
Genration no. = 234
   RANK     No Of Individuals
	1	189
	2	4
	3	3
	4	4
Genration no. = 235
   RANK     No Of Individuals
	1	197
	2	3
Genration no. = 236
   RANK     No Of Individuals
	1	194
	2	4
	3	2
Genration no. = 237
   RANK     No Of Individuals
	1	192
	2	3
	3	3
	4	2
Genration no. = 238
   RANK     No Of Individuals
	1	194
	2	3
	3	2
	4	1
Genration no. = 239
   RANK     No Of Individuals
	1	195
	2	2
	3	2
	4	1
Genration no. = 240
   RANK     No Of Individuals
	1	195
	2	2
	3	2
	4	1
Genration no. = 241
   RANK     No Of Individuals
	1	195
	2	4
	3	1
Genration no. = 242
   RANK     No Of Individuals
	1	198
	2	1
	3	1
Genration no. = 243
   RANK     No Of Individuals
	1	191
	2	4
	3	4
	4	1
Genration no. = 244
   RANK     No Of Individuals
	1	195
	2	3
	3	2
Genration no. = 245
   RANK     No Of Individuals
	1	190
	2	5
	3	3
	4	2
Genration no. = 246
   RANK     No Of Individuals
	1	187
	2	3
	3	3
	4	4
	5	2
	6	1
Genration no. = 247
   RANK     No Of Individuals
	1	193
	2	3
	3	3
	4	1
Genration no. = 248
   RANK     No Of Individuals
	1	197
	2	2
	3	1
Genration no. = 249
   RANK     No Of Individuals
	1	191
	2	3
	3	2
	4	2
	5	1
	6	1
Genration no. = 250
   RANK     No Of Individuals
	1	196
	2	2
	3	2
Genration no. = 251
   RANK     No Of Individuals
	1	193
	2	5
	3	2
Genration no. = 252
   RANK     No Of Individuals
	1	193
	2	3
	3	2
	4	2
Genration no. = 253
   RANK     No Of Individuals
	1	192
	2	3
	3	3
	4	2
Genration no. = 254
   RANK     No Of Individuals
	1	190
	2	5
	3	3
	4	1
	5	1
Genration no. = 255
   RANK     No Of Individuals
	1	196
	2	3
	3	1
Genration no. = 256
   RANK     No Of Individuals
	1	191
	2	6
	3	2
	4	1
Genration no. = 257
   RANK     No Of Individuals
	1	193
	2	3
	3	3
	4	1
Genration no. = 258
   RANK     No Of Individuals
	1	194
	2	2
	3	1
	4	1
	5	1
	6	1
Genration no. = 259
   RANK     No Of Individuals
	1	189
	2	4
	3	3
	4	2
	5	1
	6	1
Genration no. = 260
   RANK     No Of Individuals
	1	189
	2	3
	3	4
	4	2
	5	1
	6	1
Genration no. = 261
   RANK     No Of Individuals
	1	192
	2	4
	3	2
	4	1
	5	1
Genration no. = 262
   RANK     No Of Individuals
	1	193
	2	3
	3	2
	4	2
Genration no. = 263
   RANK     No Of Individuals
	1	198
	2	1
	3	1
Genration no. = 264
   RANK     No Of Individuals
	1	194
	2	4
	3	2
Genration no. = 265
   RANK     No Of Individuals
	1	191
	2	4
	3	2
	4	1
	5	1
	6	1
Genration no. = 266
   RANK     No Of Individuals
	1	198
	2	2
Genration no. = 267
   RANK     No Of Individuals
	1	191
	2	3
	3	4
	4	2
Genration no. = 268
   RANK     No Of Individuals
	1	193
	2	4
	3	2
	4	1
Genration no. = 269
   RANK     No Of Individuals
	1	194
	2	5
	3	1
Genration no. = 270
   RANK     No Of Individuals
	1	198
	2	2
Genration no. = 271
   RANK     No Of Individuals
	1	198
	2	2
Genration no. = 272
   RANK     No Of Individuals
	1	195
	2	4
	3	1
Genration no. = 273
   RANK     No Of Individuals
	1	194
	2	3
	3	3
Genration no. = 274
   RANK     No Of Individuals
	1	198
	2	2
Genration no. = 275
   RANK     No Of Individuals
	1	194
	2	3
	3	3
Genration no. = 276
   RANK     No Of Individuals
	1	195
	2	4
	3	1
Genration no. = 277
   RANK     No Of Individuals
	1	193
	2	3
	3	2
	4	1
	5	1
Genration no. = 278
   RANK     No Of Individuals
	1	195
	2	5
Genration no. = 279
   RANK     No Of Individuals
	1	193
	2	4
	3	2
	4	1
Genration no. = 280
   RANK     No Of Individuals
	1	194
	2	4
	3	1
	4	1
Genration no. = 281
   RANK     No Of Individuals
	1	194
	2	2
	3	3
	4	1
Genration no. = 282
   RANK     No Of Individuals
	1	193
	2	2
	3	3
	4	1
	5	1
Genration no. = 283
   RANK     No Of Individuals
	1	194
	2	3
	3	3
Genration no. = 284
   RANK     No Of Individuals
	1	195
	2	3
	3	1
	4	1
Genration no. = 285
   RANK     No Of Individuals
	1	191
	2	3
	3	3
	4	2
	5	1
Genration no. = 286
   RANK     No Of Individuals
	1	194
	2	3
	3	3
Genration no. = 287
   RANK     No Of Individuals
	1	194
	2	3
	3	2
	4	1
Genration no. = 288
   RANK     No Of Individuals
	1	195
	2	3
	3	2
Genration no. = 289
   RANK     No Of Individuals
	1	192
	2	1
	3	2
	4	3
	5	1
	6	1
Genration no. = 290
   RANK     No Of Individuals
	1	192
	2	6
	3	2
Genration no. = 291
   RANK     No Of Individuals
	1	190
	2	3
	3	3
	4	1
	5	1
	6	1
	7	1
Genration no. = 292
   RANK     No Of Individuals
	1	197
	2	3
Genration no. = 293
   RANK     No Of Individuals
	1	200
Genration no. = 294
   RANK     No Of Individuals
	1	198
	2	2
Genration no. = 295
   RANK     No Of Individuals
	1	194
	2	2
	3	2
	4	2
Genration no. = 296
   RANK     No Of Individuals
	1	198
	2	2
Genration no. = 297
   RANK     No Of Individuals
	1	192
	2	3
	3	4
	4	1
Genration no. = 298
   RANK     No Of Individuals
	1	198
	2	1
	3	1
Genration no. = 299
   RANK     No Of Individuals
	1	192
	2	3
	3	3
	4	2
Genration no. = 300
   RANK     No Of Individuals
	1	193
	2	5
	3	2
Genration no. = 301
   RANK     No Of Individuals
	1	190
	2	3
	3	4
	4	2
	5	1
Genration no. = 302
   RANK     No Of Individuals
	1	190
	2	3
	3	2
	4	2
	5	2
	6	1
Genration no. = 303
   RANK     No Of Individuals
	1	195
	2	4
	3	1
Genration no. = 304
   RANK     No Of Individuals
	1	195
	2	2
	3	2
	4	1
Genration no. = 305
   RANK     No Of Individuals
	1	190
	2	4
	3	4
	4	2
Genration no. = 306
   RANK     No Of Individuals
	1	193
	2	3
	3	1
	4	1
	5	1
	6	1
Genration no. = 307
   RANK     No Of Individuals
	1	193
	2	3
	3	3
	4	1
Genration no. = 308
   RANK     No Of Individuals
	1	195
	2	4
	3	1
Genration no. = 309
   RANK     No Of Individuals
	1	193
	2	3
	3	4
Genration no. = 310
   RANK     No Of Individuals
	1	195
	2	2
	3	1
	4	2
Genration no. = 311
   RANK     No Of Individuals
	1	194
	2	3
	3	2
	4	1
Genration no. = 312
   RANK     No Of Individuals
	1	192
	2	4
	3	3
	4	1
Genration no. = 313
   RANK     No Of Individuals
	1	195
	2	2
	3	1
	4	1
	5	1
Genration no. = 314
   RANK     No Of Individuals
	1	196
	2	4
Genration no. = 315
   RANK     No Of Individuals
	1	194
	2	3
	3	3
Genration no. = 316
   RANK     No Of Individuals
	1	189
	2	3
	3	3
	4	2
	5	1
	6	2
Genration no. = 317
   RANK     No Of Individuals
	1	195
	2	3
	3	2
Genration no. = 318
   RANK     No Of Individuals
	1	197
	2	2
	3	1
Genration no. = 319
   RANK     No Of Individuals
	1	192
	2	4
	3	2
	4	2
Genration no. = 320
   RANK     No Of Individuals
	1	198
	2	2
Genration no. = 321
   RANK     No Of Individuals
	1	189
	2	3
	3	7
	4	1
Genration no. = 322
   RANK     No Of Individuals
	1	195
	2	3
	3	1
	4	1
Genration no. = 323
   RANK     No Of Individuals
	1	191
	2	3
	3	4
	4	2
Genration no. = 324
   RANK     No Of Individuals
	1	191
	2	4
	3	2
	4	1
	5	1
	6	1
Genration no. = 325
   RANK     No Of Individuals
	1	192
	2	3
	3	3
	4	1
	5	1
Genration no. = 326
   RANK     No Of Individuals
	1	192
	2	4
	3	2
	4	1
	5	1
Genration no. = 327
   RANK     No Of Individuals
	1	195
	2	4
	3	1
Genration no. = 328
   RANK     No Of Individuals
	1	193
	2	4
	3	2
	4	1
Genration no. = 329
   RANK     No Of Individuals
	1	196
	2	3
	3	1
Genration no. = 330
   RANK     No Of Individuals
	1	194
	2	6
Genration no. = 331
   RANK     No Of Individuals
	1	193
	2	4
	3	3
Genration no. = 332
   RANK     No Of Individuals
	1	191
	2	5
	3	3
	4	1
Genration no. = 333
   RANK     No Of Individuals
	1	194
	2	3
	3	2
	4	1
Genration no. = 334
   RANK     No Of Individuals
	1	197
	2	2
	3	1
Genration no. = 335
   RANK     No Of Individuals
	1	193
	2	3
	3	2
	4	1
	5	1
Genration no. = 336
   RANK     No Of Individuals
	1	194
	2	4
	3	1
	4	1
Genration no. = 337
   RANK     No Of Individuals
	1	192
	2	2
	3	2
	4	2
	5	2
Genration no. = 338
   RANK     No Of Individuals
	1	194
	2	3
	3	1
	4	2
Genration no. = 339
   RANK     No Of Individuals
	1	192
	2	3
	3	3
	4	1
	5	1
Genration no. = 340
   RANK     No Of Individuals
	1	194
	2	3
	3	3
Genration no. = 341
   RANK     No Of Individuals
	1	195
	2	3
	3	2
Genration no. = 342
   RANK     No Of Individuals
	1	194
	2	5
	3	1
Genration no. = 343
   RANK     No Of Individuals
	1	197
	2	3
Genration no. = 344
   RANK     No Of Individuals
	1	196
	2	2
	3	1
	4	1
Genration no. = 345
   RANK     No Of Individuals
	1	191
	2	3
	3	3
	4	2
	5	1
Genration no. = 346
   RANK     No Of Individuals
	1	195
	2	2
	3	1
	4	1
	5	1
Genration no. = 347
   RANK     No Of Individuals
	1	193
	2	4
	3	2
	4	1
Genration no. = 348
   RANK     No Of Individuals
	1	194
	2	4
	3	1
	4	1
Genration no. = 349
   RANK     No Of Individuals
	1	195
	2	2
	3	2
	4	1
Genration no. = 350
   RANK     No Of Individuals
	1	193
	2	3
	3	2
	4	1
	5	1
Genration no. = 351
   RANK     No Of Individuals
	1	196
	2	2
	3	1
	4	1
Genration no. = 352
   RANK     No Of Individuals
	1	196
	2	2
	3	2
Genration no. = 353
   RANK     No Of Individuals
	1	196
	2	2
	3	1
	4	1
Genration no. = 354
   RANK     No Of Individuals
	1	196
	2	2
	3	2
Genration no. = 355
   RANK     No Of Individuals
	1	196
	2	3
	3	1
Genration no. = 356
   RANK     No Of Individuals
	1	195
	2	3
	3	1
	4	1
Genration no. = 357
   RANK     No Of Individuals
	1	191
	2	7
	3	1
	4	1
Genration no. = 358
   RANK     No Of Individuals
	1	197
	2	3
Genration no. = 359
   RANK     No Of Individuals
	1	195
	2	3
	3	1
	4	1
Genration no. = 360
   RANK     No Of Individuals
	1	195
	2	3
	3	2
Genration no. = 361
   RANK     No Of Individuals
	1	195
	2	2
	3	2
	4	1
Genration no. = 362
   RANK     No Of Individuals
	1	192
	2	4
	3	2
	4	1
	5	1
Genration no. = 363
   RANK     No Of Individuals
	1	193
	2	4
	3	2
	4	1
Genration no. = 364
   RANK     No Of Individuals
	1	196
	2	2
	3	2
Genration no. = 365
   RANK     No Of Individuals
	1	196
	2	3
	3	1
Genration no. = 366
   RANK     No Of Individuals
	1	193
	2	4
	3	1
	4	1
	5	1
Genration no. = 367
   RANK     No Of Individuals
	1	195
	2	3
	3	1
	4	1
Genration no. = 368
   RANK     No Of Individuals
	1	195
	2	2
	3	2
	4	1
Genration no. = 369
   RANK     No Of Individuals
	1	194
	2	3
	3	2
	4	1
Genration no. = 370
   RANK     No Of Individuals
	1	194
	2	4
	3	2
Genration no. = 371
   RANK     No Of Individuals
	1	195
	2	2
	3	1
	4	2
Genration no. = 372
   RANK     No Of Individuals
	1	196
	2	3
	3	1
Genration no. = 373
   RANK     No Of Individuals
	1	196
	2	3
	3	1
Genration no. = 374
   RANK     No Of Individuals
	1	192
	2	5
	3	3
Genration no. = 375
   RANK     No Of Individuals
	1	192
	2	4
	3	3
	4	1
Genration no. = 376
   RANK     No Of Individuals
	1	193
	2	3
	3	2
	4	2
Genration no. = 377
   RANK     No Of Individuals
	1	192
	2	4
	3	3
	4	1
Genration no. = 378
   RANK     No Of Individuals
	1	195
	2	2
	3	3
Genration no. = 379
   RANK     No Of Individuals
	1	193
	2	4
	3	2
	4	1
Genration no. = 380
   RANK     No Of Individuals
	1	193
	2	2
	3	2
	4	2
	5	1
Genration no. = 381
   RANK     No Of Individuals
	1	195
	2	4
	3	1
Genration no. = 382
   RANK     No Of Individuals
	1	186
	2	8
	3	4
	4	1
	5	1
Genration no. = 383
   RANK     No Of Individuals
	1	195
	2	3
	3	2
Genration no. = 384
   RANK     No Of Individuals
	1	199
	2	1
Genration no. = 385
   RANK     No Of Individuals
	1	193
	2	3
	3	2
	4	2
Genration no. = 386
   RANK     No Of Individuals
	1	192
	2	3
	3	2
	4	3
Genration no. = 387
   RANK     No Of Individuals
	1	196
	2	4
Genration no. = 388
   RANK     No Of Individuals
	1	196
	2	1
	3	1
	4	1
	5	1
Genration no. = 389
   RANK     No Of Individuals
	1	194
	2	3
	3	2
	4	1
Genration no. = 390
   RANK     No Of Individuals
	1	193
	2	2
	3	2
	4	1
	5	1
	6	1
Genration no. = 391
   RANK     No Of Individuals
	1	195
	2	2
	3	2
	4	1
Genration no. = 392
   RANK     No Of Individuals
	1	190
	2	4
	3	2
	4	2
	5	1
	6	1
Genration no. = 393
   RANK     No Of Individuals
	1	193
	2	3
	3	1
	4	1
	5	1
	6	1
Genration no. = 394
   RANK     No Of Individuals
	1	194
	2	2
	3	2
	4	2
Genration no. = 395
   RANK     No Of Individuals
	1	192
	2	5
	3	2
	4	1
Genration no. = 396
   RANK     No Of Individuals
	1	194
	2	3
	3	2
	4	1
Genration no. = 397
   RANK     No Of Individuals
	1	193
	2	3
	3	2
	4	1
	5	1
Genration no. = 398
   RANK     No Of Individuals
	1	190
	2	5
	3	3
	4	2
Genration no. = 399
   RANK     No Of Individuals
	1	192
	2	3
	3	2
	4	1
	5	1
	6	1
Genration no. = 400
   RANK     No Of Individuals
	1	198
	2	2
Genration no. = 401
   RANK     No Of Individuals
	1	199
	2	1
Genration no. = 402
   RANK     No Of Individuals
	1	190
	2	3
	3	3
	4	4
Genration no. = 403
   RANK     No Of Individuals
	1	193
	2	3
	3	2
	4	1
	5	1
Genration no. = 404
   RANK     No Of Individuals
	1	194
	2	3
	3	2
	4	1
Genration no. = 405
   RANK     No Of Individuals
	1	196
	2	4
Genration no. = 406
   RANK     No Of Individuals
	1	196
	2	4
Genration no. = 407
   RANK     No Of Individuals
	1	199
	2	1
Genration no. = 408
   RANK     No Of Individuals
	1	194
	2	3
	3	2
	4	1
Genration no. = 409
   RANK     No Of Individuals
	1	190
	2	4
	3	1
	4	3
	5	2
Genration no. = 410
   RANK     No Of Individuals
	1	194
	2	4
	3	2
Genration no. = 411
   RANK     No Of Individuals
	1	194
	2	3
	3	1
	4	1
	5	1
Genration no. = 412
   RANK     No Of Individuals
	1	197
	2	2
	3	1
Genration no. = 413
   RANK     No Of Individuals
	1	190
	2	3
	3	5
	4	2
Genration no. = 414
   RANK     No Of Individuals
	1	195
	2	2
	3	2
	4	1
Genration no. = 415
   RANK     No Of Individuals
	1	194
	2	4
	3	1
	4	1
Genration no. = 416
   RANK     No Of Individuals
	1	197
	2	2
	3	1
Genration no. = 417
   RANK     No Of Individuals
	1	194
	2	4
	3	2
Genration no. = 418
   RANK     No Of Individuals
	1	194
	2	4
	3	1
	4	1
Genration no. = 419
   RANK     No Of Individuals
	1	190
	2	4
	3	2
	4	2
	5	1
	6	1
Genration no. = 420
   RANK     No Of Individuals
	1	195
	2	4
	3	1
Genration no. = 421
   RANK     No Of Individuals
	1	196
	2	3
	3	1
Genration no. = 422
   RANK     No Of Individuals
	1	195
	2	2
	3	2
	4	1
Genration no. = 423
   RANK     No Of Individuals
	1	196
	2	3
	3	1
Genration no. = 424
   RANK     No Of Individuals
	1	194
	2	2
	3	2
	4	1
	5	1
Genration no. = 425
   RANK     No Of Individuals
	1	195
	2	3
	3	2
Genration no. = 426
   RANK     No Of Individuals
	1	197
	2	3
Genration no. = 427
   RANK     No Of Individuals
	1	195
	2	2
	3	1
	4	1
	5	1
Genration no. = 428
   RANK     No Of Individuals
	1	196
	2	2
	3	2
Genration no. = 429
   RANK     No Of Individuals
	1	191
	2	4
	3	2
	4	2
	5	1
Genration no. = 430
   RANK     No Of Individuals
	1	195
	2	2
	3	2
	4	1
Genration no. = 431
   RANK     No Of Individuals
	1	186
	2	2
	3	2
	4	2
	5	3
	6	2
	7	2
	8	1
Genration no. = 432
   RANK     No Of Individuals
	1	192
	2	5
	3	1
	4	1
	5	1
Genration no. = 433
   RANK     No Of Individuals
	1	191
	2	5
	3	2
	4	2
Genration no. = 434
   RANK     No Of Individuals
	1	195
	2	4
	3	1
Genration no. = 435
   RANK     No Of Individuals
	1	192
	2	4
	3	2
	4	2
Genration no. = 436
   RANK     No Of Individuals
	1	192
	2	3
	3	3
	4	1
	5	1
Genration no. = 437
   RANK     No Of Individuals
	1	196
	2	3
	3	1
Genration no. = 438
   RANK     No Of Individuals
	1	198
	2	1
	3	1
Genration no. = 439
   RANK     No Of Individuals
	1	189
	2	5
	3	3
	4	2
	5	1
Genration no. = 440
   RANK     No Of Individuals
	1	190
	2	3
	3	3
	4	1
	5	1
	6	1
	7	1
Genration no. = 441
   RANK     No Of Individuals
	1	195
	2	4
	3	1
Genration no. = 442
   RANK     No Of Individuals
	1	199
	2	1
Genration no. = 443
   RANK     No Of Individuals
	1	191
	2	2
	3	3
	4	3
	5	1
Genration no. = 444
   RANK     No Of Individuals
	1	192
	2	5
	3	2
	4	1
Genration no. = 445
   RANK     No Of Individuals
	1	192
	2	6
	3	1
	4	1
Genration no. = 446
   RANK     No Of Individuals
	1	196
	2	2
	3	2
Genration no. = 447
   RANK     No Of Individuals
	1	193
	2	4
	3	1
	4	1
	5	1
Genration no. = 448
   RANK     No Of Individuals
	1	189
	2	3
	3	6
	4	2
Genration no. = 449
   RANK     No Of Individuals
	1	193
	2	5
	3	2
Genration no. = 450
   RANK     No Of Individuals
	1	194
	2	5
	3	1
Genration no. = 451
   RANK     No Of Individuals
	1	194
	2	3
	3	3
Genration no. = 452
   RANK     No Of Individuals
	1	193
	2	3
	3	3
	4	1
Genration no. = 453
   RANK     No Of Individuals
	1	191
	2	3
	3	4
	4	2
Genration no. = 454
   RANK     No Of Individuals
	1	196
	2	3
	3	1
Genration no. = 455
   RANK     No Of Individuals
	1	197
	2	3
Genration no. = 456
   RANK     No Of Individuals
	1	194
	2	3
	3	3
Genration no. = 457
   RANK     No Of Individuals
	1	192
	2	3
	3	3
	4	2
Genration no. = 458
   RANK     No Of Individuals
	1	193
	2	6
	3	1
Genration no. = 459
   RANK     No Of Individuals
	1	194
	2	4
	3	2
Genration no. = 460
   RANK     No Of Individuals
	1	197
	2	3
Genration no. = 461
   RANK     No Of Individuals
	1	197
	2	2
	3	1
Genration no. = 462
   RANK     No Of Individuals
	1	194
	2	6
Genration no. = 463
   RANK     No Of Individuals
	1	192
	2	2
	3	4
	4	1
	5	1
Genration no. = 464
   RANK     No Of Individuals
	1	193
	2	6
	3	1
Genration no. = 465
   RANK     No Of Individuals
	1	195
	2	2
	3	1
	4	1
	5	1
Genration no. = 466
   RANK     No Of Individuals
	1	198
	2	2
Genration no. = 467
   RANK     No Of Individuals
	1	192
	2	3
	3	2
	4	3
Genration no. = 468
   RANK     No Of Individuals
	1	197
	2	2
	3	1
Genration no. = 469
   RANK     No Of Individuals
	1	196
	2	3
	3	1
Genration no. = 470
   RANK     No Of Individuals
	1	194
	2	2
	3	3
	4	1
Genration no. = 471
   RANK     No Of Individuals
	1	192
	2	4
	3	1
	4	1
	5	1
	6	1
Genration no. = 472
   RANK     No Of Individuals
	1	195
	2	1
	3	2
	4	1
	5	1
Genration no. = 473
   RANK     No Of Individuals
	1	196
	2	4
Genration no. = 474
   RANK     No Of Individuals
	1	197
	2	2
	3	1
Genration no. = 475
   RANK     No Of Individuals
	1	190
	2	3
	3	2
	4	1
	5	1
	6	1
	7	1
	8	1
Genration no. = 476
   RANK     No Of Individuals
	1	194
	2	2
	3	2
	4	2
Genration no. = 477
   RANK     No Of Individuals
	1	191
	2	5
	3	1
	4	3
Genration no. = 478
   RANK     No Of Individuals
	1	186
	2	3
	3	7
	4	1
	5	1
	6	1
	7	1
Genration no. = 479
   RANK     No Of Individuals
	1	194
	2	4
	3	1
	4	1
Genration no. = 480
   RANK     No Of Individuals
	1	194
	2	3
	3	3
Genration no. = 481
   RANK     No Of Individuals
	1	192
	2	4
	3	2
	4	1
	5	1
Genration no. = 482
   RANK     No Of Individuals
	1	196
	2	3
	3	1
Genration no. = 483
   RANK     No Of Individuals
	1	192
	2	3
	3	4
	4	1
Genration no. = 484
   RANK     No Of Individuals
	1	198
	2	2
Genration no. = 485
   RANK     No Of Individuals
	1	197
	2	2
	3	1
Genration no. = 486
   RANK     No Of Individuals
	1	198
	2	2
Genration no. = 487
   RANK     No Of Individuals
	1	195
	2	3
	3	2
Genration no. = 488
   RANK     No Of Individuals
	1	195
	2	3
	3	2
Genration no. = 489
   RANK     No Of Individuals
	1	195
	2	3
	3	2
Genration no. = 490
   RANK     No Of Individuals
	1	189
	2	3
	3	2
	4	3
	5	1
	6	1
	7	1
Genration no. = 491
   RANK     No Of Individuals
	1	196
	2	2
	3	2
Genration no. = 492
   RANK     No Of Individuals
	1	194
	2	3
	3	3
Genration no. = 493
   RANK     No Of Individuals
	1	196
	2	3
	3	1
Genration no. = 494
   RANK     No Of Individuals
	1	198
	2	2
Genration no. = 495
   RANK     No Of Individuals
	1	196
	2	3
	3	1
Genration no. = 496
   RANK     No Of Individuals
	1	190
	2	3
	3	4
	4	2
	5	1
Genration no. = 497
   RANK     No Of Individuals
	1	191
	2	3
	3	2
	4	2
	5	1
	6	1
Genration no. = 498
   RANK     No Of Individuals
	1	193
	2	3
	3	3
	4	1
Genration no. = 499
   RANK     No Of Individuals
	1	193
	2	5
	3	1
	4	1
Genration no. = 500
   RANK     No Of Individuals
	1	193
	2	2
	3	3
	4	1
	5	1
