^D:\CFJ\DOCUMENT\學生成績\104(上)\SC\PROGRAM\NSGAII\NSGAII(2013-WINDOWS)\NSGAII\DEBUG\NSGAII.OBJ|D:\CFJ\DOCUMENT\學生成績\104(上)\SC\PROGRAM\NSGAII\NSGAII(2013-WINDOWS)\NSGAII\DEBUG\STDAFX.OBJ
/OUT:"D:\CFJ\DOCUMENT\學生成績\104(上)\SC\PROGRAM\NSGAII\NSGAII(2013-WINDOWS)\DEBUG\NSGAII.EXE" /INCREMENTAL /NOLOGO kernel32.lib user32.lib gdi32.lib winspool.lib comdlg32.lib advapi32.lib shell32.lib ole32.lib oleaut32.lib uuid.lib odbc32.lib odbccp32.lib /MANIFEST /MANIFESTUAC:"level='asInvoker' uiAccess='false'" /manifest:embed /DEBUG /PDB:"D:\CFJ\DOCUMENT\學生成績\104(上)\SC\PROGRAM\NSGAII\NSGAII(2013-WINDOWS)\DEBUG\NSGAII.PDB" /SUBSYSTEM:CONSOLE /TLBID:1 /DYNAMICBASE /NXCOMPAT /IMPLIB:"D:\CFJ\DOCUMENT\學生成績\104(上)\SC\PROGRAM\NSGAII\NSGAII(2013-WINDOWS)\DEBUG\NSGAII.LIB" /MACHINE:X86 DEBUG\NSGAII.OBJDEBUG\STDAFX.OBJ
^D:\GOOGLE 雲端硬碟\中興機械所205研究室\機械所課程\碩二上學期\軟性計算與智慧\NSGAII\NSGAII\DEBUG\NSGAII.OBJ|D:\GOOGLE 雲端硬碟\中興機械所205研究室\機械所課程\碩二上學期\軟性計算與智慧\NSGAII\NSGAII\DEBUG\STDAFX.OBJ
/OUT:"D:\GOOGLE 雲端硬碟\中興機械所205研究室\機械所課程\碩二上學期\軟性計算與智慧\NSGAII\DEBUG\NSGAII.EXE" /INCREMENTAL /NOLOGO kernel32.lib user32.lib gdi32.lib winspool.lib comdlg32.lib advapi32.lib shell32.lib ole32.lib oleaut32.lib uuid.lib odbc32.lib odbccp32.lib /MANIFEST /MANIFESTUAC:"level='asInvoker' uiAccess='false'" /manifest:embed /DEBUG /PDB:"D:\GOOGLE 雲端硬碟\中興機械所205研究室\機械所課程\碩二上學期\軟性計算與智慧\NSGAII\DEBUG\NSGAII.PDB" /SUBSYSTEM:CONSOLE /TLBID:1 /DYNAMICBASE /NXCOMPAT /IMPLIB:"D:\GOOGLE 雲端硬碟\中興機械所205研究室\機械所課程\碩二上學期\軟性計算與智慧\NSGAII\DEBUG\NSGAII.LIB" /MACHINE:X86 DEBUG\NSGAII.OBJDEBUG\STDAFX.OBJ
^D:\GOOGLE 雲端硬碟\中興機械所205研究室\機械所課程\碩二上學期\軟性計算與智慧\HW2\NSGAII\NSGAII\DEBUG\NSGAII.OBJ|D:\GOOGLE 雲端硬碟\中興機械所205研究室\機械所課程\碩二上學期\軟性計算與智慧\HW2\NSGAII\NSGAII\DEBUG\PSO(VS_2012).OBJ|D:\GOOGLE 雲端硬碟\中興機械所205研究室\機械所課程\碩二上學期\軟性計算與智慧\HW2\NSGAII\NSGAII\DEBUG\STDAFX.OBJ
/OUT:"D:\GOOGLE 雲端硬碟\中興機械所205研究室\機械所課程\碩二上學期\軟性計算與智慧\HW2\NSGAII\DEBUG\NSGAII.EXE" /INCREMENTAL /NOLOGO kernel32.lib user32.lib gdi32.lib winspool.lib comdlg32.lib advapi32.lib shell32.lib ole32.lib oleaut32.lib uuid.lib odbc32.lib odbccp32.lib /MANIFEST /MANIFESTUAC:"level='asInvoker' uiAccess='false'" /manifest:embed /DEBUG /PDB:"D:\GOOGLE 雲端硬碟\中興機械所205研究室\機械所課程\碩二上學期\軟性計算與智慧\HW2\NSGAII\DEBUG\NSGAII.PDB" /SUBSYSTEM:CONSOLE /TLBID:1 /DYNAMICBASE /NXCOMPAT /IMPLIB:"D:\GOOGLE 雲端硬碟\中興機械所205研究室\機械所課程\碩二上學期\軟性計算與智慧\HW2\NSGAII\DEBUG\NSGAII.LIB" /MACHINE:X86 DEBUG\NSGAII.OBJ"DEBUG\PSO(VS_2012).OBJ"DEBUG\STDAFX.OBJ
